<?xml version="1.0" encoding="utf-8"?>
<!-- Generator: Adobe Illustrator 19.1.1, SVG Export Plug-In . SVG Version: 6.00 Build 0)  -->
<svg version="1.1" id="Calque_1" xmlns="http://www.w3.org/2000/svg" xmlns:xlink="http://www.w3.org/1999/xlink" x="0px" y="0px"
	 viewBox="-454.6 235.5 45.7 45.7" style="enable-background:new -454.6 235.5 45.7 45.7;" xml:space="preserve">
<style type="text/css">
	.st0{opacity:0;fill:#FFFFFF;}
	.st1{fill-rule:evenodd;clip-rule:evenodd;fill:#FFFFFF;}
</style>
<g>
	<rect x="-454.6" y="235.5" class="st0" width="45.7" height="45.7"/>
	<path class="st1" d="M-421.7,244.2L-421.7,244.2c0.9,0,1.7-0.9,1.7-2c0-0.9-0.9-1.7-1.7-1.7c-1.2,0-1.7,0.9-1.7,1.7
		C-423.4,243.3-422.8,244.2-421.7,244.2z M-427.4,244.2L-427.4,244.2c1.2,0,1.7-0.9,1.7-2c0-0.9-0.6-1.7-1.7-1.7
		c-0.9,0-1.7,0.9-1.7,1.7C-429.2,243.3-428.3,244.2-427.4,244.2z M-412.4,245.3L-412.4,245.3c-38.8,0-38.8,0-38.8,0
		c0-6.3,0-6.3,0-6.3c38.8,0,38.8,0,38.8,0C-412.4,245.3-412.4,245.3-412.4,245.3z M-412.4,277.5L-412.4,277.5c-38.8,0-38.8,0-38.8,0
		c0-29.9,0-29.9,0-29.9c38.8,0,38.8,0,38.8,0C-412.4,277.5-412.4,277.5-412.4,277.5z M-410.7,235.5L-410.7,235.5
		c-42.2,0-42.2,0-42.2,0c-1.2,0-1.7,0.9-1.7,1.7c0,42.3,0,42.3,0,42.3c0,0.9,0.6,1.7,1.7,1.7c42.2,0,42.2,0,42.2,0
		c1.2,0,1.7-0.9,1.7-1.7c0-42.3,0-42.3,0-42.3C-408.9,236.4-409.5,235.5-410.7,235.5z M-416.2,244.2c1.2,0,1.7-0.9,1.7-2
		c0-0.9-0.6-1.7-1.7-1.7c-0.9,0-1.7,0.9-1.7,1.7C-417.9,243.3-417,244.2-416.2,244.2z"/>
</g>
</svg>
