<?xml version="1.0" encoding="utf-8"?>
<!-- Generator: Adobe Illustrator 19.1.1, SVG Export Plug-In . SVG Version: 6.00 Build 0)  -->
<svg version="1.1" id="Calque_1" xmlns="http://www.w3.org/2000/svg" xmlns:xlink="http://www.w3.org/1999/xlink" x="0px" y="0px"
	 viewBox="0 0 123.7 123.7" style="enable-background:new 0 0 123.7 123.7;" xml:space="preserve">
<style type="text/css">
	.st0{fill:#FFFFFF;}
	.st1{fill-rule:evenodd;clip-rule:evenodd;fill:#FFFFFF;}
	.st2{fill-rule:evenodd;clip-rule:evenodd;fill:#006699;}
	.st3{fill-rule:evenodd;clip-rule:evenodd;fill:#006E8A;}
</style>
<rect x="22" y="24" class="st0" width="79.9" height="76.8"/>
<g>
	<circle class="st1" cx="66.2" cy="62.3" r="51.6"/>
	<g>
		<path class="st2" d="M92.7,54.6L92.7,54.6c0,25.7,0,25.7,0,25.7c0,6.6-5.3,11.9-11.8,11.9c-38.1,0-38.1,0-38.1,0
			c-6.6,0-11.8-5.3-11.8-11.9c0-25.7,0-25.7,0-25.7c0-12.5,0-12.5,0-12.5c0-6.6,5.3-11.8,11.8-11.8c38.1,0,38.1,0,38.1,0
			c6.6,0,11.8,5.2,11.8,11.8V54.6z M61.9-0.6L61.9-0.6C27.6-0.6,0,27,0,61.2C0,95.4,27.6,123,61.9,123c34.2,0,61.8-27.6,61.8-61.8
			C123.7,27,96.1-0.6,61.9-0.6z"/>
		<polyline class="st3" points="84.2,46.7 84.2,40.3 84.2,38.9 82.9,38.9 73.7,39.4 73.7,46.7 84.2,46.7 		"/>
		<path class="st3" d="M61.8,71.6L61.8,71.6c5.7,0,10.8-4.4,10.8-10.1c0-2.5-0.7-4.4-2-6.3c-1.9-2.5-5-4.4-8.8-4.4
			c-3.2,0-6.4,1.9-8.3,4.4c-1.2,1.9-1.9,3.7-1.9,6.3C51.6,67.2,56,71.6,61.8,71.6"/>
		<path class="st3" d="M79,61.2L79,61.2c0,9.2-7.8,16.4-16.8,16.4c-9.2,0-16.9-7.2-16.9-16.4c0-2.6,0.7-4.6,1.3-6.6
			c-9.1,0-9.1,0-9.1,0c0,25.6,0,25.6,0,25.6c0,3.2,2.6,5.9,5.9,5.9c37.6,0,37.6,0,37.6,0c3.3,0,5.9-2.6,5.9-5.9
			c0-25.6,0-25.6,0-25.6c-9.1,0-9.1,0-9.1,0C78.3,56.6,79,58.6,79,61.2"/>
	</g>
</g>
</svg>
