<?xml version="1.0" encoding="utf-8"?>
<!-- Generator: Adobe Illustrator 19.1.1, SVG Export Plug-In . SVG Version: 6.00 Build 0)  -->
<svg version="1.1" id="Calque_1" xmlns="http://www.w3.org/2000/svg" xmlns:xlink="http://www.w3.org/1999/xlink" x="0px" y="0px"
	 viewBox="160 -53.5 1280.9 667.5" style="enable-background:new 160 -53.5 1280.9 667.5;" xml:space="preserve">
<style type="text/css">
	.st0{fill:#FFC001;}
	.st1{font-family:'ChaletComprime-CologneSixty';}
	.st2{font-size:27.409px;}
	.st3{fill:#FFFFFF;}
</style>
<text transform="matrix(1 0 0 1 655.9979 101.0822)" class="st0 st1 st2"> </text>
<g>
	<g>
		<path class="st3" d="M618.4,105.5c3.6,0,7.4,1.2,9.8,3.3c1.3,1.1,2.1,2.3,2.1,3.6c0,1.2-0.5,5.4-8.8,15c-2.7,3.1-5.6,7.1-5.6,7.3
			s0.2,0.3,0.4,0.4c1.9,0.9,4.6,0.4,6.5,1.1c3.4,1.3,6.2,3.9,7.7,6.8c0.6,1.1,0.7,2,0.7,3.4c0,8.9-4.8,14.9-10.1,23.5
			c-3.3,5.4-9.6,7.7-16.3,7.7c-3.2,0-8.4-0.6-10.6-1.8c-1.1-0.6-3.2-1.1-5.1-2.9c-0.4,0.2-1,0.2-1.5,0.2c-2.2,0-4.3-2.1-6-3.6
			c-0.6-0.5-0.6-0.8-0.6-1.2c0-1.5-4.2-4.9-4.3-5.9c-0.2-2-1.7-2.4-1.7-4.6c0-1.3,1.2-1.7,5.7-1.7c0.6,0,1.5,0.4,1.9,0.4
			c0.4,0,0.8,0,1.1-1.3c2.9-12.8,5.2-21,9.4-32c0-0.2-0.1-0.4-0.3-0.7c-0.8-1.2-0.9-2-0.9-3.3c0-1,0.1-1.1,0.6-1.3
			c2.9-1.2,4.1-3.5,5.6-7.9c1.4-4.1,2.5-4.8,3.7-4.8c2.3,0,4.6,2.6,7.1,2.6c0.7,0,1.5-0.3,2.4-0.8
			C612.3,106.6,615.3,105.5,618.4,105.5z M603.5,146.6c-2.5,1.7-5.8,3.3-8.3,3.3c-0.8,0-0.9,0.2-1.1,1c-0.7,3-3.1,11.5-3.1,14.2
			c0,0.4,0.1,0.9,0.7,1.5c3.1,3.1,7.6,6.4,13.4,6.4c5.6,0,9.2-6.8,14.1-16.8c2.5-5.3,2.5-8.6,2.5-10.7c0-1.6-0.2-2.2-1-3.2
			s-2.2-1.2-4.1-1.2C611.9,141,605.9,145.1,603.5,146.6z M619.9,111.8c-5.8,0-10.2,2.2-14.5,5.3c-0.7,0.5-0.9,0.7-1.2,1.4
			c-0.6,1.5-1.4,2.9-1.9,4.5c-1.4,4.3-6.2,15.9-6.2,18.6c0,0.4,0.1,0.4,0.4,0.4c0.6,0,3.6-1.8,5.4-4.1c0.7-0.9,1.7-2.3,2.3-3
			c3-3.5,7.7-8.1,10.9-12.6c3.9-5.4,5.3-9.3,5.3-9.9C620.5,112,620.4,111.8,619.9,111.8z"/>
		<path class="st3" d="M670.2,133.4c4.1,0,6.4-0.3,8.7-0.3c3.2,0,6.3,1,6.3,2.6c0,1.3-2.5,1.6-2.8,2.1c-0.2,0.4-0.4,0.5-1.1,0.6
			c-2,0.3-5,1.3-7.6,1.7c-2,0.3-3.2,0.3-4,0.3s-1,0.1-1.2,0.8c-2.6,10.8-6.3,20.3-12.8,27.2c-2.8,3-5.6,6-9.1,6
			c-0.9,0-1.8-0.2-2.4-0.5c-3.9-1.8-6.7-4.1-7.6-6.4c-1.1-2.8-1.5-5.9-1.5-8.4c0-8.3,4.2-15.6,8.8-22.6c1.4-2.1,1.4-1.6,2.4-3
			c3.2-4.6,7.5-9.3,12-9.3c1.6,0,3.6,0.4,5.4,1.9c0.8,0.7,1.1,0.9,1.4,1.7C666,130.4,667.3,133.4,670.2,133.4z M659.1,133
			c-0.3-1-0.6-1.7-1-1.7c-0.4,0-1,0.4-1.5,1c-0.4,0.5-1.4,1-1.9,1.7c-3.1,4-12.7,16.5-12.7,28.4c0,0.3,0,0.7,0.3,1.4
			c0.3,0.8,1.5,2.7,2.4,3.3c0.3,0.2,0.6,0.2,0.9,0.2c1,0,1.5-0.6,1.9-0.8c0.7-0.3,0.9-0.6,1.7-1.8c5.9-8.8,11.4-16.7,11.4-27
			c0-0.4,0-1.6-0.1-2.1c-0.1-0.7-0.3-0.8-0.6-1.1C659.4,134,659.2,133.4,659.1,133z"/>
		<path class="st3" d="M671.6,168.5c-0.2-1.1-0.3-2.2-0.3-3.4c0-4.7,2.1-9.3,4.4-15.1c4.4-11.4,13.4-27.6,21.1-40.7
			c1.7-2.9,2.3-8.6,6.3-8.6c1.4,0,2.2-0.2,3.3-0.2c1,0,2.1,0.4,2.6,1.1c0.6,0.9,0.8,1.8,0.8,2.8c0,1.3-0.4,2.5-1,3.5
			c-9.2,14.9-19.9,28.5-25.8,44.3c-1.6,4.2-3.9,8-3.9,12.5c0,1.2,0.1,2.4,0.5,3.7c0.3,0.9,1.1,1.2,2,1.2c0.6,0,1.2-0.1,1.7-0.4
			c4.5-2.7,9.4-11.4,14.1-11.4c0.8,0,3.4,0.7,3.4,2.3c0,1.3-1,1.7-2,2.8c-5.2,5.6-9.3,13.3-17.1,13.3
			C681.1,176.3,672.6,174,671.6,168.5z"/>
		<path class="st3" d="M731,133.4c4.1,0,6.4-0.3,8.7-0.3c3.2,0,6.3,1,6.3,2.6c0,1.3-2.5,1.6-2.8,2.1c-0.2,0.4-0.4,0.5-1.1,0.6
			c-2,0.3-5,1.3-7.6,1.7c-2,0.3-3.2,0.3-4,0.3s-1,0.1-1.2,0.8c-2.6,10.8-6.3,20.3-12.8,27.2c-2.8,3-5.6,6-9.1,6
			c-0.9,0-1.8-0.2-2.4-0.5c-3.9-1.8-6.7-4.1-7.6-6.4c-1.1-2.8-1.5-5.9-1.5-8.4c0-8.3,4.2-15.6,8.8-22.6c1.4-2.1,1.4-1.6,2.4-3
			c3.2-4.6,7.5-9.3,12-9.3c1.6,0,3.6,0.4,5.4,1.9c0.8,0.7,1.1,0.9,1.4,1.7C726.8,130.4,728.1,133.4,731,133.4z M719.9,133
			c-0.3-1-0.6-1.7-1-1.7s-1,0.4-1.5,1c-0.4,0.5-1.4,1-1.9,1.7c-3.1,4-12.7,16.5-12.7,28.4c0,0.3,0,0.7,0.3,1.4
			c0.3,0.8,1.5,2.7,2.4,3.3c0.3,0.2,0.6,0.2,0.9,0.2c1,0,1.5-0.6,1.9-0.8c0.7-0.3,0.9-0.6,1.7-1.8c5.9-8.8,11.4-16.7,11.4-27
			c0-0.4,0-1.6-0.1-2.1c-0.1-0.7-0.3-0.8-0.6-1.1C720.2,134,720,133.4,719.9,133z"/>
		<path class="st3" d="M765.4,134c0,3.9-1.5,6.6-2.9,8.4c-0.8,1-0.9,1.1-1.4,1.1c-1.1,0-2.8-0.7-3.5-1.3c-0.9-0.7-1.5-1.7-1.5-3.2
			c0-0.2,0.1-0.5,0.3-0.8c0.9-1.5,1.7-2.9,1.7-4.7c0-0.8-0.3-2-0.7-2.7s-1.4-1.4-2.2-1.4c-0.7,0-5.4,5.8-6.2,10.4
			c-0.1,0.7-0.2,1.4-0.2,2.6c0,0.6,0.5,5.2,0.7,6.5c0.9,7.6,3.2,19,3.2,23.1c0,0.8-0.4,1.4-0.8,1.8c-1.8,1.8-3.6,3.6-6.4,3.6
			c-0.9,0-2-0.2-2.5-0.4c-6.7-2.7-11.5-8-14.8-13.6c-0.3-0.5-0.6-1.2-0.6-1.5c0-1.5,1.5-3.7,3.6-3.7c2,0,2.9,0.2,3.9,1.4
			c2.3,3.1,3.5,7,6.6,9.7c1,0.9,1.5,1.1,2,1.1c0.6,0,1-0.4,1-0.8c0-0.4,0-0.6-0.5-3.1c-1.4-6.7-3.2-21.9-3.2-23.9
			c0-2.7,1.2-8.5,3.6-12.4c2.9-4.7,7.1-6.5,9-6.5c5.6,0,7.8,1.4,9.9,3.6C764.9,129,765.4,132,765.4,134z"/>
		<path class="st3" d="M795.4,134c0,3.9-1.5,6.6-2.9,8.4c-0.8,1-0.9,1.1-1.4,1.1c-1.1,0-2.8-0.7-3.5-1.3c-0.9-0.7-1.5-1.7-1.5-3.2
			c0-0.2,0.1-0.5,0.3-0.8c0.9-1.5,1.7-2.9,1.7-4.7c0-0.8-0.3-2-0.7-2.7s-1.4-1.4-2.2-1.4c-0.7,0-5.4,5.8-6.2,10.4
			c-0.1,0.7-0.2,1.4-0.2,2.6c0,0.6,0.5,5.2,0.7,6.5c0.9,7.6,3.2,19,3.2,23.1c0,0.8-0.4,1.4-0.8,1.8c-1.8,1.8-3.6,3.6-6.4,3.6
			c-0.9,0-2-0.2-2.5-0.4c-6.7-2.7-11.5-8-14.8-13.6c-0.3-0.5-0.6-1.2-0.6-1.5c0-1.5,1.5-3.7,3.6-3.7c2,0,2.9,0.2,3.9,1.4
			c2.3,3.1,3.5,7,6.6,9.7c1,0.9,1.5,1.1,2,1.1c0.6,0,1-0.4,1-0.8c0-0.4,0-0.6-0.5-3.1c-1.4-6.7-3.2-21.9-3.2-23.9
			c0-2.7,1.2-8.5,3.6-12.4c2.9-4.7,7.1-6.5,9-6.5c5.6,0,7.8,1.4,9.9,3.6C794.9,129,795.4,132,795.4,134z"/>
		<path class="st3" d="M835,167.7c0,0.9,0,1.9-0.7,3.9c-0.7,1.8-1.6,4-3.2,4c-0.7,0-1.5,0.1-4,0.1c-1.6,0-3.1-4.5-3.1-6.3
			c0-1.1,0.2-1.6,0.9-2.8c0.4-0.7,0.3-2.4,2.1-2.4c2.8,0,3.9,1.9,6.6,2.1C834.7,166.2,835,167,835,167.7z M850.7,113.5
			c0,3.7-2.2,6.6-3.1,9.5c-3.5,11.1-5.7,21.5-10.2,31.8c-0.4,0.9-0.6,1.2-1.3,1.2c-1.4,0-2-0.7-2.1-1.2c-0.5-2.6-2.8-2.9-2.8-4.4
			c0-0.7,0-1,0.3-1.8c0.7-1.8,0.7-2.6,1.1-4.4c2.3-9.8,5.3-17.5,6.8-27.6c0.5-3.2,1.3-8.1,4.4-8.1c0.8,0,1.3,0.7,2.2,0.9
			c1.3,0.3,1.4,1.2,2.2,1.4C849.5,111.4,850.7,112.6,850.7,113.5z"/>
	</g>
</g>
<g>
	<g>
		<path class="st3" d="M1034.7,54.5c-0.6,0.2-1.4,1.1-3,1.1c-0.8,0-0.6-0.7-2.1-1.3c-1.8-0.7-2.1-1.1-3.2-1.1
			c-5.7,0-10.8,0.7-15.1,1.5c0.5,0.5,0.7,0.9,0.7,1.2c0,0.2-0.1,0.4-0.2,0.6c-8.6,14.6-14.5,29-17.7,46.2c-0.3,1.6-0.5,2.2-0.5,3.5
			c0,0.8,0.1,1.6,0.1,2.4c0,1.8-0.4,3.2-2.7,3.2c-1.5,0-3.5-1-5.2-1.9c-0.5-0.3-1.3-1.7-1.3-2.4c0-0.6,0.3-3.2,0.5-4.3
			c4-16.3,8.8-31.5,16.1-46.4c0-0.3-0.1-0.4-0.6-0.4c-1.4,0.1-4.9,0.5-7.4,0.5c-2.1,0-4.7-0.6-5.7-1.6c-0.2-0.2-0.2-0.4-0.2-2.9
			c0-2.4,1.5-3.5,2.2-3.5c0.9,0,1.1,0.7,7.8,0.7c9.7,0,19.2-3.2,29.6-3.2c3.6,0,9.3,3.9,9.3,5.1C1036,53.4,1035.4,54.3,1034.7,54.5z
			"/>
		<path class="st3" d="M1037.9,67.1c0,0.8-0.5,1.9-2,2.9c-0.8,0.5-2.1,1.6-2.9,4.8c-2.3,9-6.6,19-7.6,26.3c-0.2,1.3-0.2,1.8-0.2,2.3
			s0.7,1.4,1.4,1.4c0.3,0,1.5-0.4,2.2-1c3.6-3.2,3.6-4.1,5.4-5.9c6.3-6.8,11.9-14.3,15.1-22.7c0.5-1.3,0.6-1.5,1.8-2.2
			c0.9-0.5,1.5-0.6,2.3-0.6s1.7,0.8,2.4,1c1.6,0.5,2,1.2,2,1.8c0,1.6-0.2,2-0.6,2.9c-3.4,7.4-6.2,14.9-7.4,22.9
			c-0.3,2.1-0.6,4.7-0.6,7.5c0,2.5,1.8,4.6,1.8,6.8c0,0.7-0.2,1.5-0.6,1.8c-0.3,0.2-0.8,0.3-1.4,0.3c-1.4,0-2.7-0.8-3.9-1.5
			c-1.9-1.2-1.9-0.4-2.5-1.9c-0.8-2-1-4.1-1-6.1c0-2.5,0.3-5.9,0.3-6.9c0-0.3-0.1-0.6-0.4-0.6c-0.4,0-1,0.7-1.4,1.2
			c-3.4,4.1-7.1,7.7-11.4,9.8c-0.8,0.4-0.9,0.4-1.3,0.4c-0.4,0-3.5-0.4-6.1-1.9c-1.8-1.1-2.8-2.1-3-3.1c-0.3-1.5-0.5-3.3-0.5-4.4
			c0-3.6,1.3-8.1,2.3-11.6c0.8-2.7,0.8-3.8,1.7-6.4c2.1-6.1,3.2-12.5,7.1-19.1c1.1-1.9,2.7-2.6,4.4-2.6c1,0,2.9,0.5,3.4,1.6
			C1037.1,65.3,1037.9,66,1037.9,67.1z"/>
		<path class="st3" d="M1101.3,76.3c-0.1,0.3-0.2,0.7-0.1,0.7c0.2,0,0.6-0.5,0.8-0.7c4.5-5.2,8.9-9.6,13.5-12.1
			c1-0.5,1.3-0.6,1.6-0.6c2.9,0,6,1.8,8.5,3.4c0.9,0.6,2,1.5,2,4.1c0,3.3-0.3,5.3-0.7,7.1c-0.2,0.8,0.1,1.5-0.5,3.2
			c-4.9,13.6-7.8,20.8-14.5,26.9c-0.7,0.6-1.9,0.7-2.8,0.7c-2.3,0-5.9-1.9-6.9-2.9c-2.5-2.3-4.1-4.9-5.3-7.4
			c-0.1-0.3-0.3-0.5-0.6-0.5c-0.2,0-0.4,0.1-0.6,0.5c-6.3,11.9-9.7,20.7-13.3,35.6c-0.5,2.1,0.2,3.7-1.2,4.3
			c-1.3,0.5-2.4,0.6-3.5,0.6c-1.2,0-2.1-0.3-3.1-1.4c-0.6-0.7-1.3-0.8-1.4-2.3c0-0.4,0.1-0.9,0.5-2.2c6-19.6,19-47.9,22.5-69.5
			c0.3-1.7,0.6-1.8,1.2-2c1.2-0.4,2.3-1.1,3.9-1.1c1.6,0,3.3,0.9,3.3,2C1104.5,66.7,1102.6,71.1,1101.3,76.3z M1102,88.3
			c-0.7,1.1-0.7,1.6-0.7,2.9c0,2.2,3.2,10.8,5.8,10.8c0.3,0,0.5-0.1,0.8-0.4c3.3-3.1,7.2-13.2,7.5-14.4c3.7-11.5,4-15.8,4-16.1
			c0-0.3-0.3-0.3-0.4-0.3c-0.1,0-0.3,0-0.7,0.2C1111.1,75.6,1106.1,81.9,1102,88.3z"/>
		<path class="st3" d="M1150,67.1c0,0.8-0.5,1.9-2,2.9c-0.8,0.5-2.1,1.6-2.9,4.8c-2.3,9-6.6,19-7.6,26.3c-0.2,1.3-0.2,1.8-0.2,2.3
			s0.7,1.4,1.4,1.4c0.3,0,1.5-0.4,2.2-1c3.6-3.2,3.6-4.1,5.4-5.9c6.3-6.8,11.9-14.3,15.1-22.7c0.5-1.3,0.6-1.5,1.8-2.2
			c0.9-0.5,1.5-0.6,2.3-0.6s1.7,0.8,2.4,1c1.6,0.5,2,1.2,2,1.8c0,1.6-0.2,2-0.6,2.9c-3.4,7.4-6.2,14.9-7.4,22.9
			c-0.3,2.1-0.6,4.7-0.6,7.5c0,2.5,1.8,4.6,1.8,6.8c0,0.7-0.2,1.5-0.6,1.8c-0.3,0.2-0.8,0.3-1.4,0.3c-1.4,0-2.7-0.8-3.9-1.5
			c-1.9-1.2-1.9-0.4-2.5-1.9c-0.8-2-1-4.1-1-6.1c0-2.5,0.3-5.9,0.3-6.9c0-0.3-0.1-0.6-0.4-0.6c-0.4,0-1,0.7-1.4,1.2
			c-3.4,4.1-7.1,7.7-11.4,9.8c-0.8,0.4-0.9,0.4-1.3,0.4c-0.4,0-3.5-0.4-6.1-1.9c-1.8-1.1-2.8-2.1-3-3.1c-0.3-1.5-0.5-3.3-0.5-4.4
			c0-3.6,1.3-8.1,2.3-11.6c0.8-2.7,0.8-3.8,1.7-6.4c2.1-6.1,3.2-12.5,7.1-19.1c1.1-1.9,2.7-2.6,4.4-2.6c1,0,2.9,0.5,3.4,1.6
			C1149.1,65.3,1150,66,1150,67.1z"/>
		<path class="st3" d="M1189.4,111.6c-1.2,0-2.2-0.1-3.9-0.7c-2.2-0.8-5.8-2.4-6.5-2.8c-2-1.1-4-3.6-5.1-7c-0.7-2-1.2-5.9-1.2-7.8
			c0-0.9,0.1-1.9,0.5-3.3c2.8-10.3,9.7-19.3,17.4-27.5c1.7-1.8,5.9-4.6,10.8-4.6c2.7,0,4.2,0.4,6.2,1.1c1.1,0.4,3.2,2.2,3.2,6.3
			c0,2.6-1.1,4.9-2.3,7.3c-1,2-1.8,3.1-3.2,4.8c-7,7.9-14.9,16.7-23.5,21.5c-0.5,0.3-0.6,0.5-0.6,0.8c0,1.6,1.5,3.8,2.4,4.3
			c1.1,0.6,2.1,0.8,3.1,0.8c1.7,0,3.2-0.4,7.8-2.8c7-3.7,11.2-9.2,17.3-13.1c1.1-0.7,1.6-0.7,2-0.7c0.6,0,2,1,2,2
			c0,0.9-0.1,1-0.1,1.3c0,0.4,0,1-0.5,1.4c-4.9,4.2-7,9.2-22.4,17.7C1191.2,111.6,1190.7,111.6,1189.4,111.6z M1202.4,65.3
			c0-0.8,0-1.2-0.6-1.2s-1.2,0.3-2.1,0.9c-1.1,0.7-1,0.4-2,1.3c-6.6,5.9-13.7,14.2-15.9,23.2c0,0.4,0.1,0.5,0.2,0.5
			c0.2,0,0.4-0.1,0.7-0.3c6-4.6,10.9-10.1,15.5-15.6c1.5-1.8,1.1-2.1,2.4-4.2C1201.6,68.4,1202.4,67.1,1202.4,65.3z"/>
		<path class="st3" d="M1241.6,69.9c0,3.9-1.5,6.6-2.9,8.4c-0.8,1-0.9,1.1-1.4,1.1c-1.1,0-2.8-0.7-3.5-1.3c-0.9-0.7-1.5-1.7-1.5-3.2
			c0-0.2,0.1-0.5,0.3-0.8c0.9-1.5,1.7-2.9,1.7-4.7c0-0.8-0.3-2-0.7-2.7c-0.4-0.7-1.4-1.4-2.2-1.4c-0.7,0-5.4,5.8-6.2,10.4
			c-0.1,0.7-0.2,1.4-0.2,2.6c0,0.6,0.5,5.2,0.7,6.5c0.9,7.6,3.2,19,3.2,23.1c0,0.8-0.4,1.4-0.8,1.8c-1.8,1.8-3.6,3.6-6.4,3.6
			c-0.9,0-2-0.2-2.5-0.4c-6.7-2.7-11.5-8-14.8-13.6c-0.3-0.5-0.6-1.2-0.6-1.5c0-1.5,1.5-3.7,3.6-3.7c2,0,2.9,0.2,3.9,1.4
			c2.3,3.1,3.5,7,6.6,9.7c1,0.9,1.5,1.1,2,1.1c0.6,0,1-0.4,1-0.8c0-0.4,0-0.6-0.5-3.1c-1.4-6.7-3.2-21.9-3.2-23.9
			c0-2.7,1.2-8.5,3.6-12.4c2.9-4.7,7.1-6.5,9-6.5c5.6,0,7.8,1.4,9.9,3.6C1241.1,64.8,1241.6,67.8,1241.6,69.9z"/>
	</g>
</g>
<g>
	<g>
		<path class="st3" d="M375.6,209.1c3.6,0,7.4,1.2,9.8,3.3c1.3,1.1,2.1,2.3,2.1,3.6c0,1.2-0.5,5.4-8.8,15c-2.7,3.1-5.6,7.1-5.6,7.3
			s0.2,0.3,0.4,0.4c1.9,0.9,4.6,0.4,6.5,1.1c3.4,1.3,6.2,3.9,7.7,6.8c0.6,1.1,0.7,2,0.7,3.4c0,8.9-4.8,14.9-10.1,23.5
			c-3.3,5.4-9.6,7.7-16.3,7.7c-3.2,0-8.4-0.6-10.6-1.8c-1.1-0.6-3.2-1.1-5.1-2.9c-0.4,0.2-1,0.2-1.5,0.2c-2.2,0-4.3-2.1-6-3.6
			c-0.6-0.5-0.6-0.8-0.6-1.2c0-1.5-4.2-4.9-4.3-5.9c-0.2-2-1.7-2.4-1.7-4.6c0-1.3,1.2-1.7,5.7-1.7c0.6,0,1.5,0.4,1.9,0.4
			s0.8,0,1.1-1.3c2.9-12.8,5.2-21,9.4-32c0-0.2-0.1-0.4-0.3-0.7c-0.8-1.2-0.9-2-0.9-3.3c0-1,0.1-1.1,0.6-1.3
			c2.9-1.2,4.1-3.5,5.6-7.9c1.4-4.1,2.5-4.8,3.7-4.8c2.3,0,4.6,2.6,7.1,2.6c0.7,0,1.5-0.3,2.4-0.8
			C369.5,210.1,372.4,209.1,375.6,209.1z M360.7,250.1c-2.5,1.7-5.8,3.3-8.3,3.3c-0.8,0-0.9,0.2-1.1,1c-0.7,3-3.1,11.5-3.1,14.2
			c0,0.4,0.1,0.9,0.7,1.5c3.1,3.1,7.6,6.4,13.4,6.4c5.6,0,9.2-6.8,14.1-16.8c2.5-5.3,2.5-8.6,2.5-10.7c0-1.6-0.2-2.2-1-3.2
			c-0.8-1-2.2-1.2-4.1-1.2C369.1,244.6,363,248.6,360.7,250.1z M377.1,215.4c-5.8,0-10.2,2.2-14.5,5.3c-0.7,0.5-0.9,0.7-1.2,1.4
			c-0.6,1.5-1.4,2.9-1.9,4.5c-1.4,4.3-6.2,15.9-6.2,18.6c0,0.4,0.1,0.4,0.4,0.4c0.6,0,3.6-1.8,5.4-4.1c0.7-0.9,1.7-2.3,2.3-3
			c3-3.5,7.7-8.1,10.9-12.6c3.9-5.4,5.3-9.3,5.3-9.9C377.6,215.6,377.5,215.4,377.1,215.4z"/>
		<path class="st3" d="M427.4,237c4.1,0,6.4-0.3,8.7-0.3c3.2,0,6.3,1,6.3,2.6c0,1.3-2.5,1.6-2.8,2.1c-0.2,0.4-0.4,0.5-1.1,0.6
			c-2,0.3-5,1.3-7.6,1.7c-2,0.3-3.2,0.3-4,0.3s-1,0.1-1.2,0.8c-2.6,10.8-6.3,20.3-12.8,27.2c-2.8,3-5.6,6-9.1,6
			c-0.9,0-1.8-0.2-2.4-0.5c-3.9-1.8-6.7-4.1-7.6-6.4c-1.1-2.8-1.5-5.9-1.5-8.4c0-8.3,4.2-15.6,8.8-22.6c1.4-2.1,1.4-1.6,2.4-3
			c3.2-4.6,7.5-9.3,12-9.3c1.6,0,3.6,0.4,5.4,1.9c0.8,0.7,1.1,0.9,1.4,1.7C423.1,233.9,424.4,237,427.4,237z M416.2,236.5
			c-0.3-1-0.6-1.7-1-1.7s-1,0.4-1.5,1c-0.4,0.5-1.4,1-1.9,1.7c-3.1,4-12.7,16.5-12.7,28.4c0,0.3,0,0.7,0.3,1.4
			c0.3,0.8,1.5,2.7,2.4,3.3c0.3,0.2,0.6,0.2,0.9,0.2c1,0,1.5-0.6,1.9-0.8c0.7-0.3,0.9-0.6,1.7-1.8c5.9-8.8,11.4-16.7,11.4-27
			c0-0.4,0-1.6-0.1-2.1c-0.1-0.7-0.3-0.8-0.6-1.1C416.5,237.6,416.3,237,416.2,236.5z"/>
		<path class="st3" d="M449.8,234.8c0,0.8-0.5,1.9-2,2.9c-0.8,0.5-2.1,1.6-2.9,4.8c-2.3,9-6.6,19-7.6,26.3c-0.2,1.3-0.2,1.8-0.2,2.3
			s0.7,1.4,1.4,1.4c0.3,0,1.5-0.4,2.2-1c3.6-3.2,3.6-4.1,5.4-5.9c6.3-6.8,11.9-14.3,15.1-22.7c0.5-1.3,0.6-1.5,1.8-2.2
			c0.9-0.5,1.5-0.6,2.3-0.6s1.7,0.8,2.4,1c1.6,0.5,2,1.2,2,1.8c0,1.6-0.2,2-0.6,2.9c-3.4,7.4-6.2,14.9-7.4,22.9
			c-0.3,2.1-0.6,4.7-0.6,7.5c0,2.5,1.8,4.6,1.8,6.8c0,0.7-0.2,1.5-0.6,1.8c-0.3,0.2-0.8,0.3-1.4,0.3c-1.4,0-2.7-0.8-3.9-1.5
			c-1.9-1.2-1.9-0.4-2.5-1.9c-0.8-2-1-4.1-1-6.1c0-2.5,0.3-5.9,0.3-6.9c0-0.3-0.1-0.6-0.4-0.6c-0.4,0-1,0.7-1.4,1.2
			c-3.4,4.1-7.1,7.7-11.4,9.8c-0.8,0.4-0.9,0.4-1.3,0.4s-3.5-0.4-6.1-1.9c-1.8-1.1-2.8-2.1-3-3.1c-0.3-1.5-0.5-3.3-0.5-4.4
			c0-3.6,1.3-8.1,2.3-11.6c0.8-2.7,0.8-3.8,1.7-6.4c2.1-6.1,3.2-12.5,7.1-19.1c1.1-1.9,2.7-2.6,4.4-2.6c1,0,2.9,0.5,3.4,1.6
			C449,233,449.8,233.7,449.8,234.8z"/>
		<path class="st3" d="M507.4,210.1c-5.4,8.7-12.6,18.5-15.5,25.4c-4.4,10.2-10.9,20.2-10.9,31.7c0,2.2,0.1,3.6,1.7,3.6
			c1.1,0,2.8-1.2,3.5-2.1c5.9-7.5,7.8-12.4,10-20.4c0.3-1.1,0.6-2.1,0.6-2.6c0-0.6-0.4-5.2-2-6.4c-0.4-0.3-0.5-1.2-0.5-1.8
			c0-1.7,1.5-4.6,3.2-4.6c1.3,0,2.5,1.3,3.5,2.5c2.8,3.3,2.9,3.5,5.3,3.5c1.2,0,6.1-0.3,15.7-2.9c1.1-0.3,2.1-0.6,2.3-0.6
			c0.4,0,0.5,0.2,1.2,0.2c0.7,0,1.5,0.2,2,0.6c0.4,0.3,1.2,1.4,1.2,2.2c0,0.4-0.4,1.6-0.9,1.7c-7.7,1.1-13.2,5.3-20.6,5.3
			c-0.7,0-2.1-0.6-2.9-0.6c-0.3,0-0.4,0.5-0.4,0.9c0,0.6,0.2,1.4,0.2,2.1c0,1.2-0.3,1.2-0.7,3.9c-0.7,4.4-2.8,7.4-4.4,10.8
			c-1.4,3.1-1.7,3.6-2.8,5.2c-3.3,4.6-7.5,10.1-13.3,10.1c-0.9,0-1.5,0-2.7-0.4s-5.7-2.4-6.4-5.3c-0.4-1.7-0.7-3.4-0.7-5.1
			c0-4,0.9-7.7,2.1-11.2c0.3-0.9,2.4-7.2,3.1-8.8c6.8-15.6,14.6-28.4,23.3-43.6c1.5-2.6,3.2-4.3,6.1-4.3c0.8,0,1.8,0.2,2.9,0.6
			c1.5,0.6,1.9,1.7,1.9,3.2C512.8,205.8,508.8,207.8,507.4,210.1z"/>
		<path class="st3" d="M546.3,237c4.1,0,6.4-0.3,8.7-0.3c3.2,0,6.3,1,6.3,2.6c0,1.3-2.5,1.6-2.8,2.1c-0.2,0.4-0.4,0.5-1.1,0.6
			c-2,0.3-5,1.3-7.6,1.7c-2,0.3-3.2,0.3-4,0.3s-1,0.1-1.2,0.8c-2.6,10.8-6.3,20.3-12.8,27.2c-2.8,3-5.6,6-9.1,6
			c-0.9,0-1.8-0.2-2.4-0.5c-3.9-1.8-6.7-4.1-7.6-6.4c-1.1-2.8-1.5-5.9-1.5-8.4c0-8.3,4.2-15.6,8.8-22.6c1.4-2.1,1.4-1.6,2.4-3
			c3.2-4.6,7.5-9.3,12-9.3c1.6,0,3.6,0.4,5.4,1.9c0.8,0.7,1.1,0.9,1.4,1.7C542.1,233.9,543.4,237,546.3,237z M535.2,236.5
			c-0.3-1-0.6-1.7-1-1.7s-1,0.4-1.5,1c-0.4,0.5-1.4,1-1.9,1.7c-3.1,4-12.7,16.5-12.7,28.4c0,0.3,0,0.7,0.3,1.4
			c0.3,0.8,1.5,2.7,2.4,3.3c0.3,0.2,0.6,0.2,0.9,0.2c1,0,1.5-0.6,1.9-0.8c0.7-0.3,0.9-0.6,1.7-1.8c5.9-8.8,11.4-16.7,11.4-27
			c0-0.4,0-1.6-0.1-2.1c-0.1-0.7-0.3-0.8-0.6-1.1C535.5,237.6,535.3,237,535.2,236.5z"/>
		<path class="st3" d="M568.7,234.8c0,0.8-0.5,1.9-2,2.9c-0.8,0.5-2.1,1.6-2.9,4.8c-2.3,9-6.6,19-7.6,26.3c-0.2,1.3-0.2,1.8-0.2,2.3
			s0.7,1.4,1.4,1.4c0.3,0,1.5-0.4,2.2-1c3.6-3.2,3.6-4.1,5.4-5.9c6.3-6.8,11.9-14.3,15.1-22.7c0.5-1.3,0.6-1.5,1.8-2.2
			c0.9-0.5,1.5-0.6,2.3-0.6c0.8,0,1.7,0.8,2.4,1c1.6,0.5,2,1.2,2,1.8c0,1.6-0.2,2-0.6,2.9c-3.4,7.4-6.2,14.9-7.4,22.9
			c-0.3,2.1-0.6,4.7-0.6,7.5c0,2.5,1.8,4.6,1.8,6.8c0,0.7-0.2,1.5-0.6,1.8c-0.3,0.2-0.8,0.3-1.4,0.3c-1.4,0-2.7-0.8-3.9-1.5
			c-1.9-1.2-1.9-0.4-2.5-1.9c-0.8-2-1-4.1-1-6.1c0-2.5,0.3-5.9,0.3-6.9c0-0.3-0.1-0.6-0.4-0.6c-0.4,0-1,0.7-1.4,1.2
			c-3.4,4.1-7.1,7.7-11.4,9.8c-0.8,0.4-0.9,0.4-1.3,0.4c-0.4,0-3.5-0.4-6.1-1.9c-1.8-1.1-2.8-2.1-3-3.1c-0.3-1.5-0.5-3.3-0.5-4.4
			c0-3.6,1.3-8.1,2.3-11.6c0.8-2.7,0.8-3.8,1.7-6.4c2.1-6.1,3.2-12.5,7.1-19.1c1.1-1.9,2.7-2.6,4.4-2.6c1,0,2.9,0.5,3.4,1.6
			C567.9,233,568.7,233.7,568.7,234.8z"/>
		<path class="st3" d="M590.3,272c-0.2-1.1-0.3-2.2-0.3-3.4c0-4.7,2.1-9.3,4.4-15.1c4.4-11.4,13.4-27.6,21.1-40.7
			c1.7-2.9,2.3-8.6,6.3-8.6c1.4,0,2.2-0.2,3.3-0.2c1,0,2.1,0.4,2.6,1.1c0.6,0.9,0.8,1.8,0.8,2.8c0,1.3-0.4,2.5-1,3.5
			c-9.2,14.9-19.9,28.5-25.8,44.3c-1.6,4.2-3.9,8-3.9,12.5c0,1.2,0.1,2.4,0.5,3.7c0.3,0.9,1.1,1.2,2,1.2c0.6,0,1.2-0.1,1.7-0.4
			c4.5-2.7,9.4-11.4,14.1-11.4c0.8,0,3.4,0.7,3.4,2.3c0,1.3-1,1.7-2,2.8c-5.2,5.6-9.3,13.3-17.1,13.3
			C599.7,279.8,591.3,277.6,590.3,272z"/>
		<path class="st3" d="M631.7,279.3c-1.2,0-2.2-0.1-3.9-0.7c-2.2-0.8-5.8-2.4-6.5-2.8c-2-1.1-4-3.6-5.1-7c-0.7-2-1.2-5.9-1.2-7.8
			c0-0.9,0.1-1.9,0.5-3.3c2.8-10.3,9.7-19.3,17.4-27.5c1.7-1.8,5.9-4.6,10.8-4.6c2.7,0,4.2,0.4,6.2,1.1c1.1,0.4,3.2,2.2,3.2,6.3
			c0,2.6-1.1,4.9-2.3,7.3c-1,2-1.8,3.1-3.2,4.8c-7,7.9-14.9,16.7-23.5,21.5c-0.5,0.3-0.6,0.5-0.6,0.8c0,1.6,1.5,3.8,2.4,4.3
			c1.1,0.6,2.1,0.8,3.1,0.8c1.7,0,3.2-0.4,7.8-2.8c7-3.7,11.2-9.2,17.3-13.1c1.1-0.7,1.6-0.7,2-0.7c0.6,0,2,1,2,2
			c0,0.9-0.1,1-0.1,1.3c0,0.4,0,1-0.5,1.4c-4.9,4.2-7,9.2-22.4,17.7C633.5,279.3,633,279.3,631.7,279.3z M644.7,233
			c0-0.8,0-1.2-0.6-1.2c-0.6,0-1.2,0.3-2.1,0.9c-1.1,0.7-1,0.4-2,1.3c-6.6,5.9-13.7,14.2-15.9,23.2c0,0.4,0.1,0.5,0.2,0.5
			c0.2,0,0.4-0.1,0.7-0.3c6-4.6,10.9-10.1,15.5-15.6c1.5-1.8,1.1-2.1,2.4-4.2C643.9,236.1,644.7,234.8,644.7,233z"/>
		<path class="st3" d="M693.5,271.2c0,0.9,0,1.9-0.7,3.9c-0.7,1.8-1.6,4-3.2,4c-0.7,0-1.5,0.1-4,0.1c-1.6,0-3.1-4.5-3.1-6.3
			c0-1.1,0.2-1.6,0.9-2.8c0.4-0.7,0.3-2.4,2.1-2.4c2.8,0,3.9,1.9,6.6,2.1C693.2,269.8,693.5,270.5,693.5,271.2z M709.2,217.1
			c0,3.7-2.2,6.6-3.1,9.5c-3.5,11.1-5.7,21.5-10.2,31.8c-0.4,0.9-0.6,1.2-1.3,1.2c-1.4,0-2-0.7-2.1-1.2c-0.5-2.6-2.8-2.9-2.8-4.4
			c0-0.7,0-1,0.3-1.8c0.7-1.8,0.7-2.6,1.1-4.4c2.3-9.8,5.3-17.5,6.8-27.6c0.5-3.2,1.3-8.1,4.4-8.1c0.8,0,1.3,0.7,2.2,0.9
			c1.3,0.3,1.4,1.2,2.2,1.4C708,215,709.2,216.2,709.2,217.1z"/>
	</g>
</g>
<g>
	<g>
		<path class="st3" d="M633.6,311.5c-0.3,1.1-0.9,5.3-0.9,10.6c0,0.8,0.2,3.4,0.2,13.6c0,0.8,0.3,1.2,0.6,1.2c0.2,0,0.3-0.1,1.2-1.1
			c9.3-10.2,20.8-18.5,28.7-28.7c0.7-0.9,0.9-1,1.4-1c2.6,0,3.3,0.8,4.5,0.8c0.3,0,2.4,1.8,2.4,4.2c0,0.3-0.1,0.4-0.5,1
			c-10.8,16.3-16.5,33.7-19.2,62.2c-0.2,2.2-0.3,2.3-0.7,2.3c-0.7,0-1.4-0.8-2.3-0.8c-0.6,0-0.5,0.4-1.1,0.4c-1.3,0-3.2-1.2-4.1-1.9
			c-0.7-0.6-0.8-0.7-0.8-1.2c0-0.7,3.4-21.5,4.1-24.5c0.6-3.2,3.2-11.8,5.2-17.5c0-0.4-0.1-0.4-0.4-0.4c-0.2,0-0.3,0.1-0.5,0.3
			c-5,5-12.9,13.7-14.3,15.3c-0.9,1-1,1-1.3,1c-0.3,0-1.4-0.5-3.6-0.9c-1.7-0.3-3.5-0.6-4.7-2.3c-0.8-1.2-1.9-4.9-2.1-9.2v-9.8
			c0-0.3-0.1-0.5-0.3-0.5c-0.3,0-0.4,0.2-1.2,1.7c-3.1,5.9-5.2,11.1-7.7,18.1c-4.3,11.8-6.3,19.7-6.3,23.9c0,0.7-1.3,1.7-1.9,1.7
			c-1.5,0-1.5,1-2.3,1s-3.1-1.6-3.7-1.6c-0.7,0-2-2-2-3.7c0-3.7,2.8-7,3.4-9.3c5.2-20,16.9-39.3,23.8-56.5c0.6-1.5,0.8-1.9,1.1-1.9
			c1,0,1,0.3,2.7,0.5c1.6,0.2,3.5,0.5,4.7,1.6c0.4,0.4,0.6,0.8,0.6,1.1C636.2,302.8,634.4,308.3,633.6,311.5z"/>
		<path class="st3" d="M714.6,325.5c0.5,0,2,0.1,2.8,1.3c0.2,0.3,0.2,0.4,0.2,0.6c0,0.4-0.2,0.8-0.4,1.1
			c-4.5,6.1-9.8,13.7-11.8,21.5c-0.7,2.8-1.4,5.9-1.4,9c0,2.6,0.6,5.3,2.1,7.6c0.1,0.2,0.2,0.4,0.2,0.6s-0.4,1.2-2.1,1.4
			c-0.6,0.1-1.3,0.4-1.9,0.4c-1.5,0-3.7-0.7-4.4-2c-1.3-2.9-1.7-5.9-1.7-8.7c0-3,0.4-4.8,0.4-5.1c0-0.4,0-0.5-0.4-0.5
			s-1.3,0.7-2.4,1.8l-5.5,5.1c-5.3,5-8.5,6.4-12.1,7.6c-0.6,0.2-1.2,0.4-1.6,0.4c-1.1,0-2.3-0.7-7.1-4.6c-0.5-0.4-2.2-2.1-2.2-6
			c0-3.3,1.1-7.6,6.1-15c6-8.9,11.6-13,14.6-15.2c5-3.6,10.2-6.3,16.2-8c0.7-0.2,1.5-0.3,2.2-0.3c2.3,0,4.4,1.1,6.2,2.9
			c0.5,0.5,1.3,1.4,1.5,2C712.6,324.5,713.5,325.5,714.6,325.5z M702.5,325.9c-9.5,5.1-17,10.6-22.8,17.6
			c-4.3,5.2-7.6,11.1-7.6,14.1c0,1.2,0.4,2.7,2.2,2.7c0.8,0,3.1-1.1,5-2.8c9.4-8.8,20.1-15.6,25.2-25.2c0.7-1.3,1.8-2.7,2.9-3.9
			c0.3-0.3,0.5-0.9,0.5-1.5c0-0.7-0.6-2-2.3-2C705.4,324.8,703.9,325.2,702.5,325.9z"/>
		<path class="st3" d="M731.5,328.9c0,1.1-0.2,2.2-0.6,3.4c-0.3,1.2-0.4,1.4-0.4,1.6c0,0.3,0,0.4,0.3,0.4c0.1,0,0.5-0.1,1.3-0.8
			c5.6-4.3,10.4-7.1,14.1-8.3c0.3-0.1,0.9-0.2,1.2-0.2c2.8,0,5.7,0.8,7.4,2.8c0.4,0.4,0.7,1.1,0.7,1.7c0,3.1-2.7,4.5-3.5,4.5
			c-1.5,0-3.1-1-4.6-1c-0.3,0-0.7,0-1.6,0.4c-11,5.2-22,14.2-25.5,29.1c-0.7,3-1.8,4.4-2.5,4.9c-0.5,0.6-1.4,0.9-1.8,0.9
			c-1.6-0.1-2.3-1.3-3-2.1c-1-1-1.8-2.6-1.9-3.9c0-3.4,4.3-6.8,5.5-10.6c2.5-7.7,5.4-15.3,7-23.4c0.1-0.9,0.2-1.4,0.2-1.6
			c0-0.6-0.8-1.4-0.9-2.3c0-0.8,1.6-2.2,4-2.2c1.4,0,3,0.6,3.3,1.1C730.9,324.6,731.5,326.5,731.5,328.9z"/>
		<path class="st3" d="M767.2,324.7c-1,2.1-2.3,6-2.3,6.3c0,0.2,0.2,0.3,0.4,0.3c0.3,0,1.5-0.2,2.5-0.4c4.5-0.9,10.2-3,13.6-5.1
			c0.5-0.3,0.9-0.5,1.1-0.5c1.7,0,5,1.4,5,2.6c0,1.3-1.1,2.9-3.3,3.9c-2.7,1.1-2.7,1.4-4.6,2.1c-5,1.9-13.6,3.9-15.7,4.6
			c-0.9,0.3-1.5,0.8-1.9,1.5c-0.8,1.4-1.3,3.3-1.7,4.9c-0.3,1.1-0.9,2.1-1.1,3.2c-0.6,3.3-4.1,12-4.7,17c-0.1,0.9-1.1,3.5-2.5,4.3
			c-0.4,0.2-1.1,0.3-1.5,0.3c-1.2,0-2.8-0.5-3.6-1.1s-1.1-1.5-1.1-2.4c0-0.8,0.1-2.1,0.4-3c2.5-7.5,4.4-16.3,7.6-24.1
			c0.1-0.3,0.2-0.5,0.2-0.7s-0.1-0.4-0.5-0.6c-3.6-1.8-4.3-4.5-6.6-6.4c-0.5-0.4-0.5-0.9-0.5-1.2c0-0.7,0.4-0.9,1.2-1.3
			c0.6-0.3,1.1-0.5,2-0.5c2.2,0,4.8,1.6,6.6,1.6c0.9,0,1.5-0.5,1.7-1.4c0.3-1.1,0.8-2.6,1.6-4.8c2.4-6.2,5.2-14.1,8.6-21.5
			c0.6-1.3,0.7-1.3,1.1-1.3c1.6,0,1.8-0.5,2.8-0.5c0.9,0,2.6,0.3,3.9,0.8c0.5,0.2,0.9,0.4,0.9,0.7c0,0.2,0,0.5-0.1,1.1
			C775.3,311,770.4,317.9,767.2,324.7z"/>
		<path class="st3" d="M790.7,364.2c-2.1,1.9-5.9,4.9-10.4,4.9c-3,0-6.5-4.3-7.6-8c-0.4-1.4-0.5-2.8-0.5-4.3c0-2.5,0.4-4.8,1.6-8.2
			c0.7-1.9,1.1-3.6,1.7-5.1c3.1-7.4,6.1-14.7,9.8-22.5c1-2.1,3.1-2.7,5.1-2.7c1,0,2.3,0.2,3,0.8c0.5,0.4,0.8,0.7,0.8,1.6
			c0,5.4-4.2,7.9-6.5,12.9c-1.7,3.7-4.6,10.6-6,14.4c-1.7,4.6-2.4,8.4-2.4,9.9c0,0.9,0.1,3.2,1.8,3.2c2.2,0,3.3-0.6,7.4-3.4
			c2.4-1.7,3.1-2.2,4.8-2.2c0.8,0,1.9,0.2,2.5,0.7s0.6,1,0.6,1.4c0,1.1-0.6,1.7-1.6,2.7L790.7,364.2z M804.8,300.9
			c0,0.6-0.1,1.3-0.5,1.8c-1.8,2.2-4.3,5-6.5,5c-2,0-3.5-1.1-4.1-2c-0.5-1-0.7-2.3-0.7-3.4c0-1.4,0.4-3.1,1.3-4.3
			c1-1.2,2.8-1.7,5-1.7c1.6,0,3.5,0.5,4.3,1.3C804.6,298.7,804.8,299.9,804.8,300.9z"/>
		<path class="st3" d="M808,322c0.8-1.2,0.7-1.4,1.6-2.2c0.8-0.7,2-1,3.5-1c2.3,0,3.6,0.6,4.1,1.5c0.2,0.5,0.5,1.3,0.5,1.8
			c0,1.1-0.5,2.9-2.2,4.8c-1.1,1.2-4,4.5-6.5,9.1c-1.4,2.6-3.9,7.5-7.2,15.8c-0.7,1.8-2,6.8-2,7.1c0,0.4,0,1,0.3,1
			c0.6,0,1-0.3,1.7-1.3c13.7-19.5,21.2-23.5,23.4-28.3c1.8-3.9,2.2-4.2,3.5-4.2c1.5,0,2,0.9,3.6,1c1.1,0.1,2,1.5,2,2.7
			c0,0.4-0.5,1.8-1,2.6c-3.6,6-5.6,9.8-7.1,15c-0.6,2-1.2,7.1-1.2,9.1c0,1.8,0.6,3.3,0.8,4.4c0.3,1.8,2.8,3.1,3.5,3.6
			c0.8,0.6,1.5,1.3,1.5,2.3c0,0.7-0.7,2.4-2.6,2.4c-0.8,0-4.1-0.3-5.3-1.4c-1.4-1.3-2.6-1.7-4-3.5c-1.2-1.6-1.7-3.7-1.7-6.3
			c0-6,0.9-7.7,0.9-8c0-0.2-0.1-0.4-0.3-0.4s-0.3,0-0.6,0.4c-4.2,5.5-6.9,8.9-9.3,12.4c-2.1,3-2.9,2.9-4.4,4.5
			c-0.8,0.9-2.8,1.1-3.8,1.1c-1.2,0-6-3-7.3-4.7c-0.4-0.5-0.7-1.8-0.7-2.9c0-3.1,0.9-3.9,1.2-6.1c0.4-2.9,3.2-9.8,5-13.8
			C801.2,333.7,803.6,328.8,808,322z"/>
		<path class="st3" d="M883.5,324.7c-1,2.1-2.3,6-2.3,6.3c0,0.2,0.2,0.3,0.4,0.3c0.3,0,1.5-0.2,2.5-0.4c4.5-0.9,10.2-3,13.6-5.1
			c0.5-0.3,0.9-0.5,1.1-0.5c1.7,0,5,1.4,5,2.6c0,1.3-1.1,2.9-3.3,3.9c-2.7,1.1-2.7,1.4-4.6,2.1c-5,1.9-13.6,3.9-15.7,4.6
			c-0.9,0.3-1.5,0.8-1.9,1.5c-0.8,1.4-1.3,3.3-1.7,4.9c-0.3,1.1-0.9,2.1-1.1,3.2c-0.6,3.3-4.1,12-4.7,17c-0.1,0.9-1.1,3.5-2.5,4.3
			c-0.4,0.2-1.1,0.3-1.5,0.3c-1.2,0-2.8-0.5-3.6-1.1s-1.1-1.5-1.1-2.4c0-0.8,0.1-2.1,0.4-3c2.5-7.5,4.4-16.3,7.6-24.1
			c0.1-0.3,0.2-0.5,0.2-0.7s-0.1-0.4-0.5-0.6c-3.6-1.8-4.3-4.5-6.6-6.4c-0.5-0.4-0.5-0.9-0.5-1.2c0-0.7,0.4-0.9,1.2-1.3
			c0.6-0.3,1.1-0.5,2-0.5c2.2,0,4.8,1.6,6.6,1.6c0.9,0,1.5-0.5,1.7-1.4c0.3-1.1,0.8-2.6,1.6-4.8c2.4-6.2,5.2-14.1,8.6-21.5
			c0.6-1.3,0.7-1.3,1.1-1.3c1.6,0,1.8-0.5,2.8-0.5c0.9,0,2.6,0.3,3.9,0.8c0.5,0.2,0.9,0.4,0.9,0.7c0,0.2,0,0.5-0.1,1.1
			C891.6,311,886.8,317.9,883.5,324.7z"/>
		<path class="st3" d="M905,368.9c-1.2,0-2.2-0.1-3.9-0.7c-2.2-0.8-5.8-2.4-6.5-2.8c-2-1.1-4-3.6-5.1-7c-0.7-2-1.2-5.9-1.2-7.8
			c0-0.9,0.1-1.9,0.5-3.3c2.8-10.3,9.7-19.3,17.4-27.5c1.7-1.8,5.9-4.6,10.8-4.6c2.7,0,4.2,0.4,6.2,1.1c1.1,0.4,3.2,2.2,3.2,6.3
			c0,2.6-1.1,4.9-2.3,7.3c-1,2-1.8,3.1-3.2,4.8c-7,7.9-14.9,16.7-23.5,21.5c-0.5,0.3-0.6,0.5-0.6,0.8c0,1.6,1.5,3.8,2.4,4.3
			c1.1,0.6,2.1,0.8,3.1,0.8c1.7,0,3.2-0.4,7.8-2.8c7-3.7,11.2-9.2,17.3-13.1c1.1-0.7,1.6-0.7,2-0.7c0.6,0,2,1,2,2
			c0,0.9-0.1,1-0.1,1.3c0,0.4,0,1-0.5,1.4c-4.9,4.2-7,9.2-22.4,17.7C906.8,368.9,906.3,368.9,905,368.9z M918.1,322.6
			c0-0.8,0-1.2-0.6-1.2s-1.2,0.3-2.1,0.9c-1.1,0.7-1,0.4-2,1.3c-6.6,5.9-13.7,14.2-15.9,23.2c0,0.4,0.1,0.5,0.2,0.5
			c0.2,0,0.4-0.1,0.7-0.3c6-4.6,10.9-10.1,15.5-15.6c1.5-1.8,1.1-2.1,2.4-4.2C917.3,325.8,918.1,324.4,918.1,322.6z M935.8,307.4
			c0.9,1.5,1.1,2,1.1,2.5c0,1-0.9,1.2-1.4,1.9c-0.6,0.9-0.8,1.1-1.8,1.1c-0.3,0-1.3-0.6-1.8-1.4l-6.4-8.7c-0.3-0.5-0.6-0.6-0.8-0.6
			s-0.3,0-1,0.3c-8,3.3-9.8,4.5-10.6,5.2c-0.1,0.1-0.4,0.1-0.5,0.1c-1.2,0-1.8-0.9-2.4-1.2c-0.5-0.3-0.5-0.9-0.5-2.4
			c0-1.1,0-1.7,0.2-2.1c0.4-0.8,0.7-0.8,0.9-1.1c0.2-0.4,0.9-0.9,5.6-2.5l9-3.1c0.6-0.2,1-0.3,1.3-0.3c1,0,1.7,0.3,1.9,0.7
			c0.3,0.6,0.6,0.2,1.2,1.3L935.8,307.4z"/>
		<path class="st3" d="M947.2,324.7c-1,2.1-2.3,6-2.3,6.3c0,0.2,0.2,0.3,0.4,0.3c0.3,0,1.5-0.2,2.5-0.4c4.5-0.9,10.2-3,13.6-5.1
			c0.5-0.3,0.9-0.5,1.1-0.5c1.7,0,5,1.4,5,2.6c0,1.3-1.1,2.9-3.3,3.9c-2.7,1.1-2.7,1.4-4.6,2.1c-5,1.9-13.6,3.9-15.7,4.6
			c-0.9,0.3-1.5,0.8-1.9,1.5c-0.8,1.4-1.3,3.3-1.7,4.9c-0.3,1.1-0.9,2.1-1.1,3.2c-0.6,3.3-4.1,12-4.7,17c-0.1,0.9-1.1,3.5-2.5,4.3
			c-0.4,0.2-1.1,0.3-1.5,0.3c-1.2,0-2.8-0.5-3.6-1.1s-1.1-1.5-1.1-2.4c0-0.8,0.1-2.1,0.4-3c2.5-7.5,4.4-16.3,7.6-24.1
			c0.1-0.3,0.2-0.5,0.2-0.7s-0.1-0.4-0.5-0.6c-3.6-1.8-4.3-4.5-6.6-6.4c-0.5-0.4-0.5-0.9-0.5-1.2c0-0.7,0.4-0.9,1.2-1.3
			c0.6-0.3,1.1-0.5,2-0.5c2.2,0,4.8,1.6,6.6,1.6c0.9,0,1.5-0.5,1.7-1.4c0.3-1.1,0.8-2.6,1.6-4.8c2.4-6.2,5.2-14.1,8.6-21.5
			c0.6-1.3,0.7-1.3,1.1-1.3c1.6,0,1.8-0.5,2.8-0.5c0.9,0,2.6,0.3,3.9,0.8c0.5,0.2,0.9,0.4,0.9,0.7c0,0.2,0,0.5-0.1,1.1
			C955.3,311,950.4,317.9,947.2,324.7z"/>
		<path class="st3" d="M968.7,368.9c-1.2,0-2.2-0.1-3.9-0.7c-2.2-0.8-5.8-2.4-6.5-2.8c-2-1.1-4-3.6-5.1-7c-0.7-2-1.2-5.9-1.2-7.8
			c0-0.9,0.1-1.9,0.5-3.3c2.8-10.3,9.7-19.3,17.4-27.5c1.7-1.8,5.9-4.6,10.8-4.6c2.7,0,4.2,0.4,6.2,1.1c1.1,0.4,3.2,2.2,3.2,6.3
			c0,2.6-1.1,4.9-2.3,7.3c-1,2-1.8,3.1-3.2,4.8c-7,7.9-14.9,16.7-23.5,21.5c-0.5,0.3-0.6,0.5-0.6,0.8c0,1.6,1.5,3.8,2.4,4.3
			c1.1,0.6,2.1,0.8,3.1,0.8c1.7,0,3.2-0.4,7.8-2.8c7-3.7,11.2-9.2,17.3-13.1c1.1-0.7,1.6-0.7,2-0.7c0.6,0,2,1,2,2
			c0,0.9-0.1,1-0.1,1.3c0,0.4,0,1-0.5,1.4c-4.9,4.2-7,9.2-22.4,17.7C970.5,368.9,970,368.9,968.7,368.9z M981.7,322.6
			c0-0.8,0-1.2-0.6-1.2s-1.2,0.3-2.1,0.9c-1.1,0.7-1,0.4-2,1.3c-6.6,5.9-13.7,14.2-15.9,23.2c0,0.4,0.1,0.5,0.2,0.5
			c0.2,0,0.4-0.1,0.7-0.3c6-4.6,10.9-10.1,15.5-15.6c1.5-1.8,1.1-2.1,2.4-4.2C980.9,325.8,981.7,324.4,981.7,322.6z"/>
		<path class="st3" d="M1079.9,297.5c-0.9,1.3-1.2,2.6-2.3,4.4c-5.9,9.4-13.6,19.7-16.9,28.9l-1.6,4.5c-6.1,17-7.7,24.4-7.7,28.1
			c0,3.6,0.8,4.9,0.8,5.7c0,0.3-0.1,0.4-0.4,0.7c-1.4,1.4-1.1,2.1-3.6,2.1c-0.9,0-3.5-1.3-3.6-1.9c-0.4-2.3-0.6-4.5-0.6-6.6
			c0-5.3,1.1-9.6,2.6-15c0.8-2.8,3.1-7.1,3.1-7.3c0-0.1,0-0.2-0.2-0.2s-0.4,0.2-1,0.9c-8.1,9.4-16,19.4-25.9,25.3
			c-1,0.6-2.2,0.7-3,0.7c-2,0-6.8-2.4-7.2-3.1c-1.1-1.9-1.7-3.8-1.7-5.8c0-2.8,1.1-6.2,3.5-10.8c4.9-9.2,12.9-17.1,21.4-22.8
			c1.5-1,4.7-1.9,7.3-1.9c1.1,0,2.1,0.2,2.8,0.5c1.3,0.6,3.5,1.1,4.8,1.9c0.5,0,0.7,0,0.8-0.1c10.5-11.5,14.9-24.3,23.6-35.8
			c0.6-0.8,1-1.2,2.3-1.2c1.3,0,5,1.6,5,3.3C1082.1,294.2,1081.2,295.6,1079.9,297.5z M1044.7,329.2c-1,0-1.7,0.1-2.5,0.5
			c-9.8,5-19.5,15.7-23.6,26.9c-0.1,0.3-0.3,1-0.3,1.3c0,1,0.2,2.3,0.7,2.3c0.4,0,0.6-0.1,1-0.4c0.6-0.5,1.2-0.5,2.1-1.2
			c8.7-6.8,16.2-15.9,22.8-24.7c1.2-1.6,2.1-1.9,2.1-3.6C1047,329.6,1046.3,329.2,1044.7,329.2z"/>
		<path class="st3" d="M1080.9,368.9c-1.2,0-2.2-0.1-3.9-0.7c-2.2-0.8-5.8-2.4-6.5-2.8c-2-1.1-4-3.6-5.1-7c-0.7-2-1.2-5.9-1.2-7.8
			c0-0.9,0.1-1.9,0.5-3.3c2.8-10.3,9.7-19.3,17.4-27.5c1.7-1.8,5.9-4.6,10.8-4.6c2.7,0,4.2,0.4,6.2,1.1c1.1,0.4,3.2,2.2,3.2,6.3
			c0,2.6-1.1,4.9-2.3,7.3c-1,2-1.8,3.1-3.2,4.8c-7,7.9-14.9,16.7-23.5,21.5c-0.5,0.3-0.6,0.5-0.6,0.8c0,1.6,1.5,3.8,2.4,4.3
			c1.1,0.6,2.1,0.8,3.1,0.8c1.7,0,3.2-0.4,7.8-2.8c7-3.7,11.2-9.2,17.3-13.1c1.1-0.7,1.6-0.7,2-0.7c0.6,0,2,1,2,2
			c0,0.9-0.1,1-0.1,1.3c0,0.4,0,1-0.5,1.4c-4.9,4.2-7,9.2-22.4,17.7C1082.8,368.9,1082.3,368.9,1080.9,368.9z M1094,322.6
			c0-0.8,0-1.2-0.6-1.2s-1.2,0.3-2.1,0.9c-1.1,0.7-1,0.4-2,1.3c-6.6,5.9-13.7,14.2-15.9,23.2c0,0.4,0.1,0.5,0.2,0.5
			c0.2,0,0.4-0.1,0.7-0.3c6-4.6,10.9-10.1,15.5-15.6c1.5-1.8,1.1-2.1,2.4-4.2C1093.2,325.8,1094,324.4,1094,322.6z"/>
		<path class="st3" d="M1160.9,348.3c1.4,0,3.3,2.3,3.3,2.6c0,0.4-0.4,0.6-0.4,1c0,0.6-0.1,0.9-0.8,1.2c-3.1,1.3-6.8,4.2-11.1,7.7
			c-5.7,4.6-10.7,7.5-15,7.5c-5.6,0-9.7-4-10.2-5c-0.8-1.6-1.2-3.1-1.2-4.8c0-2.4,0.9-5.1,1.6-7.6c0.2-0.7,0.5-2.5,1.2-4
			c5.3-10.5,12.6-22.9,21.1-27.2c0.6-0.3,0.8-0.3,1.6-0.3c3.4,0,7.9,1.6,10.5,4.3c0.4,0.4,0.4,0.6,0.4,1.4c0,1.1,0.2,1.2,0.2,1.5
			c0,0.2,0,0.3-0.1,0.7c-0.3,1.2-3.4,6-3.4,9.5c0,0.8-0.6,1.5-1.9,1.5c-0.7,0-1.4-0.2-2-0.7l-2.6-1.9c-0.8-0.6-1.1-1.4-1.1-2.2
			c0-2,2.2-4.5,2.2-6.1c0-0.4-0.3-1-0.8-1c-0.6,0-0.8,0.2-1.6,1c-4.3,4.3-8.9,10.2-12.4,16.3c-3.5,6.3-5.9,13-5.9,15.5
			c0,1.3,0.8,2.1,1.7,2.1c4.7,0,9.4-2.6,14.4-6.4C1153,351.8,1158.1,348.3,1160.9,348.3z"/>
		<path class="st3" d="M1192.5,371.1c-0.6,0-1.3-0.1-2.9-0.7c-3.9-1.4-5.5-4.7-5.5-9.6c0-3.1,0.6-6.9,1.9-11.4s2.5-7.5,3.7-10.4
			c0.3-0.7,0.4-1,0.4-1.2c0-0.1-0.1-0.2-0.2-0.2c-0.2,0-0.6,0.3-1.3,1.1c-6.9,7.9-13.9,19.7-19.9,26.7c-0.5,0.6-0.6,0.7-1.1,1
			c-1,0.6-2.4,1.3-3.9,1.3c-0.5,0-3.6-1.2-5.3-2.8c-0.3-0.3-0.4-0.8-0.4-1.1c0-1.1,0.5-1,0.9-2.7c3.1-13.5,10.5-28.1,19.2-45.2
			c4.3-8.5,9.9-17.8,14.9-27.8c0.6-1.2,1.6-1.4,2.6-1.4s1.6,0.2,2.1,0.2c0.9,0,2,0.7,2.8,1.5c0.7,0.7,0.9,1.2,0.9,2.5
			c0,2.6-2.1,4.3-4.8,7.5c-0.9,1.1-1.1,1.6-1.9,2.7c-9.1,12.6-17.1,33.2-24.7,49.4c-0.8,1.7-0.9,1.9-0.9,2s0,0.2,0.2,0.2
			c0.1,0,0.2-0.1,0.7-0.8c8.2-11.5,15.6-20.2,23-28.2c1.4-1.5,1.9-2,2.8-2.3s1.8-0.5,2.3-0.5c1,0,2.9,0.4,3.7,0.7
			c0.7,0.3,1.5,1.2,1.5,1.9c0,2.9-1.2,5-3,8.1c-1.4,2.4-1.8,4.3-2.6,6.2c-2.7,6.5-5.3,14.8-5.3,21.7c0,4.9,1,5.9,2.5,6.7
			c0.6,0.3,1.7,0.4,2.5,0.6c0.4,0.1,0.7,0.5,0.7,0.8c0,0.4-0.3,0.8-0.5,1.3c-0.3,0.7-1.2,1.2-1.9,1.4
			C1194.8,370.6,1193.8,371.1,1192.5,371.1z"/>
		<path class="st3" d="M1222.4,364.2c-2.1,1.9-5.9,4.9-10.4,4.9c-3,0-6.5-4.3-7.6-8c-0.4-1.4-0.5-2.8-0.5-4.3c0-2.5,0.4-4.8,1.6-8.2
			c0.7-1.9,1.1-3.6,1.7-5.1c3.1-7.4,6.1-14.7,9.8-22.5c1-2.1,3.1-2.7,5.1-2.7c1,0,2.3,0.2,3,0.8c0.5,0.4,0.8,0.7,0.8,1.6
			c0,5.4-4.2,7.9-6.5,12.9c-1.7,3.7-4.6,10.6-6,14.4c-1.7,4.6-2.4,8.4-2.4,9.9c0,0.9,0.1,3.2,1.8,3.2c2.2,0,3.3-0.6,7.4-3.4
			c2.4-1.7,3.1-2.2,4.8-2.2c0.8,0,1.9,0.2,2.5,0.7s0.6,1,0.6,1.4c0,1.1-0.6,1.7-1.6,2.7L1222.4,364.2z M1236.5,300.9
			c0,0.6-0.1,1.3-0.5,1.8c-1.8,2.2-4.3,5-6.5,5c-2,0-3.5-1.1-4.1-2c-0.5-1-0.7-2.3-0.7-3.4c0-1.4,0.4-3.1,1.3-4.3
			c1-1.2,2.8-1.7,5-1.7c1.6,0,3.5,0.5,4.3,1.3C1236.3,298.7,1236.5,299.9,1236.5,300.9z"/>
		<path class="st3" d="M1242.7,368.9c-1.2,0-2.2-0.1-3.9-0.7c-2.2-0.8-5.8-2.4-6.5-2.8c-2-1.1-4-3.6-5.1-7c-0.7-2-1.2-5.9-1.2-7.8
			c0-0.9,0.1-1.9,0.5-3.3c2.8-10.3,9.7-19.3,17.4-27.5c1.7-1.8,5.9-4.6,10.8-4.6c2.7,0,4.2,0.4,6.2,1.1c1.1,0.4,3.2,2.2,3.2,6.3
			c0,2.6-1.1,4.9-2.3,7.3c-1,2-1.8,3.1-3.2,4.8c-7,7.9-14.9,16.7-23.5,21.5c-0.5,0.3-0.6,0.5-0.6,0.8c0,1.6,1.5,3.8,2.4,4.3
			c1.1,0.6,2.1,0.8,3.1,0.8c1.7,0,3.2-0.4,7.8-2.8c7-3.7,11.2-9.2,17.3-13.1c1.1-0.7,1.6-0.7,2-0.7c0.6,0,2,1,2,2
			c0,0.9-0.1,1-0.1,1.3c0,0.4,0,1-0.5,1.4c-4.9,4.2-7,9.2-22.4,17.7C1244.5,368.9,1244,368.9,1242.7,368.9z M1255.8,322.6
			c0-0.8,0-1.2-0.6-1.2s-1.2,0.3-2.1,0.9c-1.1,0.7-1,0.4-2,1.3c-6.6,5.9-13.7,14.2-15.9,23.2c0,0.4,0.1,0.5,0.2,0.5
			c0.2,0,0.4-0.1,0.7-0.3c6-4.6,10.9-10.1,15.5-15.6c1.5-1.8,1.1-2.1,2.4-4.2C1254.9,325.8,1255.8,324.4,1255.8,322.6z"/>
		<path class="st3" d="M1276.8,322c0.8-1.2,0.7-1.4,1.6-2.2c0.8-0.7,2-1,3.5-1c2.3,0,3.6,0.6,4.1,1.5c0.2,0.5,0.5,1.3,0.5,1.8
			c0,1.1-0.5,2.9-2.2,4.8c-1.1,1.2-4,4.5-6.5,9.1c-1.4,2.6-3.9,7.5-7.2,15.8c-0.7,1.8-2,6.8-2,7.1c0,0.4,0,1,0.3,1
			c0.6,0,1-0.3,1.7-1.3c13.7-19.5,21.2-23.5,23.4-28.3c1.8-3.9,2.2-4.2,3.5-4.2c1.5,0,2,0.9,3.6,1c1.1,0.1,2,1.5,2,2.7
			c0,0.4-0.5,1.8-1,2.6c-3.6,6-5.6,9.8-7.1,15c-0.6,2-1.2,7.1-1.2,9.1c0,1.8,0.6,3.3,0.8,4.4c0.3,1.8,2.8,3.1,3.5,3.6
			c0.8,0.6,1.5,1.3,1.5,2.3c0,0.7-0.7,2.4-2.6,2.4c-0.8,0-4.1-0.3-5.3-1.4c-1.4-1.3-2.6-1.7-4-3.5c-1.2-1.6-1.7-3.7-1.7-6.3
			c0-6,0.9-7.7,0.9-8c0-0.2-0.1-0.4-0.3-0.4c-0.2,0-0.3,0-0.6,0.4c-4.2,5.5-6.9,8.9-9.3,12.4c-2.1,3-2.9,2.9-4.4,4.5
			c-0.8,0.9-2.8,1.1-3.8,1.1c-1.2,0-6-3-7.3-4.7c-0.4-0.5-0.7-1.8-0.7-2.9c0-3.1,0.9-3.9,1.2-6.1c0.4-2.9,3.2-9.8,5-13.8
			C1270,333.7,1272.4,328.8,1276.8,322z"/>
	</g>
</g>
</svg>
