<?xml version="1.0" encoding="utf-8"?>
<!-- Generator: Adobe Illustrator 19.1.1, SVG Export Plug-In . SVG Version: 6.00 Build 0)  -->
<svg version="1.1" id="Calque_1" xmlns="http://www.w3.org/2000/svg" xmlns:xlink="http://www.w3.org/1999/xlink" x="0px" y="0px"
	 viewBox="0 0 322.8 494.9" style="enable-background:new 0 0 322.8 494.9;" xml:space="preserve">
<style type="text/css">
	.st0{fill:#FFFFFF;}
	.st1{fill:#240E47;}
</style>
<g>
	<g>
		<path class="st0" d="M164.2,180.3c2.1,0,4.3,0.7,5.7,1.9c0.8,0.6,1.2,1.3,1.2,2.1c0,0.7-0.3,3.1-5.1,8.7c-1.6,1.8-3.2,4.1-3.2,4.2
			c0,0.1,0.1,0.2,0.2,0.2c1.1,0.5,2.6,0.2,3.8,0.6c2,0.8,3.6,2.2,4.5,3.9c0.4,0.6,0.4,1.2,0.4,2c0,5.2-2.8,8.6-5.9,13.6
			c-1.9,3.1-5.6,4.5-9.4,4.5c-1.9,0-4.9-0.4-6.2-1.1c-0.6-0.4-1.9-0.6-2.9-1.7c-0.2,0.1-0.6,0.1-0.9,0.1c-1.3,0-2.5-1.2-3.5-2.1
			c-0.4-0.3-0.4-0.5-0.4-0.7c0-0.9-2.4-2.8-2.5-3.4c-0.1-1.2-1-1.4-1-2.6c0-0.8,0.7-1,3.3-1c0.4,0,0.9,0.2,1.1,0.2
			c0.2,0,0.5,0,0.6-0.8c1.7-7.4,3-12.1,5.5-18.5c0-0.1-0.1-0.2-0.2-0.4c-0.5-0.7-0.5-1.2-0.5-1.9c0-0.6,0.1-0.6,0.4-0.8
			c1.7-0.7,2.3-2.1,3.2-4.6c0.8-2.3,1.5-2.8,2.2-2.8c1.3,0,2.6,1.5,4.1,1.5c0.4,0,0.9-0.2,1.4-0.5
			C160.7,180.9,162.4,180.3,164.2,180.3z M155.6,204.1c-1.5,1-3.3,1.9-4.8,1.9c-0.5,0-0.5,0.1-0.6,0.6c-0.4,1.8-1.8,6.6-1.8,8.2
			c0,0.2,0.1,0.5,0.4,0.9c1.8,1.8,4.4,3.7,7.7,3.7c3.2,0,5.3-3.9,8.1-9.7c1.5-3,1.5-5,1.5-6.2c0-0.9-0.1-1.3-0.6-1.9
			c-0.5-0.6-1.3-0.7-2.3-0.7C160.5,200.9,156.9,203.2,155.6,204.1z M165.1,184c-3.3,0-5.9,1.3-8.4,3c-0.4,0.3-0.5,0.4-0.7,0.8
			c-0.4,0.9-0.8,1.7-1.1,2.6c-0.8,2.5-3.6,9.2-3.6,10.8c0,0.2,0.1,0.2,0.2,0.2c0.4,0,2.1-1.1,3.1-2.3c0.4-0.5,1-1.3,1.3-1.8
			c1.8-2.1,4.5-4.7,6.3-7.3c2.2-3.1,3-5.4,3-5.7C165.4,184.1,165.3,184,165.1,184z"/>
		<path class="st0" d="M194.2,196.5c2.3,0,3.7-0.2,5-0.2c1.9,0,3.6,0.6,3.6,1.5c0,0.8-1.5,0.9-1.6,1.2c-0.1,0.2-0.2,0.3-0.6,0.4
			c-1.2,0.2-2.9,0.8-4.4,1c-1.2,0.2-1.9,0.2-2.3,0.2c-0.5,0-0.6,0.1-0.7,0.5c-1.5,6.3-3.6,11.7-7.4,15.7c-1.6,1.8-3.2,3.5-5.3,3.5
			c-0.5,0-1.1-0.1-1.4-0.3c-2.2-1.1-3.9-2.3-4.4-3.7c-0.6-1.6-0.9-3.4-0.9-4.9c0-4.8,2.4-9,5.1-13.1c0.8-1.2,0.8-0.9,1.4-1.8
			c1.9-2.6,4.3-5.4,6.9-5.4c0.9,0,2.1,0.2,3.1,1.1c0.5,0.4,0.6,0.5,0.8,1C191.7,194.7,192.5,196.5,194.2,196.5z M187.7,196.2
			c-0.2-0.6-0.4-1-0.6-1c-0.2,0-0.6,0.2-0.9,0.6c-0.2,0.3-0.8,0.6-1.1,1c-1.8,2.3-7.3,9.6-7.3,16.4c0,0.2,0,0.4,0.2,0.8
			c0.2,0.5,0.9,1.6,1.4,1.9c0.2,0.1,0.4,0.1,0.5,0.1c0.6,0,0.9-0.4,1.1-0.5c0.4-0.2,0.5-0.4,1-1.1c3.4-5.1,6.6-9.7,6.6-15.6
			c0-0.2,0-0.9-0.1-1.2c-0.1-0.4-0.2-0.5-0.4-0.6C187.9,196.8,187.8,196.5,187.7,196.2z"/>
		<path class="st0" d="M195,216.7c-0.1-0.6-0.2-1.3-0.2-2c0-2.7,1.2-5.4,2.5-8.7c2.5-6.6,7.7-15.9,12.2-23.6c1-1.7,1.3-5,3.6-5
			c0.8,0,1.3-0.1,1.9-0.1c0.6,0,1.2,0.2,1.5,0.6c0.4,0.5,0.5,1.1,0.5,1.6c0,0.8-0.2,1.5-0.6,2.1c-5.3,8.6-11.5,16.5-14.9,25.6
			c-0.9,2.4-2.2,4.6-2.2,7.2c0,0.7,0.1,1.4,0.3,2.2c0.2,0.5,0.6,0.7,1.2,0.7c0.4,0,0.7-0.1,1-0.2c2.6-1.6,5.5-6.6,8.1-6.6
			c0.5,0,2,0.4,2,1.3c0,0.8-0.6,1-1.2,1.6c-3,3.2-5.4,7.7-9.9,7.7C200.4,221.3,195.6,220,195,216.7z"/>
		<path class="st0" d="M229.3,196.5c2.3,0,3.7-0.2,5-0.2c1.9,0,3.6,0.6,3.6,1.5c0,0.8-1.5,0.9-1.6,1.2c-0.1,0.2-0.2,0.3-0.6,0.4
			c-1.2,0.2-2.9,0.8-4.4,1c-1.2,0.2-1.9,0.2-2.3,0.2c-0.5,0-0.6,0.1-0.7,0.5c-1.5,6.3-3.6,11.7-7.4,15.7c-1.6,1.8-3.2,3.5-5.3,3.5
			c-0.5,0-1.1-0.1-1.4-0.3c-2.2-1.1-3.9-2.3-4.4-3.7c-0.6-1.6-0.9-3.4-0.9-4.9c0-4.8,2.4-9,5.1-13.1c0.8-1.2,0.8-0.9,1.4-1.8
			c1.9-2.6,4.3-5.4,6.9-5.4c0.9,0,2.1,0.2,3.1,1.1c0.5,0.4,0.6,0.5,0.8,1C226.9,194.7,227.6,196.5,229.3,196.5z M222.9,196.2
			c-0.2-0.6-0.4-1-0.6-1c-0.2,0-0.6,0.2-0.9,0.6c-0.2,0.3-0.8,0.6-1.1,1c-1.8,2.3-7.3,9.6-7.3,16.4c0,0.2,0,0.4,0.2,0.8
			c0.2,0.5,0.9,1.6,1.4,1.9c0.2,0.1,0.4,0.1,0.5,0.1c0.6,0,0.9-0.4,1.1-0.5c0.4-0.2,0.5-0.4,1-1.1c3.4-5.1,6.6-9.7,6.6-15.6
			c0-0.2,0-0.9-0.1-1.2c-0.1-0.4-0.2-0.5-0.4-0.6C223.1,196.8,223,196.5,222.9,196.2z"/>
		<path class="st0" d="M249.2,196.8c0,2.2-0.9,3.8-1.7,4.9c-0.5,0.6-0.5,0.6-0.8,0.6c-0.6,0-1.6-0.4-2.1-0.8c-0.5-0.4-0.9-1-0.9-1.9
			c0-0.1,0.1-0.3,0.2-0.5c0.5-0.9,1-1.7,1-2.7c0-0.5-0.2-1.2-0.4-1.6c-0.2-0.4-0.8-0.8-1.3-0.8c-0.4,0-3.1,3.3-3.6,6
			c-0.1,0.4-0.1,0.8-0.1,1.5c0,0.4,0.3,3,0.4,3.8c0.5,4.4,1.9,11,1.9,13.4c0,0.5-0.2,0.8-0.5,1.1c-1.1,1.1-2.1,2.1-3.7,2.1
			c-0.5,0-1.2-0.1-1.5-0.2c-3.9-1.6-6.6-4.6-8.6-7.9c-0.2-0.3-0.4-0.7-0.4-0.9c0-0.9,0.9-2.2,2.1-2.2c1.2,0,1.7,0.1,2.2,0.8
			c1.3,1.8,2.1,4,3.8,5.6c0.6,0.5,0.9,0.6,1.2,0.6c0.4,0,0.6-0.2,0.6-0.5c0-0.2,0-0.4-0.3-1.8c-0.8-3.9-1.9-12.7-1.9-13.8
			c0-1.6,0.7-4.9,2.1-7.2c1.7-2.7,4.1-3.8,5.2-3.8c3.2,0,4.5,0.8,5.7,2.1C248.9,193.9,249.2,195.6,249.2,196.8z"/>
		<path class="st0" d="M266.6,196.8c0,2.2-0.9,3.8-1.7,4.9c-0.5,0.6-0.5,0.6-0.8,0.6c-0.6,0-1.6-0.4-2.1-0.8c-0.5-0.4-0.9-1-0.9-1.9
			c0-0.1,0.1-0.3,0.2-0.5c0.5-0.9,1-1.7,1-2.7c0-0.5-0.2-1.2-0.4-1.6c-0.2-0.4-0.8-0.8-1.3-0.8c-0.4,0-3.1,3.3-3.6,6
			c-0.1,0.4-0.1,0.8-0.1,1.5c0,0.4,0.3,3,0.4,3.8c0.5,4.4,1.9,11,1.9,13.4c0,0.5-0.2,0.8-0.5,1.1c-1.1,1.1-2.1,2.1-3.7,2.1
			c-0.5,0-1.2-0.1-1.5-0.2c-3.9-1.6-6.6-4.6-8.6-7.9c-0.2-0.3-0.4-0.7-0.4-0.9c0-0.9,0.9-2.2,2.1-2.2c1.2,0,1.7,0.1,2.2,0.8
			c1.3,1.8,2.1,4,3.8,5.6c0.6,0.5,0.9,0.6,1.2,0.6c0.4,0,0.6-0.2,0.6-0.5c0-0.2,0-0.4-0.3-1.8c-0.8-3.9-1.9-12.7-1.9-13.8
			c0-1.6,0.7-4.9,2.1-7.2c1.7-2.7,4.1-3.8,5.2-3.8c3.2,0,4.5,0.8,5.7,2.1C266.3,193.9,266.6,195.6,266.6,196.8z"/>
		<path class="st0" d="M289.5,216.3c0,0.5,0,1.1-0.4,2.2c-0.4,1.1-0.9,2.3-1.9,2.3c-0.4,0-0.9,0.1-2.3,0.1c-0.9,0-1.8-2.6-1.8-3.6
			c0-0.6,0.1-0.9,0.5-1.6c0.2-0.4,0.2-1.4,1.2-1.4c1.6,0,2.2,1.1,3.8,1.2C289.3,215.5,289.5,215.9,289.5,216.3z M298.6,185
			c0,2.2-1.3,3.8-1.8,5.5c-2.1,6.4-3.3,12.4-5.9,18.4c-0.2,0.5-0.4,0.7-0.8,0.7c-0.8,0-1.2-0.4-1.2-0.7c-0.3-1.5-1.6-1.7-1.6-2.5
			c0-0.4,0-0.6,0.2-1.1c0.4-1.1,0.4-1.5,0.6-2.5c1.3-5.7,3-10.1,3.9-15.9c0.3-1.9,0.8-4.7,2.5-4.7c0.5,0,0.8,0.4,1.3,0.5
			c0.8,0.2,0.8,0.7,1.3,0.8C297.9,183.7,298.6,184.4,298.6,185z"/>
	</g>
</g>
<g>
	<g>
		<path class="st0" d="M98.1,88.1c-0.4,0.1-0.8,0.6-1.8,0.6c-0.5,0-0.4-0.4-1.2-0.8c-1.1-0.4-1.2-0.6-1.9-0.6
			c-3.3,0-6.3,0.4-8.7,0.9c0.3,0.3,0.4,0.5,0.4,0.7c0,0.1-0.1,0.2-0.1,0.4c-5,8.4-8.4,16.8-10.3,26.7c-0.2,0.9-0.3,1.3-0.3,2.1
			c0,0.5,0.1,0.9,0.1,1.4c0,1.1-0.2,1.9-1.6,1.9c-0.9,0-2.1-0.6-3-1.1c-0.3-0.2-0.8-1-0.8-1.4c0-0.4,0.2-1.9,0.3-2.5
			c2.3-9.4,5.1-18.2,9.3-26.9c0-0.2-0.1-0.2-0.4-0.2c-0.8,0.1-2.8,0.3-4.3,0.3c-1.2,0-2.7-0.4-3.3-0.9c-0.1-0.1-0.1-0.2-0.1-1.7
			c0-1.4,0.9-2.1,1.3-2.1c0.5,0,0.6,0.4,4.5,0.4c5.6,0,11.1-1.9,17.1-1.9c2.1,0,5.4,2.2,5.4,2.9C98.9,87.5,98.5,87.9,98.1,88.1z"/>
		<path class="st0" d="M99.9,95.4c0,0.5-0.3,1.1-1.2,1.7c-0.5,0.3-1.2,0.9-1.7,2.8c-1.3,5.2-3.8,11-4.4,15.2
			c-0.1,0.8-0.1,1.1-0.1,1.3c0,0.3,0.4,0.8,0.8,0.8c0.2,0,0.9-0.2,1.3-0.6c2.1-1.9,2.1-2.3,3.1-3.4c3.6-3.9,6.9-8.3,8.7-13.1
			c0.3-0.8,0.4-0.9,1.1-1.3c0.5-0.3,0.9-0.4,1.3-0.4c0.5,0,1,0.5,1.4,0.6c0.9,0.3,1.2,0.7,1.2,1.1c0,0.9-0.1,1.2-0.4,1.7
			c-2,4.3-3.6,8.6-4.3,13.2c-0.2,1.2-0.4,2.7-0.4,4.3c0,1.5,1.1,2.6,1.1,3.9c0,0.4-0.1,0.9-0.4,1.1c-0.2,0.1-0.5,0.2-0.8,0.2
			c-0.8,0-1.6-0.5-2.2-0.9c-1.1-0.7-1.1-0.2-1.5-1.1c-0.5-1.2-0.6-2.3-0.6-3.5c0-1.5,0.2-3.4,0.2-4c0-0.2-0.1-0.4-0.2-0.4
			c-0.2,0-0.6,0.4-0.8,0.7c-2,2.3-4.1,4.5-6.6,5.7c-0.5,0.2-0.5,0.2-0.8,0.2c-0.2,0-2.1-0.2-3.5-1.1c-1.1-0.6-1.6-1.2-1.8-1.8
			c-0.2-0.9-0.3-1.9-0.3-2.5c0-2.1,0.8-4.7,1.3-6.7c0.5-1.6,0.5-2.2,1-3.7c1.2-3.5,1.9-7.2,4.1-11c0.6-1.1,1.6-1.5,2.5-1.5
			c0.6,0,1.7,0.3,2,0.9C99.5,94.3,99.9,94.7,99.9,95.4z"/>
		<path class="st0" d="M136.6,100.7c-0.1,0.2-0.1,0.4-0.1,0.4c0.1,0,0.4-0.3,0.5-0.4c2.6-3,5.2-5.6,7.8-7c0.6-0.3,0.8-0.4,0.9-0.4
			c1.7,0,3.5,1.1,4.9,2c0.5,0.4,1.2,0.9,1.2,2.3c0,1.9-0.2,3-0.4,4.1c-0.1,0.5,0.1,0.9-0.3,1.9c-2.8,7.9-4.5,12-8.4,15.5
			c-0.4,0.4-1.1,0.4-1.6,0.4c-1.3,0-3.4-1.1-4-1.7c-1.5-1.3-2.3-2.8-3-4.3c-0.1-0.2-0.2-0.3-0.4-0.3c-0.1,0-0.2,0.1-0.4,0.3
			c-3.6,6.9-5.6,12-7.7,20.6c-0.3,1.2,0.1,2.2-0.7,2.5c-0.8,0.3-1.4,0.4-2.1,0.4c-0.7,0-1.2-0.2-1.8-0.8c-0.4-0.4-0.8-0.5-0.8-1.3
			c0-0.2,0.1-0.5,0.3-1.3c3.5-11.3,11-27.7,13-40.2c0.2-1,0.4-1.1,0.7-1.2c0.7-0.2,1.3-0.6,2.2-0.6c0.9,0,1.9,0.5,1.9,1.2
			C138.5,95.2,137.4,97.7,136.6,100.7z M137.1,107.6c-0.4,0.6-0.4,0.9-0.4,1.7c0,1.3,1.9,6.3,3.3,6.3c0.2,0,0.3-0.1,0.5-0.2
			c1.9-1.8,4.2-7.6,4.3-8.3c2.2-6.6,2.3-9.1,2.3-9.3c0-0.2-0.2-0.2-0.2-0.2c-0.1,0-0.2,0-0.4,0.1C142.3,100.3,139.4,104,137.1,107.6
			z"/>
		<path class="st0" d="M164.8,95.4c0,0.5-0.3,1.1-1.2,1.7c-0.5,0.3-1.2,0.9-1.7,2.8c-1.3,5.2-3.8,11-4.4,15.2
			c-0.1,0.8-0.1,1.1-0.1,1.3c0,0.3,0.4,0.8,0.8,0.8c0.2,0,0.9-0.2,1.3-0.6c2.1-1.9,2.1-2.3,3.1-3.4c3.6-3.9,6.9-8.3,8.7-13.1
			c0.3-0.8,0.4-0.9,1.1-1.3c0.5-0.3,0.9-0.4,1.3-0.4c0.5,0,1,0.5,1.4,0.6c0.9,0.3,1.2,0.7,1.2,1.1c0,0.9-0.1,1.2-0.4,1.7
			c-2,4.3-3.6,8.6-4.3,13.2c-0.2,1.2-0.4,2.7-0.4,4.3c0,1.5,1.1,2.6,1.1,3.9c0,0.4-0.1,0.9-0.4,1.1c-0.2,0.1-0.5,0.2-0.8,0.2
			c-0.8,0-1.6-0.5-2.2-0.9c-1.1-0.7-1.1-0.2-1.5-1.1c-0.5-1.2-0.6-2.3-0.6-3.5c0-1.5,0.2-3.4,0.2-4c0-0.2-0.1-0.4-0.2-0.4
			c-0.2,0-0.6,0.4-0.8,0.7c-2,2.3-4.1,4.5-6.6,5.7c-0.5,0.2-0.5,0.2-0.8,0.2c-0.2,0-2.1-0.2-3.5-1.1c-1.1-0.6-1.6-1.2-1.8-1.8
			c-0.2-0.9-0.3-1.9-0.3-2.5c0-2.1,0.8-4.7,1.3-6.7c0.5-1.6,0.5-2.2,1-3.7c1.2-3.5,1.9-7.2,4.1-11c0.6-1.1,1.6-1.5,2.5-1.5
			c0.6,0,1.7,0.3,2,0.9C164.3,94.3,164.8,94.7,164.8,95.4z"/>
		<path class="st0" d="M187.6,121.1c-0.7,0-1.3-0.1-2.2-0.4c-1.3-0.5-3.3-1.4-3.8-1.6c-1.2-0.6-2.3-2.1-2.9-4
			c-0.4-1.2-0.7-3.4-0.7-4.5c0-0.5,0.1-1.1,0.3-1.9c1.6-6,5.6-11.1,10.1-15.9c1-1.1,3.4-2.6,6.3-2.6c1.6,0,2.4,0.2,3.6,0.6
			c0.6,0.2,1.9,1.3,1.9,3.6c0,1.5-0.6,2.8-1.3,4.2c-0.6,1.2-1.1,1.8-1.9,2.8c-4,4.6-8.6,9.7-13.6,12.4c-0.3,0.2-0.4,0.3-0.4,0.5
			c0,0.9,0.9,2.2,1.4,2.5c0.6,0.4,1.2,0.5,1.8,0.5c1,0,1.9-0.2,4.5-1.6c4-2.2,6.5-5.3,10-7.6c0.6-0.4,0.9-0.4,1.2-0.4
			c0.4,0,1.2,0.6,1.2,1.2c0,0.5-0.1,0.6-0.1,0.8c0,0.2,0,0.6-0.3,0.8c-2.8,2.4-4,5.3-13,10.3C188.6,121.1,188.3,121.1,187.6,121.1z
			 M195.1,94.3c0-0.5,0-0.7-0.4-0.7c-0.4,0-0.7,0.2-1.2,0.5c-0.6,0.4-0.6,0.2-1.2,0.8c-3.8,3.4-7.9,8.2-9.2,13.4
			c0,0.2,0.1,0.3,0.1,0.3c0.1,0,0.2-0.1,0.4-0.2c3.5-2.6,6.3-5.9,9-9c0.9-1.1,0.6-1.2,1.4-2.4C194.7,96.2,195.1,95.4,195.1,94.3z"/>
		<path class="st0" d="M217.8,97c0,2.2-0.9,3.8-1.7,4.9c-0.5,0.6-0.5,0.6-0.8,0.6c-0.6,0-1.6-0.4-2.1-0.8c-0.5-0.4-0.9-1-0.9-1.9
			c0-0.1,0.1-0.3,0.2-0.5c0.5-0.9,1-1.7,1-2.7c0-0.5-0.2-1.2-0.4-1.6c-0.2-0.4-0.8-0.8-1.3-0.8c-0.4,0-3.1,3.3-3.6,6
			c-0.1,0.4-0.1,0.8-0.1,1.5c0,0.4,0.3,3,0.4,3.8c0.5,4.4,1.9,11,1.9,13.4c0,0.5-0.2,0.8-0.5,1.1c-1.1,1.1-2.1,2.1-3.7,2.1
			c-0.5,0-1.2-0.1-1.5-0.2c-3.9-1.6-6.6-4.6-8.6-7.9c-0.2-0.3-0.4-0.7-0.4-0.9c0-0.9,0.9-2.2,2.1-2.2c1.2,0,1.7,0.1,2.2,0.8
			c1.3,1.8,2.1,4,3.8,5.6c0.6,0.5,0.9,0.6,1.2,0.6c0.4,0,0.6-0.2,0.6-0.5c0-0.2,0-0.4-0.3-1.8c-0.8-3.9-1.9-12.7-1.9-13.8
			c0-1.6,0.7-4.9,2.1-7.2c1.7-2.7,4.1-3.8,5.2-3.8c3.2,0,4.5,0.8,5.7,2.1C217.5,94,217.8,95.8,217.8,97z"/>
	</g>
</g>
<g>
	<g>
		<path class="st0" d="M50.2,259.5c2.1,0,4.3,0.7,5.7,1.9c0.8,0.6,1.2,1.3,1.2,2.1c0,0.7-0.3,3.1-5.1,8.7c-1.6,1.8-3.2,4.1-3.2,4.2
			s0.1,0.2,0.2,0.2c1.1,0.5,2.6,0.2,3.8,0.6c2,0.8,3.6,2.2,4.5,3.9c0.4,0.6,0.4,1.2,0.4,2c0,5.2-2.8,8.6-5.9,13.6
			c-1.9,3.1-5.6,4.5-9.4,4.5c-1.9,0-4.9-0.4-6.2-1.1c-0.6-0.4-1.9-0.6-2.9-1.7c-0.2,0.1-0.6,0.1-0.9,0.1c-1.3,0-2.5-1.2-3.5-2.1
			c-0.4-0.3-0.4-0.5-0.4-0.7c0-0.9-2.4-2.8-2.5-3.4c-0.1-1.2-1-1.4-1-2.6c0-0.8,0.7-1,3.3-1c0.4,0,0.9,0.2,1.1,0.2
			c0.2,0,0.5,0,0.6-0.8c1.7-7.4,3-12.1,5.5-18.5c0-0.1-0.1-0.2-0.2-0.4c-0.5-0.7-0.5-1.2-0.5-1.9c0-0.6,0.1-0.6,0.4-0.8
			c1.7-0.7,2.3-2.1,3.2-4.6c0.8-2.3,1.5-2.8,2.2-2.8c1.3,0,2.6,1.5,4.1,1.5c0.4,0,0.9-0.2,1.4-0.5C46.7,260.1,48.4,259.5,50.2,259.5
			z M41.6,283.2c-1.5,1-3.3,1.9-4.8,1.9c-0.5,0-0.5,0.1-0.6,0.6c-0.4,1.8-1.8,6.6-1.8,8.2c0,0.2,0.1,0.5,0.4,0.9
			c1.8,1.8,4.4,3.7,7.7,3.7c3.2,0,5.3-3.9,8.1-9.7c1.5-3,1.5-5,1.5-6.2c0-0.9-0.1-1.3-0.6-1.9c-0.5-0.6-1.3-0.7-2.3-0.7
			C46.4,280,42.9,282.4,41.6,283.2z M51.1,263.1c-3.3,0-5.9,1.3-8.4,3c-0.4,0.3-0.5,0.4-0.7,0.8c-0.4,0.9-0.8,1.7-1.1,2.6
			c-0.8,2.5-3.6,9.2-3.6,10.8c0,0.2,0.1,0.2,0.2,0.2c0.4,0,2.1-1.1,3.1-2.3c0.4-0.5,1-1.3,1.3-1.8c1.8-2.1,4.5-4.7,6.3-7.3
			c2.2-3.1,3-5.4,3-5.7C51.3,263.2,51.3,263.1,51.1,263.1z"/>
		<path class="st0" d="M80.1,275.6c2.3,0,3.7-0.2,5-0.2c1.9,0,3.6,0.6,3.6,1.5c0,0.8-1.5,0.9-1.6,1.2c-0.1,0.2-0.2,0.3-0.6,0.4
			c-1.2,0.2-2.9,0.8-4.4,1c-1.2,0.2-1.9,0.2-2.3,0.2c-0.5,0-0.6,0.1-0.7,0.5c-1.5,6.3-3.6,11.7-7.4,15.7c-1.6,1.8-3.2,3.5-5.3,3.5
			c-0.5,0-1.1-0.1-1.4-0.3c-2.2-1.1-3.9-2.3-4.4-3.7c-0.6-1.6-0.9-3.4-0.9-4.9c0-4.8,2.4-9,5.1-13.1c0.8-1.2,0.8-0.9,1.4-1.8
			c1.9-2.6,4.3-5.4,6.9-5.4c0.9,0,2.1,0.2,3.1,1.1c0.5,0.4,0.6,0.5,0.8,1C77.7,273.9,78.4,275.6,80.1,275.6z M73.7,275.4
			c-0.2-0.6-0.4-1-0.6-1c-0.2,0-0.6,0.2-0.9,0.6c-0.2,0.3-0.8,0.6-1.1,1c-1.8,2.3-7.3,9.6-7.3,16.4c0,0.2,0,0.4,0.2,0.8
			c0.2,0.5,0.9,1.6,1.4,1.9c0.2,0.1,0.4,0.1,0.5,0.1c0.6,0,0.9-0.4,1.1-0.5c0.4-0.2,0.5-0.4,1-1.1c3.4-5.1,6.6-9.7,6.6-15.6
			c0-0.2,0-0.9-0.1-1.2c-0.1-0.4-0.2-0.5-0.4-0.6C73.9,276,73.7,275.6,73.7,275.4z"/>
		<path class="st0" d="M93.1,274.4c0,0.5-0.3,1.1-1.2,1.7c-0.5,0.3-1.2,0.9-1.7,2.8c-1.3,5.2-3.8,11-4.4,15.2
			c-0.1,0.8-0.1,1.1-0.1,1.3c0,0.3,0.4,0.8,0.8,0.8c0.2,0,0.9-0.2,1.3-0.6c2.1-1.9,2.1-2.3,3.1-3.4c3.6-3.9,6.9-8.3,8.7-13.1
			c0.3-0.8,0.4-0.9,1.1-1.3c0.5-0.3,0.9-0.4,1.3-0.4c0.5,0,1,0.5,1.4,0.6c0.9,0.3,1.2,0.7,1.2,1.1c0,0.9-0.1,1.2-0.4,1.7
			c-2,4.3-3.6,8.6-4.3,13.2c-0.2,1.2-0.4,2.7-0.4,4.3c0,1.5,1.1,2.6,1.1,3.9c0,0.4-0.1,0.9-0.4,1.1c-0.2,0.1-0.5,0.2-0.8,0.2
			c-0.8,0-1.6-0.5-2.2-0.9c-1.1-0.7-1.1-0.2-1.5-1.1c-0.5-1.2-0.6-2.3-0.6-3.5c0-1.5,0.2-3.4,0.2-4c0-0.2-0.1-0.4-0.2-0.4
			c-0.2,0-0.6,0.4-0.8,0.7c-2,2.3-4.1,4.5-6.6,5.7c-0.5,0.2-0.5,0.2-0.8,0.2c-0.2,0-2.1-0.2-3.5-1.1c-1.1-0.6-1.6-1.2-1.8-1.8
			c-0.2-0.9-0.3-1.9-0.3-2.5c0-2.1,0.8-4.7,1.3-6.7c0.5-1.6,0.5-2.2,1-3.7c1.2-3.5,1.9-7.2,4.1-11c0.6-1.1,1.6-1.5,2.5-1.5
			c0.6,0,1.7,0.3,2,0.9C92.6,273.3,93.1,273.7,93.1,274.4z"/>
		<path class="st0" d="M126.4,260.1c-3.1,5-7.3,10.7-9,14.7c-2.5,5.9-6.3,11.7-6.3,18.4c0,1.3,0.1,2.1,1,2.1c0.6,0,1.6-0.7,2.1-1.2
			c3.4-4.3,4.5-7.2,5.8-11.8c0.2-0.6,0.4-1.2,0.4-1.5c0-0.4-0.2-3-1.2-3.7c-0.2-0.2-0.3-0.7-0.3-1.1c0-1,0.9-2.6,1.9-2.6
			c0.8,0,1.5,0.8,2.1,1.5c1.6,1.9,1.7,2.1,3,2.1c0.7,0,3.5-0.2,9.1-1.7c0.6-0.2,1.2-0.4,1.3-0.4c0.2,0,0.3,0.1,0.7,0.1
			c0.4,0,0.9,0.1,1.2,0.4c0.2,0.2,0.7,0.8,0.7,1.3c0,0.2-0.2,0.9-0.5,1c-4.5,0.6-7.6,3-11.9,3c-0.4,0-1.2-0.4-1.7-0.4
			c-0.2,0-0.2,0.3-0.2,0.5c0,0.4,0.1,0.8,0.1,1.2c0,0.7-0.2,0.7-0.4,2.2c-0.4,2.5-1.6,4.3-2.5,6.3c-0.8,1.8-1,2.1-1.6,3
			c-1.9,2.6-4.3,5.9-7.7,5.9c-0.5,0-0.9,0-1.6-0.2c-0.7-0.2-3.3-1.4-3.7-3c-0.2-1-0.4-2-0.4-2.9c0-2.3,0.5-4.5,1.2-6.5
			c0.2-0.5,1.4-4.2,1.8-5.1c3.9-9,8.4-16.4,13.5-25.2c0.9-1.5,1.9-2.5,3.5-2.5c0.5,0,1.1,0.1,1.7,0.4c0.9,0.4,1.1,1,1.1,1.9
			C129.6,257.6,127.3,258.7,126.4,260.1z"/>
		<path class="st0" d="M149,275.6c2.3,0,3.7-0.2,5-0.2c1.9,0,3.6,0.6,3.6,1.5c0,0.8-1.5,0.9-1.6,1.2c-0.1,0.2-0.2,0.3-0.6,0.4
			c-1.2,0.2-2.9,0.8-4.4,1c-1.2,0.2-1.9,0.2-2.3,0.2c-0.5,0-0.6,0.1-0.7,0.5c-1.5,6.3-3.6,11.7-7.4,15.7c-1.6,1.8-3.2,3.5-5.3,3.5
			c-0.5,0-1.1-0.1-1.4-0.3c-2.2-1.1-3.9-2.3-4.4-3.7c-0.6-1.6-0.9-3.4-0.9-4.9c0-4.8,2.4-9,5.1-13.1c0.8-1.2,0.8-0.9,1.4-1.8
			c1.9-2.6,4.3-5.4,6.9-5.4c0.9,0,2.1,0.2,3.1,1.1c0.5,0.4,0.6,0.5,0.8,1C146.5,273.9,147.3,275.6,149,275.6z M142.5,275.4
			c-0.2-0.6-0.4-1-0.6-1c-0.2,0-0.6,0.2-0.9,0.6c-0.2,0.3-0.8,0.6-1.1,1c-1.8,2.3-7.3,9.6-7.3,16.4c0,0.2,0,0.4,0.2,0.8
			c0.2,0.5,0.9,1.6,1.4,1.9c0.2,0.1,0.4,0.1,0.5,0.1c0.6,0,0.9-0.4,1.1-0.5c0.4-0.2,0.5-0.4,1-1.1c3.4-5.1,6.6-9.7,6.6-15.6
			c0-0.2,0-0.9-0.1-1.2c-0.1-0.4-0.2-0.5-0.4-0.6C142.7,276,142.6,275.6,142.5,275.4z"/>
		<path class="st0" d="M161.9,274.4c0,0.5-0.3,1.1-1.2,1.7c-0.5,0.3-1.2,0.9-1.7,2.8c-1.3,5.2-3.8,11-4.4,15.2
			c-0.1,0.8-0.1,1.1-0.1,1.3c0,0.3,0.4,0.8,0.8,0.8c0.2,0,0.9-0.2,1.3-0.6c2.1-1.9,2.1-2.3,3.1-3.4c3.6-3.9,6.9-8.3,8.7-13.1
			c0.3-0.8,0.4-0.9,1.1-1.3c0.5-0.3,0.9-0.4,1.3-0.4c0.5,0,1,0.5,1.4,0.6c0.9,0.3,1.2,0.7,1.2,1.1c0,0.9-0.1,1.2-0.4,1.7
			c-2,4.3-3.6,8.6-4.3,13.2c-0.2,1.2-0.4,2.7-0.4,4.3c0,1.5,1.1,2.6,1.1,3.9c0,0.4-0.1,0.9-0.4,1.1c-0.2,0.1-0.5,0.2-0.8,0.2
			c-0.8,0-1.6-0.5-2.2-0.9c-1.1-0.7-1.1-0.2-1.5-1.1c-0.5-1.2-0.6-2.3-0.6-3.5c0-1.5,0.2-3.4,0.2-4c0-0.2-0.1-0.4-0.2-0.4
			c-0.2,0-0.6,0.4-0.8,0.7c-2,2.3-4.1,4.5-6.6,5.7c-0.5,0.2-0.5,0.2-0.8,0.2c-0.2,0-2.1-0.2-3.5-1.1c-1.1-0.6-1.6-1.2-1.8-1.8
			c-0.2-0.9-0.3-1.9-0.3-2.5c0-2.1,0.8-4.7,1.3-6.7c0.5-1.6,0.5-2.2,1-3.7c1.2-3.5,1.9-7.2,4.1-11c0.6-1.1,1.6-1.5,2.5-1.5
			c0.6,0,1.7,0.3,2,0.9C161.4,273.3,161.9,273.7,161.9,274.4z"/>
		<path class="st0" d="M174.4,295.9c-0.1-0.6-0.2-1.3-0.2-2c0-2.7,1.2-5.4,2.5-8.7c2.5-6.6,7.7-15.9,12.2-23.6c1-1.7,1.3-5,3.6-5
			c0.8,0,1.3-0.1,1.9-0.1c0.6,0,1.2,0.2,1.5,0.6c0.4,0.5,0.5,1.1,0.5,1.6c0,0.8-0.2,1.5-0.6,2.1c-5.3,8.6-11.5,16.5-14.9,25.6
			c-0.9,2.4-2.2,4.6-2.2,7.2c0,0.7,0.1,1.4,0.3,2.2c0.2,0.5,0.6,0.7,1.2,0.7c0.4,0,0.7-0.1,1-0.2c2.6-1.6,5.5-6.6,8.1-6.6
			c0.5,0,2,0.4,2,1.3c0,0.8-0.6,1-1.2,1.6c-3,3.2-5.4,7.7-9.9,7.7C179.8,300.4,175,299.1,174.4,295.9z"/>
		<path class="st0" d="M198.3,300.1c-0.7,0-1.3-0.1-2.2-0.4c-1.3-0.5-3.3-1.4-3.8-1.6c-1.2-0.6-2.3-2.1-2.9-4
			c-0.4-1.2-0.7-3.4-0.7-4.5c0-0.5,0.1-1.1,0.3-1.9c1.6-6,5.6-11.1,10.1-15.9c1-1.1,3.4-2.6,6.3-2.6c1.6,0,2.4,0.2,3.6,0.6
			c0.6,0.2,1.9,1.3,1.9,3.6c0,1.5-0.6,2.8-1.3,4.2c-0.6,1.2-1.1,1.8-1.9,2.8c-4,4.6-8.6,9.7-13.6,12.4c-0.3,0.2-0.4,0.3-0.4,0.5
			c0,0.9,0.9,2.2,1.4,2.5c0.6,0.4,1.2,0.5,1.8,0.5c1,0,1.9-0.2,4.5-1.6c4-2.2,6.5-5.3,10-7.6c0.6-0.4,0.9-0.4,1.2-0.4
			c0.4,0,1.2,0.6,1.2,1.2c0,0.5-0.1,0.6-0.1,0.8c0,0.2,0,0.6-0.3,0.8c-2.8,2.4-4,5.3-13,10.3C199.4,300.1,199.1,300.1,198.3,300.1z
			 M205.9,273.3c0-0.5,0-0.7-0.4-0.7c-0.4,0-0.7,0.2-1.2,0.5c-0.6,0.4-0.6,0.2-1.2,0.8c-3.8,3.4-7.9,8.2-9.2,13.4
			c0,0.2,0.1,0.3,0.1,0.3c0.1,0,0.2-0.1,0.4-0.2c3.5-2.6,6.3-5.9,9-9c0.9-1.1,0.6-1.2,1.4-2.4C205.4,275.2,205.9,274.4,205.9,273.3z
			"/>
		<path class="st0" d="M234.1,295.4c0,0.5,0,1.1-0.4,2.2c-0.4,1.1-0.9,2.3-1.9,2.3c-0.4,0-0.9,0.1-2.3,0.1c-0.9,0-1.8-2.6-1.8-3.6
			c0-0.6,0.1-0.9,0.5-1.6c0.2-0.4,0.2-1.4,1.2-1.4c1.6,0,2.2,1.1,3.8,1.2C233.9,294.6,234.1,295,234.1,295.4z M243.2,264.1
			c0,2.2-1.3,3.8-1.8,5.5c-2.1,6.4-3.3,12.4-5.9,18.4c-0.2,0.5-0.4,0.7-0.8,0.7c-0.8,0-1.2-0.4-1.2-0.7c-0.3-1.5-1.6-1.7-1.6-2.5
			c0-0.4,0-0.6,0.2-1.1c0.4-1.1,0.4-1.5,0.6-2.5c1.3-5.7,3-10.1,3.9-15.9c0.3-1.9,0.8-4.7,2.5-4.7c0.5,0,0.8,0.4,1.3,0.5
			c0.8,0.2,0.8,0.7,1.3,0.8C242.5,262.9,243.2,263.6,243.2,264.1z"/>
	</g>
</g>
<g>
	<g>
		<path class="st0" d="M31.8,379c-0.1,0.4-0.4,2.1-0.4,4.3c0,0.3,0.1,1.4,0.1,5.4c0,0.3,0.1,0.5,0.2,0.5c0.1,0,0.1,0,0.5-0.4
			c3.7-4.1,8.3-7.4,11.5-11.5c0.3-0.4,0.4-0.4,0.6-0.4c1.1,0,1.3,0.3,1.8,0.3c0.1,0,1,0.7,1,1.7c0,0.1,0,0.2-0.2,0.4
			c-4.3,6.5-6.6,13.5-7.7,24.9c-0.1,0.9-0.1,0.9-0.3,0.9c-0.3,0-0.6-0.3-0.9-0.3c-0.2,0-0.2,0.2-0.4,0.2c-0.5,0-1.3-0.5-1.6-0.8
			c-0.3-0.2-0.3-0.3-0.3-0.5c0-0.3,1.4-8.6,1.6-9.8c0.2-1.3,1.3-4.7,2.1-7c0-0.2,0-0.2-0.2-0.2c-0.1,0-0.1,0-0.2,0.1
			c-2,2-5.1,5.5-5.7,6.1c-0.4,0.4-0.4,0.4-0.5,0.4c-0.1,0-0.6-0.2-1.5-0.4c-0.7-0.1-1.4-0.2-1.9-0.9c-0.3-0.5-0.8-1.9-0.9-3.7v-3.9
			c0-0.1,0-0.2-0.1-0.2c-0.1,0-0.2,0.1-0.5,0.7c-1.3,2.3-2.1,4.5-3.1,7.3c-1.7,4.7-2.5,7.9-2.5,9.6c0,0.3-0.5,0.7-0.8,0.7
			c-0.6,0-0.6,0.4-0.9,0.4c-0.3,0-1.3-0.6-1.5-0.6c-0.3,0-0.8-0.8-0.8-1.5c0-1.5,1.1-2.8,1.4-3.7c2.1-8,6.8-15.7,9.5-22.6
			c0.2-0.6,0.3-0.8,0.4-0.8c0.4,0,0.4,0.1,1.1,0.2c0.6,0.1,1.4,0.2,1.9,0.6c0.2,0.2,0.2,0.3,0.2,0.4C32.8,375.5,32.1,377.7,31.8,379
			z"/>
		<path class="st0" d="M64.1,384.6c0.2,0,0.8,0,1.1,0.5c0.1,0.1,0.1,0.2,0.1,0.2c0,0.2-0.1,0.3-0.2,0.4c-1.8,2.4-3.9,5.5-4.7,8.6
			c-0.3,1.1-0.6,2.3-0.6,3.6c0,1.1,0.2,2.1,0.9,3c0,0.1,0.1,0.2,0.1,0.2c0,0.1-0.2,0.5-0.9,0.6c-0.2,0-0.5,0.2-0.8,0.2
			c-0.6,0-1.5-0.3-1.7-0.8c-0.5-1.2-0.7-2.3-0.7-3.5c0-1.2,0.2-1.9,0.2-2c0-0.2,0-0.2-0.2-0.2s-0.5,0.3-1,0.7l-2.2,2
			c-2.1,2-3.4,2.6-4.8,3c-0.2,0.1-0.5,0.2-0.6,0.2c-0.4,0-0.9-0.3-2.8-1.8c-0.2-0.2-0.9-0.9-0.9-2.4c0-1.3,0.4-3,2.4-6
			c2.4-3.6,4.6-5.2,5.8-6.1c2-1.5,4.1-2.5,6.5-3.2c0.3-0.1,0.6-0.1,0.9-0.1c0.9,0,1.7,0.4,2.5,1.2c0.2,0.2,0.5,0.6,0.6,0.8
			C63.3,384.2,63.7,384.6,64.1,384.6z M59.3,384.7c-3.8,2-6.8,4.3-9.1,7c-1.7,2.1-3,4.5-3,5.6c0,0.5,0.2,1.1,0.9,1.1
			c0.3,0,1.3-0.4,2-1.1c3.8-3.5,8-6.2,10.1-10.1c0.3-0.5,0.7-1.1,1.2-1.5c0.1-0.1,0.2-0.4,0.2-0.6c0-0.3-0.2-0.8-0.9-0.8
			C60.5,384.3,59.9,384.5,59.3,384.7z"/>
		<path class="st0" d="M70.9,386c0,0.4-0.1,0.9-0.2,1.4c-0.1,0.5-0.2,0.6-0.2,0.6c0,0.1,0,0.2,0.1,0.2c0,0,0.2,0,0.5-0.3
			c2.2-1.7,4.2-2.8,5.6-3.3c0.1,0,0.4-0.1,0.5-0.1c1.1,0,2.3,0.3,3,1.1c0.2,0.2,0.3,0.4,0.3,0.7c0,1.3-1.1,1.8-1.4,1.8
			c-0.6,0-1.3-0.4-1.8-0.4c-0.1,0-0.3,0-0.6,0.2c-4.4,2.1-8.8,5.7-10.2,11.6c-0.3,1.2-0.7,1.7-1,1.9c-0.2,0.2-0.6,0.4-0.7,0.4
			c-0.6,0-0.9-0.5-1.2-0.9c-0.4-0.4-0.7-1.1-0.8-1.5c0-1.4,1.7-2.7,2.2-4.3c1-3.1,2.1-6.1,2.8-9.4c0-0.4,0.1-0.6,0.1-0.6
			c0-0.2-0.3-0.6-0.4-0.9c0-0.3,0.6-0.9,1.6-0.9c0.6,0,1.2,0.2,1.3,0.4C70.7,384.3,70.9,385,70.9,386z"/>
		<path class="st0" d="M85.2,384.3c-0.4,0.9-0.9,2.4-0.9,2.5c0,0.1,0.1,0.1,0.2,0.1c0.1,0,0.6-0.1,1-0.2c1.8-0.4,4.1-1.2,5.4-2
			c0.2-0.1,0.4-0.2,0.4-0.2c0.7,0,2,0.6,2,1.1c0,0.5-0.4,1.2-1.3,1.5c-1.1,0.4-1.1,0.6-1.8,0.9c-2,0.8-5.4,1.5-6.3,1.8
			c-0.4,0.1-0.6,0.3-0.8,0.6c-0.3,0.6-0.5,1.3-0.7,1.9c-0.1,0.4-0.4,0.9-0.4,1.3c-0.2,1.3-1.6,4.8-1.9,6.8c0,0.4-0.4,1.4-1,1.7
			c-0.2,0.1-0.4,0.1-0.6,0.1c-0.5,0-1.1-0.2-1.5-0.4c-0.3-0.2-0.4-0.6-0.4-1c0-0.3,0-0.9,0.2-1.2c1-3,1.7-6.5,3-9.6
			c0-0.1,0.1-0.2,0.1-0.3c0-0.1,0-0.2-0.2-0.2c-1.5-0.7-1.7-1.8-2.6-2.6c-0.2-0.2-0.2-0.4-0.2-0.5c0-0.3,0.2-0.4,0.5-0.5
			c0.2-0.1,0.4-0.2,0.8-0.2c0.9,0,1.9,0.6,2.6,0.6c0.4,0,0.6-0.2,0.7-0.6c0.1-0.4,0.3-1.1,0.6-1.9c1-2.5,2.1-5.6,3.4-8.6
			c0.2-0.5,0.3-0.5,0.4-0.5c0.6,0,0.7-0.2,1.1-0.2c0.4,0,1.1,0.1,1.5,0.3c0.2,0.1,0.4,0.2,0.4,0.3c0,0.1,0,0.2,0,0.4
			C88.4,378.8,86.5,381.5,85.2,384.3z"/>
		<path class="st0" d="M94.6,400.1c-0.9,0.8-2.3,1.9-4.2,1.9c-1.2,0-2.6-1.7-3-3.2c-0.2-0.6-0.2-1.1-0.2-1.7c0-1,0.2-1.9,0.6-3.3
			c0.3-0.8,0.4-1.5,0.7-2c1.3-3,2.4-5.9,3.9-9c0.4-0.9,1.3-1.1,2-1.1c0.4,0,0.9,0.1,1.2,0.3c0.2,0.2,0.3,0.3,0.3,0.6
			c0,2.1-1.7,3.2-2.6,5.1c-0.7,1.5-1.8,4.3-2.4,5.8c-0.7,1.8-1,3.4-1,4c0,0.4,0,1.3,0.7,1.3c0.9,0,1.3-0.2,3-1.4
			c1-0.7,1.3-0.9,1.9-0.9c0.3,0,0.8,0.1,1,0.3c0.2,0.2,0.2,0.4,0.2,0.6c0,0.4-0.2,0.7-0.6,1.1L94.6,400.1z M100.2,374.8
			c0,0.2,0,0.5-0.2,0.7c-0.7,0.9-1.7,2-2.6,2c-0.8,0-1.4-0.4-1.6-0.8c-0.2-0.4-0.3-0.9-0.3-1.4c0-0.6,0.2-1.3,0.5-1.7
			c0.4-0.5,1.1-0.7,2-0.7c0.6,0,1.4,0.2,1.7,0.5C100.1,373.9,100.2,374.4,100.2,374.8z"/>
		<path class="st0" d="M101.5,383.2c0.3-0.5,0.3-0.6,0.6-0.9c0.3-0.3,0.8-0.4,1.4-0.4c0.9,0,1.5,0.2,1.6,0.6
			c0.1,0.2,0.2,0.5,0.2,0.7c0,0.4-0.2,1.2-0.9,1.9c-0.4,0.5-1.6,1.8-2.6,3.6c-0.6,1.1-1.5,3-2.9,6.3c-0.3,0.7-0.8,2.7-0.8,2.8
			c0,0.2,0,0.4,0.1,0.4c0.2,0,0.4-0.1,0.7-0.5c5.5-7.8,8.5-9.4,9.4-11.3c0.7-1.5,0.9-1.7,1.4-1.7c0.6,0,0.8,0.4,1.5,0.4
			c0.4,0,0.8,0.6,0.8,1.1c0,0.2-0.2,0.7-0.4,1.1c-1.5,2.4-2.2,3.9-2.8,6c-0.2,0.8-0.5,2.8-0.5,3.6c0,0.7,0.2,1.3,0.3,1.7
			c0.1,0.7,1.1,1.3,1.4,1.5c0.3,0.2,0.6,0.5,0.6,0.9c0,0.3-0.3,1-1.1,1c-0.3,0-1.6-0.1-2.1-0.6c-0.6-0.5-1.1-0.7-1.6-1.4
			c-0.5-0.6-0.7-1.5-0.7-2.5c0-2.4,0.4-3.1,0.4-3.2c0-0.1,0-0.2-0.1-0.2c-0.1,0-0.1,0-0.2,0.2c-1.7,2.2-2.8,3.6-3.7,4.9
			c-0.9,1.2-1.2,1.2-1.7,1.8c-0.3,0.4-1.1,0.4-1.5,0.4c-0.5,0-2.4-1.2-2.9-1.9c-0.2-0.2-0.3-0.7-0.3-1.2c0-1.3,0.4-1.5,0.5-2.4
			c0.2-1.2,1.3-3.9,2-5.5C98.8,387.9,99.7,385.9,101.5,383.2z"/>
		<path class="st0" d="M131.7,384.3c-0.4,0.9-0.9,2.4-0.9,2.5c0,0.1,0.1,0.1,0.2,0.1c0.1,0,0.6-0.1,1-0.2c1.8-0.4,4.1-1.2,5.4-2
			c0.2-0.1,0.4-0.2,0.4-0.2c0.7,0,2,0.6,2,1.1c0,0.5-0.4,1.2-1.3,1.5c-1.1,0.4-1.1,0.6-1.8,0.9c-2,0.8-5.4,1.5-6.3,1.8
			c-0.4,0.1-0.6,0.3-0.8,0.6c-0.3,0.6-0.5,1.3-0.7,1.9c-0.1,0.4-0.4,0.9-0.4,1.3c-0.2,1.3-1.6,4.8-1.9,6.8c0,0.4-0.4,1.4-1,1.7
			c-0.2,0.1-0.4,0.1-0.6,0.1c-0.5,0-1.1-0.2-1.5-0.4c-0.3-0.2-0.4-0.6-0.4-1c0-0.3,0-0.9,0.2-1.2c1-3,1.7-6.5,3-9.6
			c0-0.1,0.1-0.2,0.1-0.3c0-0.1,0-0.2-0.2-0.2c-1.5-0.7-1.7-1.8-2.6-2.6c-0.2-0.2-0.2-0.4-0.2-0.5c0-0.3,0.2-0.4,0.5-0.5
			c0.2-0.1,0.4-0.2,0.8-0.2c0.9,0,1.9,0.6,2.6,0.6c0.4,0,0.6-0.2,0.7-0.6c0.1-0.4,0.3-1.1,0.6-1.9c1-2.5,2.1-5.6,3.4-8.6
			c0.2-0.5,0.3-0.5,0.4-0.5c0.6,0,0.7-0.2,1.1-0.2c0.4,0,1.1,0.1,1.5,0.3c0.2,0.1,0.4,0.2,0.4,0.3c0,0.1,0,0.2,0,0.4
			C134.9,378.8,133,381.5,131.7,384.3z"/>
		<path class="st0" d="M140.3,402c-0.5,0-0.9,0-1.5-0.3c-0.9-0.3-2.3-1-2.6-1.1c-0.8-0.4-1.6-1.5-2-2.8c-0.3-0.8-0.5-2.3-0.5-3.1
			c0-0.4,0-0.8,0.2-1.3c1.1-4.1,3.9-7.7,7-11c0.7-0.7,2.4-1.8,4.3-1.8c1.1,0,1.7,0.2,2.5,0.4c0.4,0.2,1.3,0.9,1.3,2.5
			c0,1.1-0.4,1.9-0.9,2.9c-0.4,0.8-0.7,1.3-1.3,1.9c-2.8,3.2-6,6.7-9.4,8.6c-0.2,0.1-0.2,0.2-0.2,0.3c0,0.6,0.6,1.5,1,1.7
			c0.4,0.2,0.9,0.3,1.3,0.3c0.7,0,1.3-0.2,3.1-1.1c2.8-1.5,4.5-3.7,6.9-5.2c0.4-0.3,0.6-0.3,0.8-0.3c0.2,0,0.8,0.4,0.8,0.8
			c0,0.4,0,0.4,0,0.5c0,0.2,0,0.4-0.2,0.6c-1.9,1.7-2.8,3.7-9,7.1C141,402,140.8,402,140.3,402z M145.5,383.5c0-0.3,0-0.5-0.2-0.5
			c-0.2,0-0.5,0.1-0.9,0.4c-0.4,0.3-0.4,0.2-0.8,0.5c-2.6,2.3-5.5,5.7-6.4,9.3c0,0.2,0,0.2,0.1,0.2c0.1,0,0.2,0,0.3-0.1
			c2.4-1.8,4.4-4.1,6.2-6.2c0.6-0.7,0.4-0.9,1-1.7C145.2,384.7,145.5,384.2,145.5,383.5z M152.6,377.4c0.4,0.6,0.4,0.8,0.4,1
			c0,0.4-0.4,0.5-0.6,0.8c-0.2,0.4-0.3,0.4-0.7,0.4c-0.1,0-0.5-0.2-0.7-0.6l-2.6-3.5c-0.1-0.2-0.2-0.2-0.3-0.2s-0.1,0-0.4,0.1
			c-3.2,1.3-3.9,1.8-4.3,2.1c0,0-0.2,0-0.2,0c-0.5,0-0.7-0.4-1-0.5c-0.2-0.1-0.2-0.4-0.2-1c0-0.4,0-0.7,0.1-0.9
			c0.2-0.3,0.3-0.3,0.4-0.4c0.1-0.2,0.4-0.4,2.2-1l3.6-1.3c0.2-0.1,0.4-0.1,0.5-0.1c0.4,0,0.7,0.1,0.8,0.3c0.1,0.2,0.2,0.1,0.5,0.5
			L152.6,377.4z"/>
		<path class="st0" d="M157.1,384.3c-0.4,0.9-0.9,2.4-0.9,2.5c0,0.1,0.1,0.1,0.2,0.1c0.1,0,0.6-0.1,1-0.2c1.8-0.4,4.1-1.2,5.4-2
			c0.2-0.1,0.4-0.2,0.4-0.2c0.7,0,2,0.6,2,1.1c0,0.5-0.4,1.2-1.3,1.5c-1.1,0.4-1.1,0.6-1.8,0.9c-2,0.8-5.4,1.5-6.3,1.8
			c-0.4,0.1-0.6,0.3-0.8,0.6c-0.3,0.6-0.5,1.3-0.7,1.9c-0.1,0.4-0.4,0.9-0.4,1.3c-0.2,1.3-1.6,4.8-1.9,6.8c0,0.4-0.4,1.4-1,1.7
			c-0.2,0.1-0.4,0.1-0.6,0.1c-0.5,0-1.1-0.2-1.5-0.4c-0.3-0.2-0.4-0.6-0.4-1c0-0.3,0-0.9,0.2-1.2c1-3,1.7-6.5,3-9.6
			c0-0.1,0.1-0.2,0.1-0.3c0-0.1,0-0.2-0.2-0.2c-1.5-0.7-1.7-1.8-2.6-2.6c-0.2-0.2-0.2-0.4-0.2-0.5c0-0.3,0.2-0.4,0.5-0.5
			c0.2-0.1,0.4-0.2,0.8-0.2c0.9,0,1.9,0.6,2.6,0.6c0.4,0,0.6-0.2,0.7-0.6c0.1-0.4,0.3-1.1,0.6-1.9c1-2.5,2.1-5.6,3.4-8.6
			c0.2-0.5,0.3-0.5,0.4-0.5c0.6,0,0.7-0.2,1.1-0.2c0.4,0,1.1,0.1,1.5,0.3c0.2,0.1,0.4,0.2,0.4,0.3c0,0.1,0,0.2,0,0.4
			C160.4,378.8,158.4,381.5,157.1,384.3z"/>
		<path class="st0" d="M165.7,402c-0.5,0-0.9,0-1.5-0.3c-0.9-0.3-2.3-1-2.6-1.1c-0.8-0.4-1.6-1.5-2-2.8c-0.3-0.8-0.5-2.3-0.5-3.1
			c0-0.4,0-0.8,0.2-1.3c1.1-4.1,3.9-7.7,7-11c0.7-0.7,2.4-1.8,4.3-1.8c1.1,0,1.7,0.2,2.5,0.4c0.4,0.2,1.3,0.9,1.3,2.5
			c0,1.1-0.4,1.9-0.9,2.9c-0.4,0.8-0.7,1.3-1.3,1.9c-2.8,3.2-6,6.7-9.4,8.6c-0.2,0.1-0.2,0.2-0.2,0.3c0,0.6,0.6,1.5,1,1.7
			c0.4,0.2,0.9,0.3,1.3,0.3c0.7,0,1.3-0.2,3.1-1.1c2.8-1.5,4.5-3.7,6.9-5.2c0.4-0.3,0.6-0.3,0.8-0.3c0.2,0,0.8,0.4,0.8,0.8
			c0,0.4,0,0.4,0,0.5c0,0.2,0,0.4-0.2,0.6c-1.9,1.7-2.8,3.7-9,7.1C166.4,402,166.2,402,165.7,402z M170.9,383.5c0-0.3,0-0.5-0.2-0.5
			c-0.2,0-0.5,0.1-0.9,0.4c-0.4,0.3-0.4,0.2-0.8,0.5c-2.6,2.3-5.5,5.7-6.4,9.3c0,0.2,0,0.2,0.1,0.2c0.1,0,0.2,0,0.3-0.1
			c2.4-1.8,4.4-4.1,6.2-6.2c0.6-0.7,0.4-0.9,1-1.7C170.6,384.7,170.9,384.2,170.9,383.5z"/>
		<path class="st0" d="M210.2,373.4c-0.4,0.5-0.5,1.1-0.9,1.7c-2.4,3.8-5.4,7.9-6.8,11.5l-0.6,1.8c-2.4,6.8-3.1,9.8-3.1,11.2
			c0,1.5,0.3,1.9,0.3,2.3c0,0.1,0,0.2-0.2,0.3c-0.6,0.6-0.4,0.9-1.5,0.9c-0.4,0-1.4-0.5-1.5-0.8c-0.2-0.9-0.2-1.8-0.2-2.6
			c0-2.1,0.4-3.8,1.1-6c0.3-1.1,1.3-2.8,1.3-2.9c0,0,0-0.1-0.1-0.1c-0.1,0-0.2,0.1-0.4,0.4c-3.2,3.8-6.4,7.7-10.4,10.1
			c-0.4,0.2-0.9,0.3-1.2,0.3c-0.8,0-2.7-1-2.9-1.3c-0.4-0.8-0.7-1.5-0.7-2.3c0-1.1,0.4-2.5,1.4-4.3c1.9-3.7,5.1-6.8,8.5-9.1
			c0.6-0.4,1.9-0.8,2.9-0.8c0.4,0,0.9,0.1,1.1,0.2c0.5,0.2,1.4,0.4,1.9,0.8c0.2,0,0.3,0,0.3,0c4.2-4.6,6-9.7,9.4-14.3
			c0.2-0.3,0.4-0.5,0.9-0.5c0.5,0,2,0.6,2,1.3C211,372.1,210.7,372.6,210.2,373.4z M196.1,386.1c-0.4,0-0.7,0-1,0.2
			c-3.9,2-7.8,6.3-9.4,10.7c0,0.1-0.1,0.4-0.1,0.5c0,0.4,0.1,0.9,0.3,0.9c0.2,0,0.2,0,0.4-0.2c0.2-0.2,0.5-0.2,0.9-0.5
			c3.5-2.7,6.5-6.4,9.1-9.9c0.5-0.6,0.9-0.8,0.9-1.5C197,386.2,196.7,386.1,196.1,386.1z"/>
		<path class="st0" d="M210.6,402c-0.5,0-0.9,0-1.5-0.3c-0.9-0.3-2.3-1-2.6-1.1c-0.8-0.4-1.6-1.5-2-2.8c-0.3-0.8-0.5-2.3-0.5-3.1
			c0-0.4,0-0.8,0.2-1.3c1.1-4.1,3.9-7.7,7-11c0.7-0.7,2.4-1.8,4.3-1.8c1.1,0,1.7,0.2,2.5,0.4c0.4,0.2,1.3,0.9,1.3,2.5
			c0,1.1-0.4,1.9-0.9,2.9c-0.4,0.8-0.7,1.3-1.3,1.9c-2.8,3.2-6,6.7-9.4,8.6c-0.2,0.1-0.2,0.2-0.2,0.3c0,0.6,0.6,1.5,1,1.7
			c0.4,0.2,0.9,0.3,1.3,0.3c0.7,0,1.3-0.2,3.1-1.1c2.8-1.5,4.5-3.7,6.9-5.2c0.4-0.3,0.6-0.3,0.8-0.3c0.2,0,0.8,0.4,0.8,0.8
			c0,0.4,0,0.4,0,0.5c0,0.2,0,0.4-0.2,0.6c-1.9,1.7-2.8,3.7-9,7.1C211.3,402,211.1,402,210.6,402z M215.8,383.5c0-0.3,0-0.5-0.2-0.5
			c-0.2,0-0.5,0.1-0.9,0.4c-0.4,0.3-0.4,0.2-0.8,0.5c-2.6,2.3-5.5,5.7-6.4,9.3c0,0.2,0,0.2,0.1,0.2c0.1,0,0.2,0,0.3-0.1
			c2.4-1.8,4.4-4.1,6.2-6.2c0.6-0.7,0.4-0.9,1-1.7C215.5,384.7,215.8,384.2,215.8,383.5z"/>
		<path class="st0" d="M242.6,393.7c0.6,0,1.3,0.9,1.3,1.1c0,0.2-0.2,0.2-0.2,0.4c0,0.2,0,0.4-0.3,0.5c-1.3,0.5-2.7,1.7-4.5,3.1
			c-2.3,1.8-4.3,3-6,3c-2.2,0-3.9-1.6-4.1-2c-0.3-0.6-0.5-1.3-0.5-1.9c0-1,0.4-2,0.6-3c0.1-0.3,0.2-1,0.5-1.6
			c2.1-4.2,5-9.2,8.4-10.9c0.2-0.1,0.3-0.1,0.6-0.1c1.4,0,3.2,0.6,4.2,1.7c0.2,0.2,0.2,0.2,0.2,0.6c0,0.4,0.1,0.5,0.1,0.6
			c0,0.1,0,0.1,0,0.3c-0.1,0.5-1.4,2.4-1.4,3.8c0,0.3-0.2,0.6-0.8,0.6c-0.3,0-0.6-0.1-0.8-0.3l-1.1-0.8c-0.3-0.2-0.4-0.6-0.4-0.9
			c0-0.8,0.9-1.8,0.9-2.4c0-0.2-0.1-0.4-0.3-0.4c-0.2,0-0.3,0.1-0.6,0.4c-1.7,1.7-3.6,4.1-4.9,6.5c-1.4,2.5-2.4,5.2-2.4,6.2
			c0,0.5,0.3,0.9,0.7,0.9c1.9,0,3.8-1.1,5.8-2.6C239.4,395.1,241.4,393.7,242.6,393.7z"/>
		<path class="st0" d="M255.2,402.8c-0.2,0-0.5,0-1.2-0.3c-1.5-0.6-2.2-1.9-2.2-3.8c0-1.3,0.2-2.8,0.8-4.5c0.5-1.8,1-3,1.5-4.2
			c0.1-0.3,0.2-0.4,0.2-0.5c0,0,0-0.1-0.1-0.1c-0.1,0-0.2,0.1-0.5,0.4c-2.8,3.2-5.6,7.9-7.9,10.7c-0.2,0.2-0.2,0.3-0.4,0.4
			c-0.4,0.2-1,0.5-1.5,0.5c-0.2,0-1.5-0.5-2.1-1.1c-0.1-0.1-0.2-0.3-0.2-0.4c0-0.4,0.2-0.4,0.4-1.1c1.3-5.4,4.2-11.2,7.7-18.1
			c1.7-3.4,4-7.1,6-11.1c0.2-0.5,0.6-0.6,1.1-0.6c0.4,0,0.6,0.1,0.9,0.1c0.4,0,0.8,0.3,1.1,0.6c0.3,0.3,0.4,0.5,0.4,1
			c0,1.1-0.9,1.7-1.9,3c-0.4,0.4-0.4,0.6-0.8,1.1c-3.6,5-6.8,13.3-9.9,19.7c-0.3,0.7-0.4,0.8-0.4,0.8c0,0,0,0.1,0.1,0.1
			c0,0,0.1,0,0.3-0.3c3.3-4.6,6.2-8.1,9.2-11.3c0.6-0.6,0.8-0.8,1.1-0.9c0.4-0.1,0.7-0.2,0.9-0.2c0.4,0,1.2,0.2,1.5,0.3
			c0.3,0.1,0.6,0.5,0.6,0.8c0,1.2-0.5,2-1.2,3.2c-0.6,1-0.7,1.7-1.1,2.5c-1.1,2.6-2.1,5.9-2.1,8.7c0,1.9,0.4,2.3,1,2.7
			c0.2,0.1,0.7,0.2,1,0.2c0.2,0,0.3,0.2,0.3,0.3c0,0.2-0.1,0.3-0.2,0.5c-0.1,0.3-0.5,0.5-0.8,0.6
			C256.1,402.6,255.7,402.8,255.2,402.8z"/>
		<path class="st0" d="M267.2,400.1c-0.9,0.8-2.3,1.9-4.2,1.9c-1.2,0-2.6-1.7-3-3.2c-0.2-0.6-0.2-1.1-0.2-1.7c0-1,0.2-1.9,0.6-3.3
			c0.3-0.8,0.4-1.5,0.7-2c1.3-3,2.4-5.9,3.9-9c0.4-0.9,1.3-1.1,2-1.1c0.4,0,0.9,0.1,1.2,0.3c0.2,0.2,0.3,0.3,0.3,0.6
			c0,2.1-1.7,3.2-2.6,5.1c-0.7,1.5-1.8,4.3-2.4,5.8c-0.7,1.8-1,3.4-1,4c0,0.4,0,1.3,0.7,1.3c0.9,0,1.3-0.2,3-1.4
			c1-0.7,1.3-0.9,1.9-0.9c0.3,0,0.8,0.1,1,0.3c0.2,0.2,0.2,0.4,0.2,0.6c0,0.4-0.2,0.7-0.6,1.1L267.2,400.1z M272.8,374.8
			c0,0.2,0,0.5-0.2,0.7c-0.7,0.9-1.7,2-2.6,2c-0.8,0-1.4-0.4-1.6-0.8c-0.2-0.4-0.3-0.9-0.3-1.4c0-0.6,0.2-1.3,0.5-1.7
			c0.4-0.5,1.1-0.7,2-0.7c0.6,0,1.4,0.2,1.7,0.5C272.7,373.9,272.8,374.4,272.8,374.8z"/>
		<path class="st0" d="M275.3,402c-0.5,0-0.9,0-1.5-0.3c-0.9-0.3-2.3-1-2.6-1.1c-0.8-0.4-1.6-1.5-2-2.8c-0.3-0.8-0.5-2.3-0.5-3.1
			c0-0.4,0-0.8,0.2-1.3c1.1-4.1,3.9-7.7,7-11c0.7-0.7,2.3-1.8,4.3-1.8c1.1,0,1.7,0.2,2.5,0.4c0.4,0.2,1.3,0.9,1.3,2.5
			c0,1.1-0.4,1.9-0.9,2.9c-0.4,0.8-0.7,1.3-1.3,1.9c-2.8,3.2-6,6.7-9.4,8.6c-0.2,0.1-0.2,0.2-0.2,0.3c0,0.6,0.6,1.5,1,1.7
			c0.4,0.2,0.9,0.3,1.3,0.3c0.7,0,1.3-0.2,3.1-1.1c2.8-1.5,4.5-3.7,6.9-5.2c0.4-0.3,0.6-0.3,0.8-0.3c0.2,0,0.8,0.4,0.8,0.8
			c0,0.4,0,0.4,0,0.5c0,0.2,0,0.4-0.2,0.6c-1.9,1.7-2.8,3.7-9,7.1C276,402,275.8,402,275.3,402z M280.5,383.5c0-0.3,0-0.5-0.2-0.5
			c-0.2,0-0.5,0.1-0.9,0.4c-0.4,0.3-0.4,0.2-0.8,0.5c-2.6,2.3-5.5,5.7-6.4,9.3c0,0.2,0,0.2,0.1,0.2c0.1,0,0.2,0,0.3-0.1
			c2.4-1.8,4.4-4.1,6.2-6.2c0.6-0.7,0.4-0.9,1-1.7C280.2,384.7,280.5,384.2,280.5,383.5z"/>
		<path class="st0" d="M288.9,383.2c0.3-0.5,0.3-0.6,0.6-0.9c0.3-0.3,0.8-0.4,1.4-0.4c0.9,0,1.5,0.2,1.6,0.6
			c0.1,0.2,0.2,0.5,0.2,0.7c0,0.4-0.2,1.2-0.9,1.9c-0.4,0.5-1.6,1.8-2.6,3.6c-0.6,1.1-1.5,3-2.9,6.3c-0.3,0.7-0.8,2.7-0.8,2.8
			c0,0.2,0,0.4,0.1,0.4c0.2,0,0.4-0.1,0.7-0.5c5.5-7.8,8.5-9.4,9.4-11.3c0.7-1.5,0.9-1.7,1.4-1.7c0.6,0,0.8,0.4,1.5,0.4
			c0.4,0,0.8,0.6,0.8,1.1c0,0.2-0.2,0.7-0.4,1.1c-1.5,2.4-2.2,3.9-2.8,6c-0.2,0.8-0.5,2.8-0.5,3.6c0,0.7,0.2,1.3,0.3,1.7
			c0.1,0.7,1.1,1.3,1.4,1.5c0.3,0.2,0.6,0.5,0.6,0.9c0,0.3-0.3,1-1.1,1c-0.3,0-1.6-0.1-2.1-0.6c-0.6-0.5-1.1-0.7-1.6-1.4
			c-0.5-0.6-0.7-1.5-0.7-2.5c0-2.4,0.4-3.1,0.4-3.2c0-0.1,0-0.2-0.1-0.2c-0.1,0-0.1,0-0.2,0.2c-1.7,2.2-2.8,3.6-3.7,4.9
			c-0.9,1.2-1.2,1.2-1.7,1.8c-0.3,0.4-1.1,0.4-1.5,0.4c-0.5,0-2.4-1.2-2.9-1.9c-0.2-0.2-0.3-0.7-0.3-1.2c0-1.3,0.4-1.5,0.5-2.4
			c0.2-1.2,1.3-3.9,2-5.5C286.2,387.9,287.1,385.9,288.9,383.2z"/>
	</g>
</g>
<rect x="-1.4" y="495.1" class="st1" width="324.6" height="249.1"/>
</svg>
