<?xml version="1.0" encoding="utf-8"?>
<!-- Generator: Adobe Illustrator 19.1.1, SVG Export Plug-In . SVG Version: 6.00 Build 0)  -->
<svg version="1.1" id="Calque_1" xmlns="http://www.w3.org/2000/svg" xmlns:xlink="http://www.w3.org/1999/xlink" x="0px" y="0px"
	 viewBox="0 0 326.4 536.3" style="enable-background:new 0 0 326.4 536.3;" xml:space="preserve">
<style type="text/css">
	.st0{fill:none;stroke:#472F7F;stroke-width:80;stroke-linecap:round;stroke-linejoin:round;stroke-miterlimit:10;}
	.st1{fill-rule:evenodd;clip-rule:evenodd;fill:#B7B7B7;}
	.st2{fill:#006E8A;}
	.st3{fill:#472F7F;}
	.st4{fill:#FFFFFF;}
	.st5{clip-path:url(#SVGID_2_);}
	.st6{fill:#B7B7B7;}
	.st7{fill:#E0E0E0;}
	.st8{fill:#F2F3F7;}
	.st9{fill:#00E9A5;}
	.st10{opacity:0.6;fill:#FFFFFF;}
</style>
<path class="st0" d="M202.9,580.2"/>
<path class="st0" d="M202.9-199.7"/>
<g>
	<path class="st1" d="M83,171.1L83,171.1c0,10.8,0,10.8,0,10.8c0,2.8-2.2,5-5,5c-16,0-16,0-16,0c-2.7,0-5-2.2-5-5
		c0-10.8,0-10.8,0-10.8c0-5.3,0-5.3,0-5.3c0-2.8,2.2-4.9,5-4.9c16,0,16,0,16,0c2.7,0,5,2.2,5,4.9V171.1z M70.1,148L70.1,148
		c-14.4,0-25.9,11.6-25.9,25.9c0,14.3,11.6,25.9,25.9,25.9c14.3,0,25.9-11.6,25.9-25.9C96,159.5,84.4,148,70.1,148z"/>
	<polyline class="st1" points="79.4,167.8 79.4,165.1 79.4,164.5 78.9,164.5 75.1,164.7 75.1,167.8 79.4,167.8 	"/>
	<path class="st1" d="M70.1,178.2L70.1,178.2c2.4,0,4.5-1.8,4.5-4.2c0-1.1-0.3-1.8-0.8-2.6c-0.8-1.1-2.1-1.8-3.7-1.8
		c-1.3,0-2.7,0.8-3.5,1.8c-0.5,0.8-0.8,1.6-0.8,2.6C65.8,176.4,67.6,178.2,70.1,178.2"/>
	<path class="st1" d="M77.2,173.9L77.2,173.9c0,3.9-3.3,6.9-7.1,6.9c-3.8,0-7.1-3-7.1-6.9c0-1.1,0.3-1.9,0.5-2.7c-3.8,0-3.8,0-3.8,0
		c0,10.7,0,10.7,0,10.7c0,1.4,1.1,2.5,2.5,2.5c15.8,0,15.8,0,15.8,0c1.4,0,2.5-1.1,2.5-2.5c0-10.7,0-10.7,0-10.7c-3.8,0-3.8,0-3.8,0
		C77,171.9,77.2,172.8,77.2,173.9"/>
</g>
<g>
	<path class="st1" d="M80.7,105.5L80.7,105.5c0,0.3,0,0.6,0,0.8c0,7-5.6,15.3-15.4,15.3c-3.1,0-6.2-1.1-8.4-2.5c0.3,0,0.8,0,1.1,0
		c2.8,0,5.1-0.8,6.8-2.2c-2.3,0-4.2-1.7-5.1-3.9c0.5,0.2,0.8,0.2,1.1,0.2c0.6,0,1.1,0,1.4-0.2c-2.5-0.6-4.2-2.5-4.2-5.3
		c0.6,0.3,1.4,0.5,2.3,0.5c-1.4-0.8-2.3-2.5-2.3-4.4c0-0.8,0.3-2,0.6-2.8c2.8,3.3,6.7,5.6,11.2,5.9c0-0.6,0-0.8,0-1.4
		c0-2.8,2.3-5.3,5.4-5.3c1.7,0,3.1,0.5,3.9,1.7c1.4-0.3,2.5-0.6,3.6-1.4c-0.5,1.4-1.4,2.5-2.5,3.1c1.1,0,2.3-0.2,3.1-0.8
		C82.7,103.9,81.6,104.7,80.7,105.5z M70.1,83.2L70.1,83.2c-14.6,0-26.4,12-26.4,26.5c0,14.5,11.8,26.2,26.4,26.2
		s26.4-11.7,26.4-26.2C96.4,95.2,84.7,83.2,70.1,83.2z"/>
</g>
<g>
	<path class="st1" d="M75.8,233.7L75.8,233.7c-0.2,3.9-0.2,3.9-0.2,3.9c-3.9,0-3.9,0-3.9,0c0,13.8,0,13.8,0,13.8c-5,0-5,0-5,0
		c0-13.8,0-13.8,0-13.8c-2.8,0-2.8,0-2.8,0c0-3.9,0-3.9,0-3.9c2.8,0,2.8,0,2.8,0c0-2.5,0-2.5,0-2.5c0-1.4,0-3.1,0.8-4.2
		c0.8-1.1,2-2,4.2-2c3.3,0,4.7,0.5,4.7,0.5c-0.6,3.9-0.6,3.9-0.6,3.9s-1.1-0.3-2.2-0.3c-1.1,0-2,0.3-2,1.4c0,3.1,0,3.1,0,3.1H75.8z
		 M70.2,211.8L70.2,211.8c-14.5,0-26.5,11.8-26.5,26.4s12,26.4,26.5,26.4s26.2-11.8,26.2-26.4S84.7,211.8,70.2,211.8z"/>
</g>
<g>
	<path class="st2" d="M325,291.5H29.3c-4.8,0-8.6,3.9-8.6,8.6V527c0,4.8,3.9,8.6,8.6,8.6H325V291.5z"/>
	<rect x="33.7" y="305.5" class="st3" width="291.3" height="216"/>
	<g>
		<g>
			<path class="st4" d="M48.8,334.1v-17.2H51V332h3.4v2H48.8z"/>
			<path class="st4" d="M55.8,334.1v-17.2h5.7v2.1H58v5.2h3v2.1h-3v5.8h3.4v2H55.8z"/>
			<path class="st4" d="M66.1,334.3c-2.2,0-3.7-1.3-3.7-3.7v-2h2.2v1.8c0,1.2,0.7,1.8,1.5,1.8c1.1,0,1.6-0.7,1.6-2
				c0-1.1-0.2-1.8-1.1-2.7l-2.6-2.8c-1.2-1.3-1.6-2.4-1.6-4.1c0-2.3,1.1-4,3.7-4c2.3,0,3.6,1.3,3.6,3.7v2h-2.2v-1.8
				c0-1.2-0.6-1.8-1.4-1.8c-1,0-1.4,0.8-1.4,2c0,1.1,0.2,1.8,1.1,2.7l2.6,2.8c1.2,1.3,1.6,2.4,1.6,4.1
				C69.9,332.5,68.6,334.3,66.1,334.3z"/>
			<path class="st4" d="M81.1,334.1c-0.2-0.5-0.3-0.9-0.3-1.7v-4.1c0-1.1-0.4-1.8-1.4-1.8h-1.3v7.6h-2.3v-17.2h3.5
				c2.6,0,3.7,1.5,3.7,3.8v2.3c0,1.2-0.6,2.1-1.4,2.5c1,0.4,1.4,1.4,1.4,2.7v4c0,0.7,0.1,1.4,0.3,2H81.1z M80.8,320.7
				c0-1.1-0.4-1.8-1.4-1.8h-1.3v5.7h1.3c1,0,1.4-0.7,1.4-1.8V320.7z"/>
			<path class="st4" d="M85.2,334.1v-17.2h5.7v2.1h-3.4v5.2h3v2.1h-3v5.7h3.4v2.1H85.2z M88.8,315.4H87l2.3-3.5H92L88.8,315.4z"/>
			<path class="st4" d="M95.5,334.3c-2.2,0-3.7-1.3-3.7-3.7v-2h2.2v1.8c0,1.2,0.7,1.8,1.5,1.8c1.1,0,1.6-0.7,1.6-2
				c0-1.1-0.2-1.8-1.1-2.7l-2.6-2.8c-1.2-1.3-1.6-2.4-1.6-4.1c0-2.3,1.1-4,3.7-4c2.3,0,3.6,1.3,3.6,3.7v2H97v-1.8
				c0-1.2-0.6-1.8-1.4-1.8c-1,0-1.4,0.8-1.4,2c0,1.1,0.2,1.8,1.1,2.7l2.6,2.8c1.2,1.3,1.6,2.4,1.6,4.1
				C99.4,332.5,98.1,334.3,95.5,334.3z"/>
			<path class="st4" d="M101.1,334.1v-17.2h5.7v2.1h-3.4v5.2h3v2.1h-3v5.8h3.4v2H101.1z"/>
			<path class="st4" d="M113.2,334.1l-0.6-4.4h-2.5l-0.6,4.4h-2.3l2.6-17.2h3l2.6,17.2H113.2z M111.7,322.6
				c-0.2-1.2-0.3-3.4-0.3-3.4h-0.1c0,0-0.2,2.1-0.3,3.4l-0.6,5.2h2L111.7,322.6z"/>
			<path class="st4" d="M120.2,334.3c-2.3,0-3.6-1.3-3.6-3.7v-13.7h2.3v13.6c0,1.2,0.5,1.8,1.4,1.8s1.4-0.6,1.4-1.8v-13.6h2.3v13.7
				C123.8,332.9,122.4,334.3,120.2,334.3z"/>
			<path class="st4" d="M130.5,334.1l-1.1-4.3c-0.3-1.2-0.4-2.2-0.4-2.2h-0.1c0,0-0.1,1-0.4,2.2l-1.2,4.3h-2.3l2.7-8.6l-2.6-8.6h2.4
				l1.2,4.3c0.3,1.2,0.4,2.2,0.4,2.2h0.1c0,0,0.1-1,0.4-2.2l1.2-4.3h2.3l-2.7,8.5l2.7,8.7H130.5z"/>
			<path class="st4" d="M141.4,334.3c-2.2,0-3.7-1.3-3.7-3.7v-2h2.2v1.8c0,1.2,0.7,1.8,1.5,1.8c1.1,0,1.6-0.7,1.6-2
				c0-1.1-0.2-1.8-1.1-2.7l-2.6-2.8c-1.2-1.3-1.6-2.4-1.6-4.1c0-2.3,1.1-4,3.7-4c2.3,0,3.6,1.3,3.6,3.7v2h-2.2v-1.8
				c0-1.2-0.6-1.8-1.4-1.8c-1,0-1.4,0.8-1.4,2c0,1.1,0.2,1.8,1.1,2.7l2.6,2.8c1.2,1.3,1.6,2.4,1.6,4.1
				C145.3,332.5,144,334.3,141.4,334.3z"/>
			<path class="st4" d="M150.5,334.3c-2.3,0-3.7-1.3-3.7-3.7v-10.3c0-2.4,1.4-3.7,3.7-3.7s3.7,1.3,3.7,3.7v10.3
				C154.2,332.9,152.7,334.3,150.5,334.3z M151.9,320.4c0-1.2-0.6-1.8-1.4-1.8s-1.4,0.6-1.4,1.8v10c0,1.2,0.6,1.8,1.4,1.8
				s1.4-0.6,1.4-1.8V320.4z"/>
			<path class="st4" d="M159.6,334.3c-2.3,0-3.6-1.3-3.6-3.7v-10.3c0-2.4,1.3-3.7,3.6-3.7c2.3,0,3.6,1.3,3.6,3.7v2h-2.3v-1.8
				c0-1.2-0.4-1.8-1.3-1.8s-1.3,0.6-1.3,1.8v10c0,1.2,0.5,1.8,1.3,1.8s1.3-0.6,1.3-1.8v-1.8h2.3v2
				C163.2,332.9,161.9,334.3,159.6,334.3z"/>
			<path class="st4" d="M165,334.1v-17.2h2.3v17.2H165z"/>
			<path class="st4" d="M174.4,334.1l-0.6-4.4h-2.5l-0.6,4.4h-2.3l2.6-17.2h3l2.6,17.2H174.4z M173,322.6c-0.2-1.2-0.3-3.4-0.3-3.4
				h-0.1c0,0-0.2,2.1-0.3,3.4l-0.6,5.2h2L173,322.6z"/>
			<path class="st4" d="M181.4,334.3c-2.3,0-3.6-1.3-3.6-3.7v-13.7h2.3v13.6c0,1.2,0.5,1.8,1.4,1.8s1.4-0.6,1.4-1.8v-13.6h2.3v13.7
				C185.1,332.9,183.7,334.3,181.4,334.3z"/>
			<path class="st4" d="M191.8,334.1l-1.1-4.3c-0.3-1.2-0.4-2.2-0.4-2.2h-0.1c0,0-0.1,1-0.4,2.2l-1.2,4.3h-2.3l2.7-8.6l-2.6-8.6h2.4
				l1.2,4.3c0.3,1.2,0.4,2.2,0.4,2.2h0.1c0,0,0.1-1,0.4-2.2l1.2-4.3h2.3l-2.7,8.5l2.7,8.7H191.8z"/>
			<path class="st4" d="M195.3,337.2V336c0.8-0.1,1.2-0.7,1.2-1.6v-0.3h-1.4v-2.7h2.6v3.1C197.8,336.2,196.5,337.1,195.3,337.2z"/>
		</g>
	</g>
	<g>
		<defs>
			<rect id="SVGID_1_" x="38.8" y="326.7" width="375.1" height="195.8"/>
		</defs>
		<clipPath id="SVGID_2_">
			<use xlink:href="#SVGID_1_"  style="overflow:visible;"/>
		</clipPath>
		<g class="st5">
			<path class="st6" d="M325,621.2V343.4H57.6c-6.1,0-11,4.9-11,11v294.7c0,6.1,4.9,11,11,11h333.2c6.1,0,11-4.9,11-11v-27.9H325z"
				/>
			<path class="st7" d="M325,368.2H66.3c-6.1,0-11,3.1-11,7v157.8c0,3.9,4.9,7,11,7H325V368.2z"/>
			<path class="st4" d="M325,383.4H69.1c-3.7,0-6.6,1.9-6.6,4.2v144.3c0,2.3,3,4.2,6.6,4.2H325V383.4z"/>
			<circle class="st4" cx="61.9" cy="357.7" r="4.6"/>
			<circle class="st4" cx="77.2" cy="357.7" r="4.6"/>
			<circle class="st4" cx="92.5" cy="357.7" r="4.6"/>
			<rect x="99" y="372.7" class="st4" width="225.9" height="6.7"/>
			<path class="st7" d="M168.2,358.4H131c-3.7,0-7.1,1.4-8.6,3.5l-4.5,6.3h61.8l-5-7.1C173.6,359.4,171,358.4,168.2,358.4z"/>
			
				<image style="overflow:visible;" width="2042" height="1266" xlink:href="../CYBERHARCELEMENT Vdef_Dossier/CYBERHARCELEMENT Vdef_Dossier/Links/post.png"  transform="matrix(0.1117 0 0 0.1117 96.102 397.579)">
			</image>
			<rect x="322.2" y="391.4" class="st8" width="2.7" height="134.3"/>
			<rect x="70.2" y="391.4" class="st8" width="22.6" height="134.3"/>
			<rect x="102" y="391.4" class="st8" width="211.6" height="8.4"/>
		</g>
	</g>
</g>
<g>
	<path class="st4" d="M295.6,10.4H132.3c-5.9,0-10.7,4.8-10.7,10.7v251.8c0,5.9,4.8,10.7,10.7,10.7h163.4c5.9,0,10.7-4.8,10.7-10.7
		V21.1C306.4,15.2,301.6,10.4,295.6,10.4z M213.9,19.7c2.5,0,4.5,2,4.5,4.5c0,2.5-2,4.5-4.5,4.5c-2.5,0-4.5-2-4.5-4.5
		C209.4,21.7,211.5,19.7,213.9,19.7z M213.9,278.6c-4.4,0-8-3.6-8-8c0-4.4,3.6-8,8-8c4.4,0,8,3.6,8,8
		C222,275,218.4,278.6,213.9,278.6z"/>
	<rect x="134.8" y="37.1" class="st3" width="159.6" height="219.6"/>
	<g>
		<g>
			<path class="st4" d="M146.7,71.6V54.4h2.3v15.2h3.4v2H146.7z"/>
			<path class="st4" d="M153.7,71.6V54.4h5.7v2.1h-3.4v5.2h3v2.1h-3v5.8h3.4v2H153.7z"/>
			<path class="st4" d="M164,71.8c-2.2,0-3.7-1.3-3.7-3.7v-2h2.2V68c0,1.2,0.7,1.8,1.5,1.8c1.1,0,1.6-0.7,1.6-2
				c0-1.1-0.2-1.8-1.1-2.7l-2.6-2.8c-1.2-1.3-1.6-2.4-1.6-4.1c0-2.3,1.1-4,3.7-4c2.3,0,3.6,1.3,3.6,3.7v2h-2.2V58
				c0-1.2-0.6-1.8-1.4-1.8c-1,0-1.4,0.8-1.4,2c0,1.1,0.2,1.8,1.1,2.7l2.6,2.8c1.2,1.3,1.6,2.4,1.6,4.1
				C167.8,70.1,166.5,71.8,164,71.8z"/>
			<path class="st4" d="M182.9,71.6V60.4c0-1.6,0.2-3.7,0.2-3.7H183l-2.4,14.9h-2.3l-2.4-14.9h-0.1c0,0,0.2,2,0.2,3.7v11.2h-2.2
				V54.4h3.5l1.8,10.9c0.2,1.3,0.3,3.4,0.3,3.4h0.1c0,0,0.1-2.1,0.3-3.4l1.8-10.9h3.5v17.2H182.9z"/>
			<path class="st4" d="M187.4,71.6V54.4h5.7v2.1h-3.4v5.2h3v2.1h-3v5.8h3.4v2H187.4z"/>
			<path class="st4" d="M197.7,71.8c-2.2,0-3.7-1.3-3.7-3.7v-2h2.2V68c0,1.2,0.7,1.8,1.5,1.8c1.1,0,1.6-0.7,1.6-2
				c0-1.1-0.2-1.8-1.1-2.7l-2.6-2.8c-1.2-1.3-1.6-2.4-1.6-4.1c0-2.3,1.1-4,3.7-4c2.3,0,3.6,1.3,3.6,3.7v2h-2.2V58
				c0-1.2-0.6-1.8-1.4-1.8c-1,0-1.4,0.8-1.4,2c0,1.1,0.2,1.8,1.1,2.7l2.6,2.8c1.2,1.3,1.6,2.4,1.6,4.1
				C201.5,70.1,200.3,71.8,197.7,71.8z"/>
			<path class="st4" d="M206.4,71.8c-2.2,0-3.7-1.3-3.7-3.7v-2h2.2V68c0,1.2,0.7,1.8,1.5,1.8c1.1,0,1.6-0.7,1.6-2
				c0-1.1-0.2-1.8-1.1-2.7l-2.6-2.8c-1.2-1.3-1.6-2.4-1.6-4.1c0-2.3,1.1-4,3.7-4c2.3,0,3.6,1.3,3.6,3.7v2h-2.2V58
				c0-1.2-0.6-1.8-1.4-1.8c-1,0-1.4,0.8-1.4,2c0,1.1,0.2,1.8,1.1,2.7l2.6,2.8c1.2,1.3,1.6,2.4,1.6,4.1
				C210.2,70.1,208.9,71.8,206.4,71.8z"/>
			<path class="st4" d="M216.7,71.6l-0.6-4.4h-2.5l-0.6,4.4h-2.3l2.6-17.2h3l2.6,17.2H216.7z M215.2,60.1c-0.2-1.2-0.3-3.4-0.3-3.4
				h-0.1c0,0-0.2,2.1-0.3,3.4l-0.6,5.2h2L215.2,60.1z"/>
			<path class="st4" d="M226,71.6l-0.3-1c-0.4,0.7-1.3,1.2-2.4,1.2c-2.2,0-3.4-1.3-3.4-3.7V57.9c0-2.4,1.3-3.7,3.6-3.7
				c2.3,0,3.6,1.3,3.6,3.7v2h-2.3V58c0-1.2-0.5-1.8-1.3-1.8s-1.3,0.6-1.3,1.8v10c0,1.2,0.5,1.7,1.3,1.7s1.3-0.5,1.3-1.7v-3.2h-1.3
				v-2h3.6v8.8H226z"/>
			<path class="st4" d="M229.2,71.6V54.4h5.7v2.1h-3.4v5.2h3v2.1h-3v5.8h3.4v2H229.2z"/>
			<path class="st4" d="M241.6,71.6c-0.2-0.5-0.3-0.9-0.3-1.7v-4.1c0-1.1-0.4-1.8-1.4-1.8h-1.3v7.6h-2.3V54.4h3.5
				c2.6,0,3.7,1.5,3.7,3.8v2.3c0,1.2-0.6,2.1-1.4,2.5c1,0.4,1.4,1.4,1.4,2.7v4c0,0.7,0.1,1.4,0.3,2H241.6z M241.4,58.2
				c0-1.1-0.4-1.8-1.4-1.8h-1.3v5.7h1.3c1,0,1.4-0.7,1.4-1.8V58.2z"/>
			<path class="st4" d="M245.8,71.6V54.4h2.3v17.2H245.8z"/>
			<path class="st4" d="M250.4,71.6V54.4h5.7v2.1h-3.4v5.2h3v2.1h-3v5.8h3.4v2H250.4z"/>
			<path class="st4" d="M260.7,71.8c-2.2,0-3.7-1.3-3.7-3.7v-2h2.2V68c0,1.2,0.7,1.8,1.5,1.8c1.1,0,1.6-0.7,1.6-2
				c0-1.1-0.2-1.8-1.1-2.7l-2.6-2.8c-1.2-1.3-1.6-2.4-1.6-4.1c0-2.3,1.1-4,3.7-4c2.3,0,3.6,1.3,3.6,3.7v2h-2.2V58
				c0-1.2-0.6-1.8-1.4-1.8c-1,0-1.4,0.8-1.4,2c0,1.1,0.2,1.8,1.1,2.7l2.6,2.8c1.2,1.3,1.6,2.4,1.6,4.1
				C264.6,70.1,263.3,71.8,260.7,71.8z"/>
			<path class="st4" d="M266.2,74.7v-1.2c0.8-0.1,1.2-0.7,1.2-1.6v-0.3H266v-2.7h2.6v3.1C268.7,73.7,267.4,74.6,266.2,74.7z"/>
		</g>
	</g>
	<g>
		<g>
			<path class="st4" d="M146.3,234.9v-17.2h2.3v15.2h3.4v2H146.3z"/>
			<path class="st4" d="M153.4,234.9v-17.2h5.7v2.1h-3.4v5.2h3v2.1h-3v5.8h3.4v2H153.4z"/>
			<path class="st4" d="M163.7,235.1c-2.2,0-3.7-1.3-3.7-3.7v-2h2.2v1.8c0,1.2,0.7,1.8,1.5,1.8c1.1,0,1.6-0.7,1.6-2
				c0-1.1-0.2-1.8-1.1-2.7l-2.6-2.8c-1.2-1.3-1.6-2.4-1.6-4.1c0-2.3,1.1-4,3.7-4c2.3,0,3.6,1.3,3.6,3.7v2h-2.2v-1.8
				c0-1.2-0.6-1.8-1.4-1.8c-1,0-1.4,0.8-1.4,2c0,1.1,0.2,1.8,1.1,2.7l2.6,2.8c1.2,1.3,1.6,2.4,1.6,4.1
				C167.5,233.4,166.2,235.1,163.7,235.1z"/>
			<path class="st4" d="M175.8,219.7v5.5h3v2.1h-3v7.5h-2.3v-17.2h5.7v2.1H175.8z"/>
			<path class="st4" d="M183.9,235.1c-2.3,0-3.7-1.3-3.7-3.7v-10.3c0-2.4,1.4-3.7,3.7-3.7s3.7,1.3,3.7,3.7v10.3
				C187.6,233.7,186.2,235.1,183.9,235.1z M185.3,221.3c0-1.2-0.6-1.8-1.4-1.8s-1.4,0.6-1.4,1.8v10c0,1.2,0.6,1.8,1.4,1.8
				s1.4-0.6,1.4-1.8V221.3z"/>
			<path class="st4" d="M194.9,234.9c-0.2-0.5-0.3-0.9-0.3-1.7v-4.1c0-1.1-0.4-1.8-1.4-1.8H192v7.6h-2.3v-17.2h3.5
				c2.6,0,3.7,1.5,3.7,3.8v2.3c0,1.2-0.6,2.1-1.4,2.5c1,0.4,1.4,1.4,1.4,2.7v4c0,0.7,0.1,1.4,0.3,2H194.9z M194.7,221.5
				c0-1.1-0.4-1.8-1.4-1.8H192v5.7h1.3c1,0,1.4-0.7,1.4-1.8V221.5z"/>
			<path class="st4" d="M202.5,235.1c-2.3,0-3.6-1.3-3.6-3.7v-13.7h2.3v13.6c0,1.2,0.5,1.8,1.4,1.8s1.4-0.6,1.4-1.8v-13.6h2.3v13.7
				C206.2,233.7,204.8,235.1,202.5,235.1z"/>
			<path class="st4" d="M217.4,234.9v-11.2c0-1.6,0.2-3.7,0.2-3.7h-0.1l-2.4,14.9h-2.3l-2.4-14.9h-0.1c0,0,0.2,2,0.2,3.7v11.2h-2.2
				v-17.2h3.5l1.8,10.9c0.2,1.3,0.3,3.4,0.3,3.4h0.1c0,0,0.1-2.1,0.3-3.4l1.8-10.9h3.5v17.2H217.4z"/>
			<path class="st4" d="M225,235.1c-2.2,0-3.7-1.3-3.7-3.7v-2h2.2v1.8c0,1.2,0.7,1.8,1.5,1.8c1.1,0,1.6-0.7,1.6-2
				c0-1.1-0.2-1.8-1.1-2.7l-2.6-2.8c-1.2-1.3-1.6-2.4-1.6-4.1c0-2.3,1.1-4,3.7-4c2.3,0,3.6,1.3,3.6,3.7v2h-2.2v-1.8
				c0-1.2-0.6-1.8-1.4-1.8c-1,0-1.4,0.8-1.4,2c0,1.1,0.2,1.8,1.1,2.7l2.6,2.8c1.2,1.3,1.6,2.4,1.6,4.1
				C228.9,233.4,227.6,235.1,225,235.1z"/>
			<path class="st4" d="M230.4,234.9v-2.7h2.6v2.7H230.4z"/>
			<path class="st4" d="M234.8,234.9v-2.7h2.6v2.7H234.8z"/>
			<path class="st4" d="M239.2,234.9v-2.7h2.6v2.7H239.2z"/>
		</g>
	</g>
	<g>
		<path id="XMLID_22_" class="st9" d="M280.2,166.9H150.9c-4.8,0-8.7,3.9-8.7,8.7v11.9c0,4.8,3.9,8.7,8.7,8.7H267l7.6,6.7v-6.7h5.6
			c4.8,0,8.7-3.9,8.7-8.7v-11.9C288.9,170.8,285,166.9,280.2,166.9z"/>
		<rect id="XMLID_21_" x="151.5" y="173.9" class="st10" width="92.2" height="6.1"/>
		<rect id="XMLID_20_" x="151.5" y="183.6" class="st10" width="55.7" height="6.1"/>
		<g id="XMLID_18_">
			<defs>
				<path id="XMLID_19_" d="M285.1,187.7c0,2.3-1.9,4.2-4.2,4.2h-13.1c-2.3,0-4.2-1.9-4.2-4.2v-13c0-2.3,1.9-4.2,4.2-4.2h13.1
					c2.3,0,4.2,1.9,4.2,4.2V187.7z"/>
			</defs>
			<use xlink:href="#XMLID_19_"  style="overflow:visible;fill:#FFFFFF;"/>
			<clipPath id="XMLID_2_">
				<use xlink:href="#XMLID_19_"  style="overflow:visible;"/>
			</clipPath>
		</g>
		<path id="XMLID_17_" class="st9" d="M280.2,87.9H150.9c-4.8,0-8.7,3.9-8.7,8.7v11.9c0,4.8,3.9,8.7,8.7,8.7H267l7.6,6.7v-6.7h5.6
			c4.8,0,8.7-3.9,8.7-8.7V96.6C288.9,91.8,285,87.9,280.2,87.9z"/>
		<rect id="XMLID_16_" x="151.5" y="94.9" class="st10" width="92.2" height="6.1"/>
		<rect id="XMLID_15_" x="151.5" y="104.7" class="st10" width="55.7" height="6.1"/>
		<g id="XMLID_13_">
			<defs>
				<path id="XMLID_14_" d="M285.1,108.8c0,2.3-1.9,4.2-4.2,4.2h-13.1c-2.3,0-4.2-1.9-4.2-4.2v-13c0-2.3,1.9-4.2,4.2-4.2h13.1
					c2.3,0,4.2,1.9,4.2,4.2V108.8z"/>
			</defs>
			<use xlink:href="#XMLID_14_"  style="overflow:visible;fill:#FFFFFF;"/>
			<clipPath id="XMLID_3_">
				<use xlink:href="#XMLID_14_"  style="overflow:visible;"/>
			</clipPath>
		</g>
		<path id="XMLID_12_" class="st2" d="M150.9,127h129.3c4.8,0,8.7,3.9,8.7,8.7v11.9c0,4.8-3.9,8.7-8.7,8.7H164.1l-7.6,6.7l0-6.7
			h-5.6c-4.8,0-8.7-3.9-8.7-8.7v-11.9C142.2,130.9,146.1,127,150.9,127z"/>
		<rect id="XMLID_11_" x="174.2" y="133.4" class="st10" width="107" height="6.1"/>
		<rect id="XMLID_10_" x="174.2" y="143.4" class="st10" width="44.6" height="6.1"/>
		<path id="XMLID_9_" class="st4" d="M163.2,152h-13c-2.2,0-3.9-1.8-3.9-3.9v-13c0-2.2,1.8-3.9,3.9-3.9h13c2.2,0,3.9,1.8,3.9,3.9v13
			C167.1,150.2,165.4,152,163.2,152z"/>
	</g>
</g>
</svg>
