<?xml version="1.0" encoding="utf-8"?>
<!-- Generator: Adobe Illustrator 19.1.1, SVG Export Plug-In . SVG Version: 6.00 Build 0)  -->
<svg version="1.1" id="Calque_1" xmlns="http://www.w3.org/2000/svg" xmlns:xlink="http://www.w3.org/1999/xlink" x="0px" y="0px"
	 viewBox="0 0 462.5 387.3" style="enable-background:new 0 0 462.5 387.3;" xml:space="preserve">
<style type="text/css">
	.st0{opacity:0.88;fill:#DAE3E4;}
	.st1{fill:#462F80;}
	.st2{fill:#D04B34;}
	.st3{fill:#DAE3E4;}
	.st4{fill:#E1E4E3;}
	.st5{fill:#ED7303;}
	.st6{fill:#F2F2F2;}
	.st7{fill:#FFFFFF;}
</style>
<g>
	
		<rect x="207.4" y="298.7" transform="matrix(0.9893 -0.1456 0.1456 0.9893 -44.4704 40.6323)" class="st0" width="95.7" height="50.7"/>
	<path class="st1" d="M418.1,0.1L6,60.7c-3.4,0.5-5.8,3.2-5.4,6.1L33,286.7l424.4-62.5L425,4.3C424.6,1.5,421.5-0.4,418.1,0.1z
		 M437.8,212.1L48.3,269.4L19.4,73.7l389.5-57.3L437.8,212.1z"/>
	
		<rect x="129.7" y="-54" transform="matrix(-0.1456 -0.9893 0.9893 -0.1456 120.5291 389.847)" class="st2" width="197.8" height="393.7"/>
	<path class="st3" d="M457.4,224.2l5.6,38.3c0.4,2.8-2,5.6-5.4,6.1L45.5,329.3c-3.4,0.5-6.5-1.4-6.9-4.3l-5.6-38.3L457.4,224.2z"/>
	<g>
		
			<rect x="105.1" y="42.1" transform="matrix(-0.1456 -0.9893 0.9893 -0.1456 50.485 375.3598)" class="st4" width="164.3" height="247.6"/>
		
			<rect x="53.1" y="84.5" transform="matrix(0.9893 -0.1456 0.1456 0.9893 -11.9511 26.7736)" class="st5" width="247.6" height="21"/>
		<path class="st6" d="M255.7,83.4c0.5,3.7-2,7.1-5.7,7.6c-3.7,0.5-7.1-2-7.6-5.7c-0.5-3.7,2-7.1,5.7-7.6
			C251.8,77.2,255.2,79.7,255.7,83.4z"/>
		<path class="st6" d="M274.8,80.6c0.5,3.7-2,7.1-5.7,7.6c-3.7,0.5-7.1-2-7.6-5.7c-0.5-3.7,2-7.1,5.7-7.6
			C270.8,74.4,274.2,76.9,274.8,80.6z"/>
		<path class="st6" d="M293.8,77.8c0.5,3.7-2,7.1-5.7,7.6c-3.7,0.5-7.1-2-7.6-5.7c-0.5-3.7,2-7.1,5.7-7.6
			C289.9,71.6,293.3,74.1,293.8,77.8z"/>
		<path class="st5" d="M144.9,159.1c2.7,18.3-9.9,35.2-28.2,37.9c-18.3,2.7-35.3-9.9-37.9-28.2c-2.7-18.3,9.9-35.2,28.2-37.9
			C125.2,128.3,142.2,140.9,144.9,159.1z"/>
		
			<rect x="156.4" y="116.6" transform="matrix(0.9893 -0.1456 0.1456 0.9893 -15.9171 33.6998)" class="st5" width="131.5" height="17.9"/>
		
			<rect x="159.9" y="146" transform="matrix(0.9893 -0.1456 0.1456 0.9893 -19.5686 32.534)" class="st2" width="105.1" height="7.9"/>
		
			<rect x="162.4" y="163.7" transform="matrix(0.9893 -0.1456 0.1456 0.9893 -22.2161 31.874)" class="st2" width="88.4" height="7.9"/>
		
			<rect x="164.7" y="178.1" transform="matrix(0.9893 -0.1456 0.1456 0.9893 -24.133 34.4887)" class="st2" width="117.6" height="7.9"/>
		
			<rect x="85.2" y="202.4" transform="matrix(0.9893 -0.1456 0.1456 0.9893 -28.2086 27.4212)" class="st2" width="175.9" height="7.9"/>
		
			<rect x="87.4" y="216.9" transform="matrix(0.9893 -0.1456 0.1456 0.9893 -30.2147 29.0138)" class="st2" width="191.3" height="7.9"/>
		
			<rect x="100" y="244.7" transform="matrix(-0.1456 -0.9893 0.9893 -0.1456 -134.9917 397.4362)" class="st5" width="8.3" height="24.6"/>
		
			<rect x="145.4" y="238" transform="matrix(-0.1456 -0.9893 0.9893 -0.1456 -76.338 434.7142)" class="st2" width="8.3" height="24.6"/>
		
			<rect x="190.8" y="231.4" transform="matrix(-0.1456 -0.9893 0.9893 -0.1456 -17.7326 471.9615)" class="st2" width="8.3" height="24.6"/>
		
			<rect x="236.2" y="224.7" transform="matrix(-0.1456 -0.9893 0.9893 -0.1456 40.9193 509.2383)" class="st2" width="8.3" height="24.6"/>
		
			<rect x="281.6" y="218" transform="matrix(-0.1456 -0.9893 0.9893 -0.1456 99.5285 546.488)" class="st2" width="8.3" height="24.5"/>
	</g>
	<g>
		
			<rect x="189.9" y="39.5" transform="matrix(-0.1456 -0.9893 0.9893 -0.1456 140.254 447.802)" class="st7" width="147.2" height="247.6"/>
		
			<rect x="130.5" y="90.4" transform="matrix(0.9893 -0.1456 0.1456 0.9893 -11.9935 38.1121)" class="st2" width="247.6" height="21"/>
		<path class="st7" d="M333.1,89.4c0.5,3.7-2,7.1-5.7,7.6c-3.7,0.5-7.1-2-7.6-5.7c-0.5-3.7,2-7.1,5.7-7.6
			C329.2,83.1,332.6,85.7,333.1,89.4z"/>
		<path class="st7" d="M352.2,86.6c0.5,3.7-2,7.1-5.7,7.6c-3.7,0.5-7.1-2-7.6-5.7c-0.5-3.7,2-7.1,5.7-7.6
			C348.2,80.3,351.6,82.9,352.2,86.6z"/>
		<path class="st7" d="M371.2,83.7c0.5,3.7-2,7.1-5.7,7.6c-3.7,0.5-7.1-2-7.6-5.7c-0.5-3.7,2-7.1,5.7-7.6
			C367.3,77.5,370.7,80.1,371.2,83.7z"/>
		<path class="st5" d="M222.3,165.1c2.7,18.3-9.9,35.2-28.2,37.9c-18.3,2.7-35.2-9.9-37.9-28.2c-2.7-18.3,9.9-35.2,28.2-37.9
			C202.6,134.2,219.6,146.8,222.3,165.1z"/>
		
			<rect x="233.9" y="122.5" transform="matrix(0.9893 -0.1456 0.1456 0.9893 -15.9602 45.038)" class="st5" width="131.5" height="17.9"/>
		
			<rect x="237.3" y="151.9" transform="matrix(0.9893 -0.1456 0.1456 0.9893 -19.6114 43.8724)" class="st2" width="105.1" height="7.9"/>
		
			<rect x="239.8" y="169.7" transform="matrix(0.9893 -0.1456 0.1456 0.9893 -22.2588 43.2121)" class="st2" width="88.3" height="7.9"/>
		
			<rect x="242.1" y="184.1" transform="matrix(0.9893 -0.1456 0.1456 0.9893 -24.1759 45.8271)" class="st2" width="117.6" height="7.9"/>
		
			<rect x="162.6" y="208.4" transform="matrix(0.9893 -0.1456 0.1456 0.9893 -28.2513 38.7593)" class="st2" width="175.9" height="7.9"/>
		
			<rect x="164.8" y="222.9" transform="matrix(0.9893 -0.1456 0.1456 0.9893 -30.2577 40.3526)" class="st2" width="191.3" height="7.9"/>
	</g>
	<path class="st2" d="M248.7,83c27.9,9.4,45.6,35.2,45.9,63l25,32.1l-38.9,9.9c-17.1,22.3-47.1,32.4-75.2,23
		c-35.4-11.9-54.3-50.2-42.4-85.6C175.1,90.1,213.4,71.1,248.7,83z"/>
	<g>
		<path class="st7" d="M233,199.7c-5.2,0.8-9.5-2.8-10.3-8.2c-0.8-5.5,2.4-10,7.6-10.8c5.5-0.8,9.6,2.6,10.4,8.2
			c0.8,5.4-2.1,10-7.6,10.8L233,199.7z M223.3,169.2l-13-73.3l14.7-2.2l8.7,73.9L223.3,169.2z"/>
	</g>
	
		<rect x="165.3" y="349.3" transform="matrix(0.9893 -0.1456 0.1456 0.9893 -49.9017 41.5307)" class="st3" width="186.8" height="24.6"/>
</g>
</svg>
