<?xml version="1.0" encoding="utf-8"?>
<!-- Generator: Adobe Illustrator 16.0.0, SVG Export Plug-In . SVG Version: 6.00 Build 0)  -->
<!DOCTYPE svg PUBLIC "-//W3C//DTD SVG 1.1//EN" "http://www.w3.org/Graphics/SVG/1.1/DTD/svg11.dtd">
<svg version="1.1" id="Layer_1" xmlns="http://www.w3.org/2000/svg" xmlns:xlink="http://www.w3.org/1999/xlink" x="0px" y="0px"
	 width="61.638px" height="44.402px" viewBox="0 0 61.638 44.402" enable-background="new 0 0 61.638 44.402" xml:space="preserve">
<path fill="#FFFFFF" d="M59.87,20.211c-0.122-1.499-0.317-2.901-0.512-4.269c-0.146-1.023-0.293-2.049-0.385-2.987
	c-0.317-3.177,0.019-6.163,1.237-9.114c0.287-0.73-0.06-1.555-0.774-1.859c-0.396-0.153-0.829-0.134-1.182,0.049
	c-0.573,0.293-1.263,0.549-2.019,0.75c-2.53,0.7-5.286,0.907-7.907,0.907C42.434,3.688,37.203,0,30.818,0
	c-6.041,0-10.767,2.871-16.491,3.518C11.413,3.841,8.236,3.573,5.396,2.78c-0.75-0.201-1.438-0.457-2.012-0.75
	C2.688,1.67,1.835,1.964,1.475,2.646C1.286,3.023,1.28,3.463,1.433,3.841c1.232,3.023,1.543,5.889,1.232,9.114
	c-0.093,0.938-0.245,1.964-0.385,2.987c-0.195,1.367-0.402,2.77-0.512,4.269C0.749,20.467,0,21.406,0,22.497v14.954
	c0,1.299,1.061,2.36,2.365,2.36h3.286v3.157c0,0.781,0.646,1.434,1.428,1.434H12.4c0.786,0,1.421-0.652,1.421-1.434v-3.157h33.996
	v3.157c0,0.781,0.628,1.434,1.408,1.434h5.328c0.786,0,1.428-0.652,1.428-1.434v-3.157h3.285c1.305,0,2.371-1.062,2.371-2.36V22.497
	C61.638,21.406,60.888,20.467,59.87,20.211L59.87,20.211z M10.975,41.55L10.975,41.55H8.493v-1.738h2.481V41.55L10.975,41.55z
	 M53.133,41.55L53.133,41.55h-2.476v-1.738h2.476V41.55L53.133,41.55z M56.896,35.062L56.896,35.062H4.744V24.874h52.151V35.062
	L56.896,35.062z M26.722,18.161L26.722,18.161v1.658c0,0.056-0.023,0.087-0.055,0.135l-0.023,0.019
	c-0.025,0.019-0.068,0.037-0.098,0.037H10.858c-0.055,0-0.11-0.037-0.134-0.056c-0.024-0.048-0.049-0.079-0.049-0.135v-1.658
	c0-0.048,0.024-0.104,0.049-0.133l0.023-0.02c0.025-0.018,0.074-0.035,0.11-0.035h15.688c0.054,0,0.098,0.035,0.121,0.055
	C26.698,18.058,26.722,18.113,26.722,18.161L26.722,18.161z M50.962,18.161L50.962,18.161v1.658c0,0.056-0.023,0.087-0.061,0.135
	l-0.018,0.019c-0.025,0.019-0.067,0.037-0.104,0.037H35.093c-0.055,0-0.104-0.037-0.127-0.056l0,0l0,0
	c-0.031-0.048-0.049-0.079-0.049-0.135v-1.658c0-0.048,0.018-0.104,0.049-0.133l0.023-0.02c0.024-0.018,0.061-0.035,0.104-0.035
	H50.78c0.055,0,0.098,0.035,0.121,0.055h0.012h-0.012C50.938,18.058,50.962,18.113,50.962,18.161L50.962,18.161z M53.792,20.124
	L53.792,20.124l0.012-0.305v-1.658c0-0.835-0.335-1.603-0.883-2.15c-0.556-0.543-1.306-0.885-2.141-0.885H35.093
	c-0.781,0-1.506,0.322-2.037,0.816l-0.097,0.068c-0.542,0.548-0.897,1.315-0.897,2.15v1.658l0.025,0.305h-2.535l0.012-0.305v-1.658
	c0-0.835-0.342-1.603-0.884-2.15h-0.006c-0.55-0.543-1.305-0.885-2.128-0.885H10.858c-0.787,0-1.506,0.322-2.043,0.816l-0.098,0.068
	c-0.542,0.548-0.884,1.315-0.884,2.15v1.658l0.013,0.305H4.621c0.11-1.315,0.292-2.554,0.464-3.786
	c0.146-1.004,0.298-2.036,0.396-3.108c0.256-2.578,0.171-5.103-0.47-7.615c3.086,0.787,6.463,1.08,9.627,0.721
	C20.266,5.7,24.948,2.853,30.818,2.853c6.366,0,11.487,3.671,17.511,3.671c2.756,0,5.615-0.227,8.297-0.909
	c-0.645,2.513-0.731,5.037-0.476,7.615c0.104,1.072,0.258,2.104,0.397,3.108c0.176,1.232,0.354,2.471,0.463,3.786H53.792
	L53.792,20.124z"/>
</svg>
