<?xml version="1.0" encoding="utf-8"?>
<!-- Generator: Adobe Illustrator 16.0.0, SVG Export Plug-In . SVG Version: 6.00 Build 0)  -->
<!DOCTYPE svg PUBLIC "-//W3C//DTD SVG 1.1//EN" "http://www.w3.org/Graphics/SVG/1.1/DTD/svg11.dtd">
<svg version="1.1" id="Layer_1" xmlns="http://www.w3.org/2000/svg" xmlns:xlink="http://www.w3.org/1999/xlink" x="0px" y="0px"
	 width="107.37px" height="162.361px" viewBox="0 0 107.37 162.361" enable-background="new 0 0 107.37 162.361"
	 xml:space="preserve">
<line fill="none" stroke="#231247" stroke-width="5.6693" stroke-miterlimit="10" x1="54" y1="-0.296" x2="54" y2="199.704"/>
<g>
	<g>
		<path fill="#FFFFFF" d="M53.917,136.171c29.651,0,53.686-24.037,53.686-53.687c0-29.648-24.034-53.685-53.686-53.685
			c-29.649,0-53.685,24.037-53.685,53.685C0.232,112.134,24.268,136.171,53.917,136.171"/>
		<path fill="#231247" d="M84.624,113.19c-7.867,7.861-18.709,12.717-30.705,12.72c-11.998-0.003-22.842-4.858-30.707-12.72
			c-7.861-7.865-12.717-18.708-12.72-30.704c0.003-11.999,4.858-22.841,12.72-30.708c7.865-7.86,18.709-12.716,30.707-12.716
			c11.996,0,22.838,4.856,30.705,12.716c7.859,7.866,12.716,18.709,12.719,30.708C97.34,94.482,92.483,105.325,84.624,113.19
			 M87.691,48.711c-8.636-8.64-20.593-13.989-33.772-13.989c-13.184,0-25.136,5.349-33.774,13.989
			C11.503,57.35,6.155,69.304,6.155,82.487c0,13.18,5.348,25.135,13.989,33.771c8.639,8.642,20.591,13.989,33.774,13.989
			c13.18,0,25.137-5.348,33.772-13.989c8.64-8.636,13.988-20.591,13.988-33.771C101.68,69.304,96.331,57.35,87.691,48.711"/>
	</g>
</g>
<path fill="#231247" d="M32.519,58.495l45.164,15.031c1.334,0.433,2.067,1.872,1.623,3.206c-0.236,0.641-0.682,1.139-1.23,1.439l0,0
	l-13.188,6.934l12.716,12.716c0.994,1.008,0.994,2.605,0,3.585l-5.337,5.378c-1.021,0.981-2.617,0.981-3.611,0l-0.131-0.132
	L55.938,94.055l-6.907,13.187c-0.654,1.243-2.197,1.714-3.454,1.073c-0.628-0.353-1.073-0.929-1.255-1.57L29.326,61.699
	c-0.444-1.334,0.288-2.76,1.623-3.205C31.473,58.324,32.022,58.338,32.519,58.495L32.519,58.495z M70.435,76.458L70.435,76.458
	L35.737,64.905l11.566,34.71L53.06,88.65c0.105-0.222,0.262-0.444,0.445-0.615c0.994-0.98,2.591-0.994,3.585,0l13.37,13.345
	l1.779-1.766L58.946,86.349c-0.209-0.197-0.391-0.432-0.522-0.707c-0.653-1.242-0.183-2.773,1.046-3.427L70.435,76.458
	L70.435,76.458z"/>
</svg>
