<?xml version="1.0" encoding="utf-8"?>
<!-- Generator: Adobe Illustrator 16.0.0, SVG Export Plug-In . SVG Version: 6.00 Build 0)  -->
<!DOCTYPE svg PUBLIC "-//W3C//DTD SVG 1.1//EN" "http://www.w3.org/Graphics/SVG/1.1/DTD/svg11.dtd">
<svg version="1.1" id="Layer_1" xmlns="http://www.w3.org/2000/svg" xmlns:xlink="http://www.w3.org/1999/xlink" x="0px" y="0px"
	 width="79.333px" height="78.667px" viewBox="0 0 79.333 78.667" enable-background="new 0 0 79.333 78.667" xml:space="preserve">
<g>
	<g>
		
			<circle fill-rule="evenodd" clip-rule="evenodd" fill="#D04A33" stroke="#FFFFFF" stroke-width="2.8347" stroke-miterlimit="10" cx="40.438" cy="38.49" r="37.242"/>
		<circle fill-rule="evenodd" clip-rule="evenodd" fill="#D04A33" cx="44.239" cy="39.531" r="25.948"/>
		<g>
			<path fill-rule="evenodd" clip-rule="evenodd" fill="#FFFFFF" d="M53.004,33.629L53.004,33.629c0,0.342,0,0.686,0,0.98
				c0,8.232-6.604,18.082-18.184,18.082c-3.646,0-7.293-1.273-9.905-2.939c0.297,0,0.986,0,1.282,0c3.302,0,5.962-0.98,7.982-2.646
				c-2.661,0-4.978-1.961-5.962-4.559c0.641,0.295,0.984,0.295,1.281,0.295c0.689,0,1.33,0,1.675-0.295
				c-2.956-0.686-4.977-2.988-4.977-6.271c0.689,0.342,1.675,0.637,2.661,0.637c-1.627-0.98-2.661-2.941-2.661-5.244
				c0-0.98,0.345-2.303,0.689-3.283c3.302,3.92,7.934,6.566,13.206,6.91c0-0.686,0-0.98,0-1.666c0-3.283,2.662-6.225,6.308-6.225
				c1.972,0,3.647,0.637,4.633,1.961c1.675-0.344,2.956-0.686,4.286-1.666c-0.64,1.666-1.625,2.988-2.956,3.625
				c1.331,0,2.661-0.293,3.646-0.979C55.32,31.668,53.99,32.648,53.004,33.629z M40.439,7.312L40.439,7.312
				c-17.198,0-31.095,14.162-31.095,31.266S23.241,69.5,40.439,69.5c17.197,0,31.094-13.818,31.094-30.922
				S57.636,7.312,40.439,7.312z"/>
		</g>
	</g>
	<g>
		
			<circle fill-rule="evenodd" clip-rule="evenodd" fill="#D04A33" stroke="#FFFFFF" stroke-width="2.8347" stroke-miterlimit="10" cx="40.438" cy="-54.346" r="37.242"/>
		<circle fill-rule="evenodd" clip-rule="evenodd" fill="#D04A33" cx="41.057" cy="-53.245" r="25.948"/>
		<path fill-rule="evenodd" clip-rule="evenodd" fill="#FFFFFF" d="M47.177-59.643L47.177-59.643
			c-0.294,4.632-0.294,4.632-0.294,4.632c-4.606,0-4.606,0-4.606,0c0,16.212,0,16.212,0,16.212c-5.93,0-5.93,0-5.93,0
			c0-16.212,0-16.212,0-16.212c-3.284,0-3.284,0-3.284,0c0-4.632,0-4.632,0-4.632c3.284,0,3.284,0,3.284,0c0-3.006,0-3.006,0-3.006
			c0-1.626,0-3.647,0.979-4.928c0.98-1.331,2.304-2.316,4.95-2.316c3.92,0,5.586,0.641,5.586,0.641
			c-0.686,4.632-0.686,4.632-0.686,4.632s-1.323-0.345-2.598-0.345c-1.323,0-2.303,0.345-2.303,1.675c0,3.647,0,3.647,0,3.647
			H47.177z M40.61-85.465L40.61-85.465c-17.103,0-31.266,13.897-31.266,31.094c0,17.199,14.163,31.095,31.266,31.095
			c17.104,0,30.923-13.896,30.923-31.095C71.533-71.568,57.713-85.465,40.61-85.465z"/>
	</g>
	<g>
		
			<circle fill-rule="evenodd" clip-rule="evenodd" fill="#D04A33" stroke="#FFFFFF" stroke-width="2.8347" stroke-miterlimit="10" cx="134.988" cy="-54.346" r="37.241"/>
		<circle fill-rule="evenodd" clip-rule="evenodd" fill="#D04A33" cx="137.187" cy="-53.465" r="25.948"/>
		<path fill-rule="evenodd" clip-rule="evenodd" fill="#FFFFFF" d="M135.012-85.178c-17.232,0-31.119,13.896-31.119,31.094
			c0,17.198,13.887,31.094,31.119,31.094c17.186,0,31.07-13.896,31.07-31.094C166.083-71.282,152.198-85.178,135.012-85.178z
			 M149.489-48.76c-0.709,2.44-2.047,4.711-3.922,6.435c-1.773,1.639-3.996,2.761-6.346,3.301c-2.598,0.592-5.346,0.608-7.928-0.084
			c-2.047-0.544-3.977-1.52-5.633-2.84c-1.754-1.394-3.201-3.173-4.211-5.175c-1.553-3.065-2.029-6.655-1.344-10.021
			c0.271-1.351,0.725-2.665,1.346-3.895c1.785-3.572,5.002-6.397,8.781-7.691c3.352-1.161,7.109-1.134,10.439,0.091
			c1.85,0.679,3.543,1.753,4.988,3.09c-0.484,0.525-1.008,1.013-1.508,1.524c-0.951,0.949-1.898,1.902-2.852,2.85
			c-0.941-0.9-2.092-1.584-3.342-1.963c-1.469-0.444-3.049-0.505-4.549-0.185c-1.752,0.375-3.379,1.291-4.629,2.57
			c-1.014,1.027-1.785,2.288-2.25,3.655c-0.668,1.938-0.664,4.095-0.004,6.035c0.646,1.907,1.904,3.602,3.553,4.76
			c1.031,0.727,2.213,1.242,3.451,1.489c1.217,0.247,2.479,0.22,3.699,0.012c1.211-0.213,2.389-0.659,3.412-1.349
			c1.629-1.087,2.775-2.854,3.104-4.787c-2.816-0.001-5.631,0-8.447,0c-0.004-2.015,0-4.032,0-6.048
			c4.861-0.001,9.723-0.002,14.584,0C150.368-54.263,150.26-51.421,149.489-48.76z"/>
	</g>
	<g>
		
			<circle fill-rule="evenodd" clip-rule="evenodd" fill="#D04A33" stroke="#FFFFFF" stroke-width="2.8347" stroke-miterlimit="10" cx="134.988" cy="38.49" r="37.241"/>
		<g>
			<circle fill-rule="evenodd" clip-rule="evenodd" fill="#D04A33" cx="136.059" cy="38.551" r="27.543"/>
			<path fill="#FFFFFF" d="M120.252,40.656h2.463V53.98h2.328V40.656h2.506v-2.18h-7.297V40.656z M120.252,40.656"/>
			<path fill="#FFFFFF" d="M139.942,42.285c-0.768,0-1.488,0.422-2.164,1.254v-5.062h-2.094V53.98h2.094v-1.119
				c0.701,0.861,1.42,1.277,2.164,1.277c0.832,0,1.395-0.439,1.672-1.299c0.141-0.49,0.211-1.26,0.211-2.326v-4.6
				c0-1.094-0.07-1.857-0.211-2.322C141.336,42.727,140.774,42.285,139.942,42.285L139.942,42.285z M139.731,50.678
				c0,1.043-0.303,1.557-0.908,1.557c-0.344,0-0.693-0.164-1.045-0.514V44.68c0.352-0.344,0.701-0.508,1.045-0.508
				c0.602,0,0.908,0.533,0.908,1.574V50.678z M139.731,50.678"/>
			<path fill="#FFFFFF" d="M131.78,51.256c-0.465,0.656-0.902,0.979-1.324,0.979c-0.279,0-0.438-0.164-0.49-0.49
				c-0.018-0.068-0.018-0.322-0.018-0.812v-8.504h-2.096v9.135c0,0.814,0.072,1.367,0.188,1.717c0.211,0.584,0.676,0.859,1.35,0.859
				c0.77,0,1.559-0.465,2.391-1.42v1.262h2.096V42.428h-2.096V51.256z M131.78,51.256"/>
			<path fill="#FFFFFF" d="M133.579,31.756c0.68,0,1.008-0.539,1.008-1.623v-4.908c0-1.078-0.328-1.619-1.008-1.619
				c-0.682,0-1.012,0.541-1.012,1.619v4.908C132.567,31.217,132.897,31.756,133.579,31.756L133.579,31.756z M133.579,31.756"/>
			<path fill="#FFFFFF" d="M134.991,7.322c-17.148,0-31.047,13.898-31.047,31.047c0,17.145,13.898,31.041,31.047,31.041
				c17.143,0,31.041-13.896,31.041-31.041C166.032,21.221,152.133,7.322,134.991,7.322L134.991,7.322z M138.442,21.844h2.107v8.594
				c0,0.496,0,0.754,0.025,0.822c0.047,0.33,0.215,0.496,0.498,0.496c0.424,0,0.867-0.33,1.336-0.99v-8.922h2.115v11.674h-2.115
				v-1.273c-0.844,0.967-1.645,1.436-2.416,1.436c-0.684,0-1.15-0.279-1.365-0.869c-0.115-0.354-0.186-0.912-0.186-1.736V21.844z
				 M130.452,25.648c0-1.246,0.211-2.158,0.662-2.75c0.586-0.797,1.41-1.197,2.465-1.197c1.057,0,1.883,0.4,2.467,1.197
				c0.441,0.59,0.656,1.504,0.656,2.75v4.088c0,1.242-0.215,2.162-0.656,2.746c-0.584,0.797-1.41,1.197-2.467,1.197
				c-1.055,0-1.879-0.4-2.465-1.197c-0.451-0.584-0.662-1.504-0.662-2.746V25.648z M124.795,17.854l1.666,6.15l1.6-6.15h2.373
				l-2.822,9.318v6.346h-2.346v-6.346c-0.213-1.123-0.682-2.77-1.436-4.955c-0.492-1.455-1.008-2.914-1.504-4.363H124.795z
				 M151.7,54.998c-0.424,1.842-1.928,3.201-3.742,3.406c-4.297,0.477-8.641,0.479-12.971,0.477c-4.326,0.002-8.674,0-12.971-0.477
				c-1.814-0.205-3.318-1.564-3.742-3.406c-0.602-2.621-0.602-5.486-0.602-8.186c0-2.701,0.006-5.562,0.609-8.186
				c0.422-1.844,1.93-3.201,3.742-3.406c4.295-0.479,8.643-0.48,12.969-0.479c4.33-0.002,8.674,0,12.971,0.479
				c1.814,0.205,3.32,1.562,3.746,3.406c0.602,2.623,0.596,5.484,0.596,8.186C152.305,49.512,152.305,52.377,151.7,54.998
				L151.7,54.998z M151.7,54.998"/>
			<path fill="#FFFFFF" d="M146.608,42.285c-1.07,0-1.9,0.393-2.506,1.186c-0.443,0.586-0.645,1.488-0.645,2.723v4.047
				c0,1.227,0.225,2.137,0.668,2.715c0.605,0.791,1.439,1.184,2.535,1.184s1.951-0.412,2.529-1.252
				c0.256-0.369,0.42-0.791,0.49-1.254c0.02-0.211,0.045-0.672,0.045-1.35V49.98h-2.135c0,0.836-0.027,1.303-0.047,1.418
				c-0.119,0.557-0.418,0.836-0.936,0.836c-0.717,0-1.07-0.533-1.07-1.6v-2.051h4.188v-2.391c0-1.234-0.209-2.137-0.648-2.723
				C148.493,42.678,147.659,42.285,146.608,42.285L146.608,42.285z M147.633,46.84h-2.092v-1.064c0-1.07,0.35-1.604,1.047-1.604
				c0.695,0,1.045,0.533,1.045,1.604V46.84z M147.633,46.84"/>
		</g>
	</g>
</g>
</svg>
